newmtl blinn2SG
illum 4
Kd 0.00 0.00 0.00
Ka 0.00 0.00 0.00
Tf 1.00 1.00 1.00
map_Kd Window.tga
Ni 1.00
Ks 0.50 0.50 0.50
newmtl phongE1SG
illum 4
Kd 0.00 0.00 0.00
Ka 0.00 0.00 0.00
Tf 1.00 1.00 1.00
map_Kd Caseta.tga
Ni 1.00
Ks 0.50 0.50 0.50
