# This file uses centimeters as units for non-parametric coordinates.

mtllib Car_6.mtl
g default
v -27.798313 38.041950 20.219172
v -34.889469 38.041950 20.219172
v -27.798313 42.335026 20.219172
v -34.889469 42.335026 20.219172
v -26.041988 43.398331 18.326771
v -36.645794 43.398331 18.326771
v -26.041988 36.978649 18.326771
v -36.645794 36.978649 18.326771
v -26.041988 39.248577 18.326771
v -27.798313 39.362850 20.219172
v -22.376324 36.502514 17.777899
v -22.237843 36.910110 18.757862
v -22.237843 37.416462 18.757862
v -22.376324 37.372658 17.777899
v 49.414318 38.041950 20.219172
v 56.505466 38.041950 20.219172
v 49.414318 42.335026 20.219172
v 56.505466 42.335026 20.219172
v 47.657986 43.398331 18.326771
v 58.261799 43.398331 18.326771
v 47.657986 36.978649 18.326771
v 58.261799 36.978649 18.326771
v 47.657986 39.248577 18.326771
v 49.414318 39.362850 20.219172
v 43.992325 36.502514 17.777899
v 43.853844 36.910110 18.757862
v 43.853844 37.416462 18.757862
v 43.992325 37.372658 17.777899
v -21.129450 7.310227 62.505779
v 42.500610 7.310227 62.505779
v 42.500610 28.717571 58.971859
v -21.129450 28.717571 58.971859
v -23.806400 0.402150 53.634106
v -23.806400 33.212803 52.253296
v -23.806400 6.336296 52.253296
v -23.806400 5.080578 52.893116
v -6.776518 0.022793 52.253296
v 28.420094 0.022793 52.253296
v 28.420094 0.402150 53.634106
v 45.177563 0.402150 53.634106
v -6.776518 0.402150 53.634106
v 45.177563 5.080578 52.893116
v 45.177563 6.336296 52.253296
v 45.177563 33.212803 52.253296
v -23.806400 0.022793 20.311197
v -23.806400 0.022793 20.819208
v -23.806400 5.080581 21.620281
v -23.806400 9.663840 23.955566
v -23.806400 13.301136 27.592861
v -23.806400 15.636423 32.176121
v -23.806400 16.441097 37.256702
v -23.806400 15.636413 42.337280
v -23.806400 13.301127 46.920540
v -23.806400 9.663835 50.557831
v -23.806400 36.437561 20.311197
v 45.177563 0.022793 20.311197
v 45.177563 0.022793 20.819208
v 28.420094 0.022793 20.819208
v 28.420094 0.022793 37.186554
v 28.420094 0.022793 37.225330
v 28.420094 0.022793 37.240143
v 28.420094 0.022793 37.249298
v 28.420094 0.022793 37.256702
v 28.420094 0.022793 37.264107
v 28.420094 0.022793 37.273262
v 28.420094 0.022793 37.288074
v 28.420094 0.022793 37.326851
v -6.776518 0.022793 37.326851
v -6.776518 0.022793 37.288074
v -6.776518 0.022793 37.273262
v -6.776518 0.022793 37.264107
v -6.776518 0.022793 37.256702
v -6.776518 0.022793 37.249298
v -6.776518 0.022793 37.240143
v -6.776518 0.022793 37.225330
v -6.776518 0.022793 37.186554
v -6.776518 0.022793 20.819208
v 45.177563 36.437561 20.311197
v 45.177563 9.663835 50.557831
v 45.177563 13.301127 46.920540
v 45.177563 15.636413 42.337280
v 45.177563 16.441097 37.256702
v 45.177563 15.636423 32.176121
v 45.177563 13.301136 27.592861
v 45.177563 9.663840 23.955566
v 45.177563 5.080581 21.620281
v 22.553104 33.808891 50.216877
v -2.561623 33.808891 50.216877
v -23.806400 0.022793 -21.992813
v -23.806400 36.437561 -21.992813
v 45.177563 0.022793 -21.992813
v 45.177563 36.437561 -21.992813
v -23.806400 0.022793 -81.752586
v -23.806400 0.022793 -73.951691
v -23.806400 5.080581 -73.150612
v -23.806400 9.663840 -70.815323
v -23.806400 13.301136 -67.178032
v -23.806400 15.636423 -62.594772
v -23.806400 16.441097 -57.514191
v -23.806400 15.636413 -52.433613
v -23.806400 13.301127 -47.850357
v -23.806400 9.663835 -44.213062
v -23.806400 5.080578 -41.877777
v -23.806400 0.022793 -41.076698
v -23.806400 36.437561 -81.752586
v -23.530540 38.086929 17.153112
v -23.530540 38.086929 -19.510365
v -2.561623 39.709682 28.690773
v 45.177563 0.022793 -81.752586
v 45.177563 0.022793 -73.951691
v 28.420094 0.022793 -73.951691
v 28.420094 0.022793 -57.584339
v 28.420094 0.022793 -57.545563
v 28.420094 0.022793 -57.530750
v 28.420094 0.022793 -57.521595
v 28.420094 0.022793 -57.514191
v 28.420094 0.022793 -57.506786
v 28.420094 0.022793 -57.497631
v 28.420094 0.022793 -57.482819
v 28.420094 0.022793 -57.444042
v 28.420094 0.022793 -41.076698
v 45.177563 0.022793 -41.076698
v -6.776518 0.022793 -41.076698
v -6.776518 0.022793 -57.444042
v -6.776518 0.022793 -57.482819
v -6.776518 0.022793 -57.497631
v -6.776518 0.022793 -57.506786
v -6.776518 0.022793 -57.514191
v -6.776518 0.022793 -57.521595
v -6.776518 0.022793 -57.530750
v -6.776518 0.022793 -57.545563
v -6.776518 0.022793 -57.584339
v -6.776518 0.022793 -73.951691
v 45.177563 5.080578 -41.877777
v 45.177563 9.663835 -44.213062
v 45.177563 13.301127 -47.850357
v 45.177563 15.636413 -52.433613
v 45.177563 16.441097 -57.514191
v 45.177563 15.636423 -62.594772
v 45.177563 13.301136 -67.178032
v 45.177563 9.663840 -70.815323
v 45.177563 5.080581 -73.150612
v 45.177563 36.437561 -81.752586
v 44.901707 38.086929 -19.510365
v 44.901707 38.086929 17.153112
v 22.553104 39.709682 28.690773
v -18.867065 3.611655 -84.544052
v -18.867065 32.848701 -84.544052
v -21.075787 36.437561 -23.964401
v -21.075787 36.437561 -79.780983
v -18.161386 60.455524 -22.244411
v -18.161386 60.455524 3.126722
v -22.157986 37.857372 17.153112
v -22.157986 37.857372 -19.510365
v 4.706823 40.575111 19.485624
v -19.207617 38.255882 19.485624
v 40.238228 3.611655 -84.544052
v 40.238228 32.848701 -84.544052
v 42.446949 36.437561 -79.780983
v 42.446949 36.437561 -23.964401
v 39.532555 60.455524 3.126722
v 39.532555 60.455524 -22.244411
v 43.529148 37.857372 -19.510365
v 43.529148 37.857372 17.153112
v 40.578487 38.255882 19.485624
v 15.468321 40.575111 19.485624
v -21.075787 18.263390 -23.964401
v -21.075787 18.263390 -79.780983
v -16.851677 60.225964 -22.244411
v -17.839632 62.471653 -24.726860
v -17.839632 62.471653 4.547524
v -16.851677 60.225964 3.126722
v -14.036411 60.624477 5.459235
v 4.706823 39.947762 18.243429
v -19.207617 37.628532 18.243429
v 42.446949 18.263390 -79.780983
v 42.446949 18.263390 -23.964401
v 38.222847 60.225964 3.126722
v 39.210800 62.471653 4.547524
v 39.210800 62.471653 -24.726860
v 38.222847 60.225964 -22.244411
v 35.407295 60.624477 5.459235
v 40.578487 37.628532 18.243429
v 15.468321 39.947762 18.243429
v -19.207470 38.178970 -21.992813
v 40.578632 38.178970 -21.992813
v -14.036271 60.547565 -24.726860
v -14.036411 59.997128 4.217041
v 35.407433 60.547565 -24.726860
v 35.407295 59.997128 4.217041
v -19.207470 38.178970 -20.601192
v 40.578632 38.178970 -20.601192
v -14.036271 60.547565 -23.335239
v 35.407433 60.547565 -23.335239
v -6.776518 13.301136 27.592861
v -6.776518 15.636423 32.176121
v -6.776518 16.441097 37.256702
v -6.776518 9.663840 23.955566
v -6.776518 15.636413 42.337280
v -6.776518 5.080581 21.620281
v -6.776518 13.301127 46.920540
v -6.776518 9.663835 50.557831
v -6.776518 5.080578 52.893116
v 28.420094 15.636423 32.176121
v 28.420094 13.301136 27.592861
v 28.420094 9.663840 23.955566
v 28.420094 16.441097 37.256702
v 28.420094 5.080581 21.620281
v 28.420094 15.636413 42.337280
v 28.420094 13.301127 46.920540
v 28.420094 9.663835 50.557831
v 28.420094 5.080578 52.893116
v -6.776518 13.301136 -67.178032
v -6.776518 15.636423 -62.594772
v -6.776518 16.441097 -57.514191
v -6.776518 9.663840 -70.815323
v -6.776518 15.636413 -52.433613
v -6.776518 5.080581 -73.150612
v -6.776518 13.301127 -47.850357
v -6.776518 9.663835 -44.213062
v -6.776518 5.080578 -41.877777
v 28.420094 15.636423 -62.594772
v 28.420094 13.301136 -67.178032
v 28.420094 9.663840 -70.815323
v 28.420094 16.441097 -57.514191
v 28.420094 5.080581 -73.150612
v 28.420094 15.636413 -52.433613
v 28.420094 13.301127 -47.850357
v 28.420094 9.663835 -44.213062
v 28.420094 5.080578 -41.877777
v 3.126544 5.474382 -83.896957
v 15.137589 5.474382 -83.896957
v 3.126544 11.079536 -83.896957
v 15.137589 11.079536 -83.896957
v 3.126544 11.079536 -85.728333
v 15.137589 11.079536 -85.728333
v 3.126544 5.474382 -85.728333
v 15.137589 5.474382 -85.728333
v 4.991998 9.781977 63.391052
v 16.070856 9.781977 63.391052
v 4.991998 14.478008 62.615833
v 16.070856 14.478008 62.615833
v 4.991998 14.263744 60.802063
v 16.070856 14.263744 60.802063
v 4.991998 9.567713 61.577286
v 16.070856 9.567713 61.577286
v -17.844973 19.995022 -84.178558
v -4.225254 19.995022 -84.178558
v -17.844973 29.204266 -84.178558
v -4.225254 29.204266 -84.178558
v -17.844973 29.204266 -86.009933
v -4.225254 29.204266 -86.009933
v -17.844973 19.995022 -86.009933
v -4.225254 19.995022 -86.009933
v -19.822315 15.347359 62.472321
v -11.513169 15.347359 62.472321
v -19.822315 20.378820 61.641727
v -11.513169 20.378820 61.641727
v -19.822315 20.164557 59.827957
v -11.513169 20.164557 59.827957
v -19.822315 15.133093 60.658550
v -11.513169 15.133093 60.658550
v 32.927021 15.347359 62.472321
v 41.236164 15.347359 62.472321
v 32.927021 20.378820 61.641727
v 41.236164 20.378820 61.641727
v 32.927021 20.164557 59.827957
v 41.236164 20.164557 59.827957
v 32.927021 15.133093 60.658550
v 41.236164 15.133093 60.658550
v -19.996546 21.221436 61.502628
v -0.821599 21.221436 61.502628
v -19.996546 27.880724 60.403313
v -0.821599 27.880724 60.403313
v -19.996546 27.666460 58.589546
v -0.821599 27.666460 58.589546
v -19.996546 21.007172 59.688862
v -0.821599 21.007172 59.688862
v 22.137688 21.221436 61.502628
v 41.312634 21.221436 61.502628
v 22.137688 27.880724 60.403313
v 41.312634 27.880724 60.403313
v 22.137688 27.666460 58.589546
v 41.312634 27.666460 58.589546
v 22.137688 21.007172 59.688862
v 41.312634 21.007172 59.688862
v 25.566666 19.995022 -84.178558
v 39.186386 19.995022 -84.178558
v 25.566666 29.204266 -84.178558
v 39.186386 29.204266 -84.178558
v 25.566666 29.204266 -86.009933
v 39.186386 29.204266 -86.009933
v 25.566666 19.995022 -86.009933
v 39.186386 19.995022 -86.009933
v 10.685583 66.426300 4.547524
v 10.685583 66.426300 -24.726860
v -26.429598 33.444805 -0.840808
v -21.701271 3.015550 -0.840808
v 47.800758 33.444805 -0.840808
v 43.072433 3.015550 -0.840808
vt 0.882146 0.644601
vt 0.885003 0.644601
vt 0.883484 0.647819
vt 0.885147 0.647819
vt 0.891182 0.647819
vt 0.892521 0.644601
vt 0.894040 0.647819
vt 0.894184 0.644601
vt 0.344155 0.035661
vt 0.255893 0.035661
vt 0.329392 0.013597
vt 0.266821 0.041229
vt 0.259091 0.001992
vt 0.278765 0.053173
vt 0.251769 0.033560
vt 0.286434 0.068225
vt 0.236406 0.031126
vt 0.354745 0.140558
vt 0.289077 0.084909
vt 0.286434 0.101594
vt 0.278765 0.116645
vt 0.266821 0.128590
vt 0.251769 0.136259
vt 0.235160 0.138889
vt 0.235160 0.140558
vt 0.244988 0.210020
vt 0.344917 0.210020
vt 0.354745 0.279483
vt 0.360161 0.150929
vt 0.235160 0.279483
vt 0.360161 0.271330
vt 0.440240 0.192325
vt 0.235160 0.342153
vt 0.433619 0.280309
vt 0.433619 0.196991
vt 0.251769 0.344784
vt 0.440240 0.288461
vt 0.266821 0.352453
vt 0.278765 0.364398
vt 0.286434 0.379449
vt 0.354745 0.475732
vt 0.289077 0.396134
vt 0.286434 0.412818
vt 0.278765 0.427869
vt 0.266821 0.439814
vt 0.251769 0.447483
vt 0.235160 0.450114
vt 0.235160 0.475732
vt 0.555600 0.442063
vt 0.540838 0.464126
vt 0.467338 0.442063
vt 0.470537 0.475732
vt 0.478266 0.436495
vt 0.463215 0.444164
vt 0.490211 0.424550
vt 0.447851 0.446598
vt 0.497880 0.409499
vt 0.566190 0.337166
vt 0.500522 0.392815
vt 0.497880 0.376130
vt 0.490211 0.361079
vt 0.478266 0.349134
vt 0.463215 0.341465
vt 0.446605 0.338834
vt 0.446605 0.337166
vt 0.456433 0.267704
vt 0.556362 0.267704
vt 0.566190 0.198241
vt 0.571606 0.326795
vt 0.446605 0.198241
vt 0.571606 0.206394
vt 0.651685 0.285399
vt 0.446605 0.135570
vt 0.645064 0.197415
vt 0.645064 0.280733
vt 0.463215 0.132940
vt 0.651685 0.189263
vt 0.478266 0.125271
vt 0.490211 0.113326
vt 0.497880 0.098275
vt 0.566190 0.001992
vt 0.500522 0.081590
vt 0.497880 0.064906
vt 0.490211 0.049854
vt 0.478266 0.037910
vt 0.463215 0.030241
vt 0.446605 0.027610
vt 0.446605 0.001992
vt 0.190024 0.700908
vt 0.190024 0.884207
vt 0.130341 0.700908
vt 0.130341 0.884207
vt 0.314678 0.691741
vt 0.388135 0.737803
vt 0.314678 0.812142
vt 0.388135 0.821121
vt 0.256891 0.700908
vt 0.256891 0.884207
vt 0.197208 0.700908
vt 0.197208 0.884207
vt 0.423111 0.839055
vt 0.423111 0.718654
vt 0.496569 0.792993
vt 0.496569 0.709675
vt 0.641295 0.823397
vt 0.645374 0.821337
vt 0.687357 0.896855
vt 0.691436 0.894794
vt 0.635606 0.823397
vt 0.589544 0.896855
vt 0.631527 0.821337
vt 0.585464 0.894794
vt 0.524531 0.907236
vt 0.519961 0.907236
vt 0.515552 0.833778
vt 0.510982 0.833778
vt 0.491744 0.916214
vt 0.500723 0.842757
vt 0.496314 0.916214
vt 0.505293 0.842757
vt 0.643592 0.763482
vt 0.694867 0.780142
vt 0.643592 0.763512
vt 0.697510 0.763458
vt 0.687198 0.795194
vt 0.643592 0.763458
vt 0.643592 0.763561
vt 0.643592 0.763434
vt 0.675253 0.807139
vt 0.694867 0.746774
vt 0.643592 0.763688
vt 0.643592 0.763404
vt 0.660202 0.814808
vt 0.687198 0.731722
vt 0.643592 0.817438
vt 0.643592 0.763355
vt 0.675253 0.719778
vt 0.643592 0.763228
vt 0.660202 0.712109
vt 0.643592 0.714210
vt 0.644838 0.709675
vt 0.703231 0.763631
vt 0.703231 0.763601
vt 0.754505 0.746971
vt 0.746836 0.731920
vt 0.757148 0.763655
vt 0.703231 0.763552
vt 0.703231 0.763655
vt 0.734892 0.719975
vt 0.703231 0.763680
vt 0.703231 0.763425
vt 0.754505 0.780340
vt 0.719840 0.712306
vt 0.703231 0.763710
vt 0.703231 0.709675
vt 0.746836 0.795391
vt 0.703231 0.763758
vt 0.734892 0.807336
vt 0.703231 0.763886
vt 0.719840 0.815005
vt 0.703231 0.812904
vt 0.704477 0.817438
vt 0.524316 0.763680
vt 0.575590 0.780340
vt 0.524316 0.763710
vt 0.578233 0.763655
vt 0.567921 0.795391
vt 0.524316 0.763655
vt 0.524316 0.763758
vt 0.524316 0.763631
vt 0.555977 0.807336
vt 0.575590 0.746971
vt 0.524316 0.763886
vt 0.524316 0.763601
vt 0.540925 0.815005
vt 0.567921 0.731920
vt 0.524316 0.817636
vt 0.524316 0.763552
vt 0.555976 0.719975
vt 0.524316 0.763425
vt 0.540925 0.712306
vt 0.524316 0.709675
vt 0.583954 0.763631
vt 0.583954 0.763601
vt 0.635229 0.746971
vt 0.627560 0.731920
vt 0.637871 0.763655
vt 0.583954 0.763552
vt 0.583954 0.763655
vt 0.615615 0.719975
vt 0.583954 0.763680
vt 0.583954 0.763425
vt 0.635229 0.780340
vt 0.600564 0.712306
vt 0.583954 0.763710
vt 0.583954 0.709675
vt 0.627560 0.795391
vt 0.583954 0.763758
vt 0.615615 0.807336
vt 0.583954 0.763886
vt 0.600564 0.815005
vt 0.583954 0.817636
vt 0.741182 0.903375
vt 0.747197 0.903375
vt 0.741182 0.921782
vt 0.747197 0.921782
vt 0.753833 0.907302
vt 0.759847 0.907302
vt 0.753833 0.925709
vt 0.759847 0.925709
vt 0.853230 0.892503
vt 0.859187 0.891799
vt 0.855776 0.907925
vt 0.861732 0.907221
vt 0.876190 0.892503
vt 0.873645 0.907925
vt 0.870234 0.891799
vt 0.867688 0.907221
vt 0.480942 0.909428
vt 0.486956 0.909428
vt 0.480942 0.939670
vt 0.486956 0.939670
vt 0.493593 0.919915
vt 0.499607 0.919915
vt 0.493593 0.950158
vt 0.499607 0.950158
vt 0.795399 0.908005
vt 0.801356 0.907302
vt 0.798127 0.924528
vt 0.804083 0.923825
vt 0.818541 0.892503
vt 0.815813 0.909026
vt 0.812585 0.891800
vt 0.809857 0.908323
vt 0.824315 0.892503
vt 0.830271 0.891800
vt 0.827042 0.909026
vt 0.832999 0.908323
vt 0.847457 0.892503
vt 0.844729 0.909026
vt 0.841500 0.891800
vt 0.838773 0.908323
vt 0.676122 0.901259
vt 0.682079 0.900556
vt 0.679733 0.923128
vt 0.685689 0.922425
vt 0.701954 0.904078
vt 0.698344 0.925947
vt 0.695998 0.903375
vt 0.692387 0.925244
vt 0.708652 0.904078
vt 0.714609 0.903375
vt 0.712263 0.925947
vt 0.718219 0.925244
vt 0.734484 0.904078
vt 0.730874 0.925947
vt 0.728528 0.903375
vt 0.724917 0.925244
vt 0.506243 0.919915
vt 0.512258 0.919915
vt 0.506243 0.950158
vt 0.512258 0.950158
vt 0.518894 0.910937
vt 0.524908 0.910937
vt 0.518894 0.941180
vt 0.524908 0.941180
vt 0.455641 0.915195
vt 0.461856 0.909428
vt 0.455641 0.938483
vt 0.461856 0.944250
vt 0.003650 0.955470
vt 0.009864 0.961237
vt 0.003650 0.990292
vt 0.005065 0.942977
vt 0.009864 0.984524
vt 0.001847 0.943432
vt 0.766484 0.925562
vt 0.771282 0.907302
vt 0.772698 0.919794
vt 0.774501 0.907756
vt 0.468292 0.938482
vt 0.468292 0.915195
vt 0.474506 0.944250
vt 0.474506 0.909428
vt 0.045397 0.985515
vt 0.045397 0.950693
vt 0.051611 0.979747
vt 0.051611 0.956460
vt 0.046812 0.998008
vt 0.043594 0.997553
vt 0.780941 0.907302
vt 0.787156 0.913069
vt 0.785740 0.925562
vt 0.788958 0.925107
vt 0.057773 0.451230
vt 0.173357 0.451230
vt 0.057773 0.455765
vt 0.057773 0.402212
vt 0.173357 0.455765
vt 0.173357 0.402212
vt 0.010638 0.484899
vt 0.057773 0.402085
vt 0.219597 0.484899
vt 0.001847 0.455765
vt 0.173357 0.402085
vt 0.228388 0.455765
vt 0.057773 0.402036
vt 0.173357 0.402036
vt 0.057773 0.402006
vt 0.173357 0.402006
vt 0.057773 0.401982
vt 0.173357 0.401982
vt 0.057773 0.401957
vt 0.173357 0.401957
vt 0.057773 0.401927
vt 0.173357 0.401927
vt 0.057773 0.401879
vt 0.173357 0.401879
vt 0.057773 0.401751
vt 0.173357 0.401751
vt 0.057773 0.348001
vt 0.173357 0.348001
vt 0.228388 0.346333
vt 0.228388 0.348001
vt 0.001847 0.348001
vt 0.001847 0.346333
vt 0.221475 0.276871
vt 0.008760 0.276871
vt 0.228388 0.207408
vt 0.001847 0.207408
vt 0.173357 0.144737
vt 0.057773 0.144737
vt 0.228388 0.144737
vt 0.001847 0.144737
vt 0.173357 0.090988
vt 0.057773 0.090988
vt 0.173357 0.090860
vt 0.057773 0.090860
vt 0.173357 0.090812
vt 0.057773 0.090812
vt 0.173357 0.090782
vt 0.057773 0.090782
vt 0.173357 0.090757
vt 0.057773 0.090757
vt 0.173357 0.090733
vt 0.057773 0.090733
vt 0.173357 0.090703
vt 0.057773 0.090703
vt 0.173357 0.090654
vt 0.057773 0.090654
vt 0.173357 0.090527
vt 0.057773 0.090527
vt 0.173357 0.036777
vt 0.057773 0.036777
vt 0.228388 0.011159
vt 0.001847 0.036777
vt 0.228388 0.036777
vt 0.001847 0.011159
vt 0.212168 0.001992
vt 0.018068 0.001992
vt 0.785010 0.228533
vt 0.680114 0.228533
vt 0.757492 0.158766
vt 0.686801 0.158766
vt 0.787722 0.213431
vt 0.658050 0.219742
vt 0.757492 0.076290
vt 0.787722 0.134897
vt 0.836778 0.208938
vt 0.658050 0.010783
vt 0.686801 0.076290
vt 0.791801 0.134897
vt 0.833784 0.196449
vt 0.680114 0.001992
vt 0.787722 0.099556
vt 0.785010 0.001992
vt 0.787722 0.017095
vt 0.791801 0.099556
vt 0.837863 0.196449
vt 0.836778 0.021587
vt 0.837863 0.034077
vt 0.833784 0.034077
vt 0.790991 0.705974
vt 0.594742 0.705974
vt 0.784517 0.697007
vt 0.601217 0.697007
vt 0.784517 0.488400
vt 0.594742 0.479433
vt 0.790991 0.479433
vt 0.601217 0.488400
vt 0.800159 0.689753
vt 0.800159 0.495654
vt 0.502629 0.830077
vt 0.502629 0.709675
vt 0.507136 0.830077
vt 0.507136 0.709675
vt 0.517980 0.709675
vt 0.517980 0.830077
vt 0.513472 0.709675
vt 0.513472 0.830077
vt 0.697126 0.899674
vt 0.701205 0.821139
vt 0.701205 0.899674
vt 0.747267 0.882692
vt 0.757036 0.903600
vt 0.752956 0.821139
vt 0.757036 0.821139
vt 0.803098 0.838121
vt 0.094847 0.697206
vt 0.094847 0.488600
vt 0.278147 0.697206
vt 0.278147 0.488600
vt 0.303394 0.775059
vt 0.303394 0.691741
vt 0.307695 0.775059
vt 0.307695 0.691741
vt 0.290269 0.821121
vt 0.285762 0.821121
vt 0.398497 0.692093
vt 0.398497 0.775411
vt 0.394195 0.692093
vt 0.394195 0.775411
vt 0.411621 0.821473
vt 0.416129 0.821473
vt 0.089158 0.488600
vt 0.089158 0.684936
vt 0.084588 0.488600
vt 0.084588 0.684936
vt 0.027329 0.888259
vt 0.027329 0.794583
vt 0.123465 0.888259
vt 0.123465 0.794583
vt 0.123465 0.700908
vt 0.027329 0.700908
vt 0.268155 0.700908
vt 0.268155 0.863279
vt 0.264075 0.700908
vt 0.264075 0.863279
vt 0.274919 0.863279
vt 0.274919 0.700908
vt 0.279489 0.863279
vt 0.279489 0.700908
vt 0.762869 0.736671
vt 0.762869 0.721620
vt 0.818795 0.736671
vt 0.818795 0.721620
vt 0.818795 0.753356
vt 0.762869 0.709675
vt 0.762869 0.753356
vt 0.818795 0.709675
vt 0.818795 0.770040
vt 0.762869 0.770040
vt 0.818795 0.785091
vt 0.762869 0.785091
vt 0.818795 0.797036
vt 0.762869 0.797036
vt 0.881153 0.474421
vt 0.881153 0.489472
vt 0.826122 0.474421
vt 0.826122 0.489472
vt 0.826122 0.462476
vt 0.881153 0.506157
vt 0.881153 0.462476
vt 0.826122 0.506157
vt 0.881153 0.522841
vt 0.826122 0.522841
vt 0.881153 0.537893
vt 0.826122 0.537893
vt 0.881153 0.549837
vt 0.826122 0.549837
vt 0.869507 0.580535
vt 0.869507 0.565483
vt 0.925432 0.580535
vt 0.925432 0.565483
vt 0.925432 0.597219
vt 0.869507 0.553539
vt 0.869507 0.597219
vt 0.925432 0.553539
vt 0.925432 0.613904
vt 0.869507 0.613904
vt 0.925432 0.628955
vt 0.869507 0.628955
vt 0.925432 0.640900
vt 0.869507 0.640900
vt 0.863818 0.812682
vt 0.863818 0.827733
vt 0.808787 0.812682
vt 0.808787 0.827733
vt 0.808787 0.800737
vt 0.863818 0.844418
vt 0.863818 0.800737
vt 0.808787 0.844418
vt 0.863818 0.861102
vt 0.808787 0.861102
vt 0.863818 0.876154
vt 0.808787 0.876154
vt 0.863818 0.888098
vt 0.808787 0.888098
vt 0.336364 0.930937
vt 0.336364 0.891493
vt 0.342378 0.930937
vt 0.342378 0.891493
vt 0.374316 0.930937
vt 0.374316 0.891493
vt 0.380330 0.930937
vt 0.380330 0.891493
vt 0.408653 0.945810
vt 0.408653 0.909428
vt 0.414610 0.945810
vt 0.414610 0.909428
vt 0.442991 0.945810
vt 0.442991 0.909428
vt 0.448947 0.945810
vt 0.448947 0.909428
vt 0.152027 0.991367
vt 0.152027 0.946641
vt 0.158042 0.991367
vt 0.158042 0.946641
vt 0.200823 0.992262
vt 0.200823 0.947535
vt 0.206837 0.992262
vt 0.206837 0.947535
vt 0.555038 0.926537
vt 0.555038 0.899250
vt 0.560995 0.926537
vt 0.560995 0.899250
vt 0.591183 0.927843
vt 0.591183 0.900556
vt 0.597139 0.927843
vt 0.597139 0.900556
vt 0.627327 0.927843
vt 0.627327 0.900556
vt 0.633284 0.927843
vt 0.633284 0.900556
vt 0.663472 0.927843
vt 0.663472 0.900556
vt 0.669428 0.927843
vt 0.669428 0.900556
vt 0.452541 0.905726
vt 0.452541 0.842757
vt 0.458497 0.905726
vt 0.458497 0.842757
vt 0.413337 0.905726
vt 0.413337 0.842757
vt 0.419294 0.905726
vt 0.419294 0.842757
vt 0.374134 0.887792
vt 0.374134 0.824822
vt 0.380090 0.887792
vt 0.380090 0.824822
vt 0.334930 0.887792
vt 0.334930 0.824822
vt 0.340886 0.887792
vt 0.340886 0.824822
vt 0.249618 0.992262
vt 0.249618 0.947535
vt 0.255632 0.992262
vt 0.255632 0.947535
vt 0.298413 0.929176
vt 0.298413 0.884449
vt 0.304427 0.929176
vt 0.304427 0.884449
vt 0.015342 0.910221
vt 0.019680 0.910221
vt 0.015342 0.933508
vt 0.013288 0.891961
vt 0.029440 0.933508
vt 0.011625 0.891961
vt 0.029440 0.910221
vt 0.011850 0.939276
vt 0.019305 0.904453
vt 0.032932 0.939276
vt 0.032932 0.904453
vt 0.058052 0.962731
vt 0.071680 0.962731
vt 0.058052 0.997553
vt 0.079134 0.997553
vt 0.079134 0.962731
vt 0.077840 0.950693
vt 0.080697 0.950693
vt 0.020203 0.979747
vt 0.020203 0.956460
vt 0.024540 0.979747
vt 0.034301 0.956460
vt 0.018149 0.998008
vt 0.016711 0.950693
vt 0.034301 0.979747
vt 0.016486 0.998008
vt 0.037793 0.950693
vt 0.024165 0.985515
vt 0.037793 0.985515
vt 0.086967 0.985515
vt 0.086967 0.950693
vt 0.100595 0.985515
vt 0.108049 0.950693
vt 0.108049 0.985515
vt 0.106756 0.997553
vt 0.109613 0.997553
vt 0.414581 0.688392
vt 0.414581 0.479433
vt 0.484882 0.688392
vt 0.484882 0.479433
vt 0.913647 0.442555
vt 0.925433 0.458775
vt 0.817633 0.442555
vt 0.805848 0.458775
vt 0.817633 0.248455
vt 0.913647 0.248455
vt 0.805848 0.232234
vt 0.925433 0.232234
vt 0.557842 0.822091
vt 0.562349 0.821337
vt 0.575474 0.895548
vt 0.579775 0.894794
vt 0.552153 0.822091
vt 0.534521 0.895548
vt 0.547645 0.821337
vt 0.530220 0.894794
vt 0.408892 0.479433
vt 0.408892 0.688040
vt 0.349209 0.479433
vt 0.349209 0.688040
vt 0.589053 0.479433
vt 0.589053 0.705974
vt 0.583334 0.494536
vt 0.583334 0.690871
vt 0.503558 0.499028
vt 0.503558 0.686379
vt 0.509877 0.511518
vt 0.509877 0.673889
vt 0.490571 0.592704
vt 0.283836 0.688039
vt 0.283836 0.479433
vt 0.343519 0.688039
vt 0.343519 0.479433
vt 0.007913 0.688637
vt 0.020900 0.782313
vt 0.001847 0.701127
vt 0.001847 0.863499
vt 0.007913 0.875988
vt 0.078899 0.488600
vt 0.078899 0.684936
vt 0.005441 0.505582
vt 0.005441 0.667954
vt 0.329241 0.880748
vt 0.314190 0.880748
vt 0.329241 0.824822
vt 0.314190 0.824822
vt 0.297580 0.824822
vt 0.297580 0.880748
vt 0.276527 0.943834
vt 0.272403 0.943834
vt 0.276527 0.887909
vt 0.261476 0.887909
vt 0.291891 0.943834
vt 0.261476 0.943834
vt 0.291891 0.887909
vt 0.166035 0.887909
vt 0.181087 0.887909
vt 0.166035 0.942940
vt 0.181087 0.942940
vt 0.149426 0.887909
vt 0.149426 0.942940
vt 0.113321 0.891961
vt 0.124249 0.891961
vt 0.113321 0.946991
vt 0.128373 0.946991
vt 0.128373 0.891961
vt 0.143737 0.891961
vt 0.143737 0.946991
vt 0.255787 0.943834
vt 0.240735 0.943834
vt 0.255787 0.887909
vt 0.240735 0.887909
vt 0.224126 0.887909
vt 0.224126 0.943834
vt 0.201827 0.943834
vt 0.186776 0.943834
vt 0.201827 0.887909
vt 0.186776 0.887909
vt 0.218437 0.943834
vt 0.218437 0.887909
vt 0.092581 0.891961
vt 0.107632 0.891961
vt 0.092581 0.946992
vt 0.107632 0.946992
vt 0.075972 0.891961
vt 0.075972 0.946992
vt 0.038621 0.891961
vt 0.053673 0.891961
vt 0.038621 0.946992
vt 0.053673 0.946992
vt 0.070282 0.891961
vt 0.070282 0.946992
vt 0.311063 0.923893
vt 0.311063 0.884449
vt 0.329470 0.923893
vt 0.329470 0.884449
vt 0.349015 0.930937
vt 0.349015 0.891493
vt 0.367422 0.930937
vt 0.367422 0.891493
vt 0.386967 0.928228
vt 0.386967 0.891846
vt 0.402388 0.928228
vt 0.402388 0.891846
vt 0.421304 0.945810
vt 0.421304 0.909428
vt 0.436725 0.945810
vt 0.436725 0.909428
vt 0.115883 0.995419
vt 0.115883 0.950693
vt 0.146126 0.995419
vt 0.146126 0.950693
vt 0.164678 0.992262
vt 0.164678 0.947535
vt 0.194921 0.992262
vt 0.194921 0.947535
vt 0.531545 0.926537
vt 0.531545 0.899250
vt 0.548068 0.926537
vt 0.548068 0.899250
vt 0.567689 0.927843
vt 0.567689 0.900556
vt 0.584212 0.927843
vt 0.584212 0.900556
vt 0.603833 0.927843
vt 0.603833 0.900556
vt 0.620357 0.927843
vt 0.620357 0.900556
vt 0.639978 0.927843
vt 0.639978 0.900556
vt 0.656501 0.927843
vt 0.656501 0.900556
vt 0.464186 0.905726
vt 0.464186 0.842757
vt 0.486055 0.905726
vt 0.486055 0.842757
vt 0.424983 0.905726
vt 0.424983 0.842757
vt 0.446852 0.905726
vt 0.446852 0.842757
vt 0.385779 0.888144
vt 0.385779 0.825175
vt 0.407648 0.888144
vt 0.407648 0.825175
vt 0.346576 0.887792
vt 0.346576 0.824822
vt 0.368444 0.887792
vt 0.368444 0.824822
vt 0.213473 0.992262
vt 0.213473 0.947535
vt 0.243716 0.992262
vt 0.243716 0.947535
vt 0.262268 0.992262
vt 0.262268 0.947535
vt 0.292511 0.992262
vt 0.292511 0.947535
vn 0.000000 0.000000 1.000000
vn 0.000000 0.000000 1.000000
vn 0.000000 0.000000 1.000000
vn 0.000000 0.000000 1.000000
vn 0.000000 0.000000 1.000000
vn 0.000000 0.000000 1.000000
vn 0.000000 0.000000 1.000000
vn 0.000000 0.000000 1.000000
vn 0.000000 0.000000 1.000000
vn 0.000000 0.871808 0.489848
vn 0.000000 0.871807 0.489850
vn 0.000000 0.871805 0.489854
vn 0.000000 0.871805 0.489854
vn 0.000000 0.871807 0.489850
vn 0.000000 0.871804 0.489854
vn 0.000000 0.000000 -1.000000
vn 0.000000 0.000000 -1.000000
vn 0.000000 0.000000 -1.000000
vn 0.000000 0.000000 -1.000000
vn 0.000000 0.000000 -1.000000
vn 0.000000 0.000000 -1.000000
vn 0.000000 0.000000 -1.000000
vn 0.000000 0.000000 -1.000000
vn 0.000000 0.000000 -1.000000
vn -0.032822 -0.884816 0.464784
vn -0.006135 -0.874211 0.485507
vn 0.000000 -0.871806 0.489852
vn 0.000000 -0.871806 0.489852
vn -0.006135 -0.874211 0.485507
vn 0.000000 -0.871805 0.489853
vn -0.732968 0.000000 0.680263
vn -0.732969 0.000000 0.680262
vn -0.732969 0.000000 0.680263
vn -0.732969 0.000000 0.680263
vn -0.732969 0.000000 0.680262
vn -0.732969 0.000000 0.680262
vn 0.732970 0.000000 0.680261
vn 0.732969 0.000000 0.680262
vn 0.732969 0.000000 0.680262
vn 0.732969 0.000000 0.680262
vn 0.732969 0.000000 0.680262
vn 0.732968 0.000000 0.680263
vn 0.990163 0.000000 -0.139922
vn 0.990163 0.000000 -0.139922
vn 0.990162 0.000000 -0.139923
vn 0.990162 0.000000 -0.139923
vn 0.990163 0.000000 -0.139922
vn 0.990162 0.000000 -0.139924
vn -0.060817 -0.918531 0.390642
vn -0.062988 -0.909341 0.411256
vn -0.032822 -0.884816 0.464784
vn -0.032822 -0.884816 0.464784
vn -0.062988 -0.909341 0.411256
vn -0.006135 -0.874211 0.485507
vn 0.254170 0.000000 0.967160
vn 0.254171 0.000000 0.967159
vn 0.254172 0.000000 0.967159
vn 0.254172 0.000000 0.967159
vn 0.254171 0.000000 0.967159
vn 0.254172 0.000000 0.967159
vn 0.385021 0.871148 0.304731
vn 0.428777 0.902033 0.049870
vn 0.389117 0.875422 0.286749
vn 0.389117 0.875422 0.286749
vn 0.428777 0.902033 0.049870
vn 0.441014 0.891664 -0.102185
vn -0.148083 0.000000 -0.988975
vn -0.148083 0.000000 -0.988975
vn -0.148083 0.000000 -0.988975
vn -0.148083 0.000000 -0.988975
vn -0.148083 0.000000 -0.988975
vn -0.148083 0.000000 -0.988975
vn 0.000000 0.000000 1.000000
vn 0.000000 0.000000 1.000000
vn 0.000000 0.000000 1.000000
vn 0.000000 0.000000 1.000000
vn 0.000000 0.000000 1.000000
vn 0.000000 0.000000 1.000000
vn 0.000000 0.000000 1.000000
vn 0.000000 0.000000 1.000000
vn 0.000000 0.000000 1.000000
vn 0.000000 0.871807 0.489850
vn 0.000000 0.871805 0.489853
vn 0.000000 0.871806 0.489851
vn 0.000000 0.871806 0.489851
vn 0.000000 0.871805 0.489853
vn 0.000000 0.871805 0.489854
vn 0.000000 0.000000 -1.000000
vn 0.000000 0.000000 -1.000000
vn 0.000000 0.000000 -1.000000
vn 0.000000 0.000000 -1.000000
vn 0.000000 0.000000 -1.000000
vn 0.000000 0.000000 -1.000000
vn 0.000000 0.000000 -1.000000
vn 0.000000 0.000000 -1.000000
vn 0.000000 0.000000 -1.000000
vn 0.032822 -0.884816 0.464783
vn 0.000000 -0.871807 0.489850
vn 0.006135 -0.874211 0.485507
vn 0.006135 -0.874211 0.485507
vn 0.000000 -0.871807 0.489850
vn 0.000000 -0.871806 0.489851
vn 0.732966 0.000000 0.680265
vn 0.732967 0.000000 0.680264
vn 0.732967 0.000000 0.680264
vn 0.732967 0.000000 0.680264
vn 0.732967 0.000000 0.680264
vn 0.732967 0.000000 0.680264
vn -0.732967 0.000000 0.680264
vn -0.732967 0.000000 0.680264
vn -0.732967 0.000000 0.680264
vn -0.732967 0.000000 0.680264
vn -0.732967 0.000000 0.680264
vn -0.732967 0.000000 0.680264
vn -0.990163 0.000000 -0.139922
vn -0.990162 0.000000 -0.139923
vn -0.990163 0.000000 -0.139922
vn -0.990163 0.000000 -0.139922
vn -0.990162 0.000000 -0.139923
vn -0.990162 0.000000 -0.139924
vn 0.006135 -0.874211 0.485507
vn 0.062988 -0.909341 0.411256
vn 0.032822 -0.884816 0.464783
vn 0.032822 -0.884816 0.464783
vn 0.062988 -0.909341 0.411256
vn 0.060817 -0.918531 0.390642
vn -0.254171 0.000000 0.967159
vn -0.254170 0.000000 0.967160
vn -0.254171 0.000000 0.967159
vn -0.254171 0.000000 0.967159
vn -0.254170 0.000000 0.967160
vn -0.254170 0.000000 0.967160
vn -0.385021 0.871149 0.304728
vn -0.389117 0.875423 0.286746
vn -0.428777 0.902033 0.049875
vn -0.428777 0.902033 0.049875
vn -0.389117 0.875423 0.286746
vn -0.441015 0.891665 -0.102175
vn 0.148083 0.000000 -0.988975
vn 0.148083 0.000000 -0.988975
vn 0.148083 0.000000 -0.988975
vn 0.148083 0.000000 -0.988975
vn 0.148083 0.000000 -0.988975
vn 0.148083 0.000000 -0.988975
vn 0.000000 0.162875 0.986647
vn 0.000000 0.162875 0.986647
vn 0.000000 0.162875 0.986647
vn 0.000000 0.162875 0.986647
vn 0.000000 0.162875 0.986647
vn 0.000000 0.162875 0.986647
vn -0.996847 0.000000 0.079353
vn -0.966344 0.035752 0.254758
vn -0.939556 0.009635 0.342260
vn -0.964951 0.041053 0.259199
vn -0.967537 0.041465 0.249303
vn -0.965116 0.060743 0.254678
vn -0.965116 0.060743 0.254678
vn -0.967537 0.041465 0.249303
vn -0.966344 0.035752 0.254758
vn -0.967537 0.041465 0.249303
vn -0.939556 0.009635 0.342260
vn -0.966344 0.035752 0.254758
vn 0.000000 -0.789012 0.614377
vn 0.000000 -0.789012 0.614377
vn 0.000000 -0.798754 0.601658
vn 0.000000 -0.789012 0.614377
vn 0.000000 -0.789012 0.614378
vn 0.000000 -0.798754 0.601658
vn 0.000000 -0.789012 0.614377
vn 0.000000 -0.804541 0.593897
vn 0.000000 -0.789012 0.614378
vn 0.000000 -0.999730 0.023257
vn 0.000000 -0.999730 0.023257
vn 0.000000 -0.804541 0.593897
vn 0.000000 -0.999730 0.023257
vn 0.000000 -0.798754 0.601658
vn 0.000000 -0.804541 0.593897
vn 0.000000 -0.798754 0.601658
vn 0.000000 -0.789012 0.614378
vn 0.000000 -0.804541 0.593897
vn 0.996847 0.000000 0.079353
vn 0.939556 0.009635 0.342260
vn 0.966344 0.035752 0.254758
vn 0.964951 0.041053 0.259199
vn 0.965116 0.060742 0.254678
vn 0.967537 0.041465 0.249303
vn 0.965116 0.060742 0.254678
vn 0.966344 0.035752 0.254758
vn 0.967537 0.041465 0.249303
vn 0.967537 0.041465 0.249303
vn 0.966344 0.035752 0.254758
vn 0.939556 0.009635 0.342260
vn -0.083177 0.963390 0.254876
vn 0.012615 0.852529 0.522528
vn 0.000215 0.921502 0.388374
vn 0.012615 0.852529 0.522528
vn -0.015466 0.848637 0.528749
vn 0.000215 0.921502 0.388374
vn 0.000215 0.921502 0.388374
vn -0.015466 0.848637 0.528749
vn -0.000244 0.940196 0.340633
vn -0.015466 0.848637 0.528749
vn 0.081061 0.964421 0.251637
vn -0.000244 0.940196 0.340633
vn -0.966344 0.035752 0.254758
vn -0.996847 0.000000 0.079353
vn -1.000000 0.000000 0.000000
vn -1.000000 0.000000 0.000000
vn -0.996847 0.000000 0.079353
vn -1.000000 0.000000 0.000000
vn -1.000000 0.000000 0.000000
vn -0.996847 0.000000 0.079353
vn -1.000000 0.000000 0.000000
vn -0.996847 0.000000 0.079353
vn -0.998543 -0.046099 0.028051
vn -1.000000 0.000000 0.000000
vn -1.000000 0.000000 0.000000
vn -0.998543 -0.046099 0.028051
vn -1.000000 0.000000 0.000000
vn -1.000000 0.000000 0.000000
vn -0.998543 -0.046099 0.028051
vn -1.000000 0.000000 0.000000
vn -1.000000 0.000000 0.000000
vn -0.998543 -0.046099 0.028051
vn -1.000000 0.000000 0.000000
vn -0.995332 0.000000 -0.096515
vn -1.000000 0.000000 0.000000
vn -0.998543 -0.046099 0.028051
vn -1.000000 0.000000 0.000000
vn -1.000000 0.000000 0.000000
vn -0.998543 -0.046099 0.028051
vn -1.000000 0.000000 0.000000
vn -1.000000 0.000000 0.000000
vn -0.998543 -0.046099 0.028051
vn -1.000000 0.000000 0.000000
vn -1.000000 0.000000 0.000000
vn -0.998543 -0.046099 0.028051
vn 0.000000 -0.990641 -0.136490
vn 0.000000 -0.990262 -0.139219
vn 0.000000 -1.000000 0.000000
vn 0.000000 -1.000000 0.000000
vn 0.000000 -0.990262 -0.139219
vn 0.000000 -1.000000 0.000000
vn 0.000000 -1.000000 0.000000
vn 0.000000 -1.000000 0.000000
vn 0.000000 -0.990262 -0.139219
vn 0.000000 -0.990262 -0.139219
vn 0.000000 -1.000000 0.000000
vn 0.000000 -1.000000 0.000000
vn 0.000000 -1.000000 0.000000
vn 0.000000 -1.000000 0.000000
vn 0.000000 -1.000000 0.000000
vn 0.000000 -1.000000 0.000000
vn 0.000000 -1.000000 0.000000
vn 0.000000 -1.000000 0.000000
vn 0.000000 -1.000000 0.000000
vn 0.000000 -1.000000 0.000000
vn 0.000000 -1.000000 0.000000
vn 0.000000 -1.000000 0.000000
vn 0.000000 -1.000000 0.000000
vn 0.000000 -1.000000 0.000000
vn 0.000000 -1.000000 0.000000
vn 0.000000 -1.000000 0.000000
vn 0.000000 -1.000000 0.000000
vn 0.000000 -1.000000 0.000000
vn 0.000000 -1.000000 0.000000
vn 0.000000 -1.000000 0.000000
vn 0.000000 -1.000000 0.000000
vn 0.000000 -1.000000 0.000000
vn 0.000000 -1.000000 0.000000
vn 0.000000 -1.000000 0.000000
vn 0.000000 -1.000000 0.000000
vn 0.000000 -1.000000 0.000000
vn 0.000000 -1.000000 0.000000
vn 0.000000 -1.000000 0.000000
vn 0.000000 -1.000000 0.000000
vn 0.000000 -1.000000 0.000000
vn 0.000000 -1.000000 0.000000
vn 0.000000 -1.000000 0.000000
vn 0.000000 -1.000000 0.000000
vn 0.000000 -1.000000 0.000000
vn 0.000000 -1.000000 0.000000
vn 0.000000 -1.000000 0.000000
vn 0.000000 -1.000000 0.000000
vn 0.000000 -1.000000 0.000000
vn 0.000000 -1.000000 0.000000
vn 0.000000 -1.000000 0.000000
vn 0.000000 -1.000000 0.000000
vn 0.000000 -1.000000 0.000000
vn 0.000000 -1.000000 0.000000
vn 0.000000 -1.000000 0.000000
vn 0.000000 -1.000000 0.000000
vn 0.000000 -1.000000 0.000000
vn 0.000000 -1.000000 0.000000
vn 0.000000 -1.000000 0.000000
vn 0.000000 -1.000000 0.000000
vn 0.000000 -1.000000 0.000000
vn 0.000000 -1.000000 0.000000
vn 0.000000 -1.000000 0.000000
vn 0.000000 -1.000000 0.000000
vn 0.000000 -1.000000 0.000000
vn 0.000000 -1.000000 0.000000
vn 0.000000 -1.000000 0.000000
vn 0.000000 -1.000000 0.000000
vn 0.000000 -0.999730 0.023257
vn 0.000000 -1.000000 0.000000
vn 0.000000 -0.999730 0.023257
vn 0.000000 -0.999730 0.023257
vn 0.000000 -1.000000 0.000000
vn 0.966344 0.035752 0.254758
vn 1.000000 0.000000 0.000000
vn 0.996847 0.000000 0.079353
vn 1.000000 0.000000 0.000000
vn 1.000000 0.000000 0.000000
vn 0.996847 0.000000 0.079353
vn 1.000000 0.000000 0.000000
vn 1.000000 0.000000 0.000000
vn 0.996847 0.000000 0.079353
vn 0.996847 0.000000 0.079353
vn 1.000000 0.000000 0.000000
vn 0.998543 -0.046099 0.028051
vn 1.000000 0.000000 0.000000
vn 1.000000 0.000001 0.000000
vn 0.998543 -0.046099 0.028051
vn 1.000000 0.000001 0.000000
vn 1.000000 0.000000 0.000000
vn 0.998543 -0.046099 0.028051
vn 1.000000 0.000000 0.000000
vn 1.000000 -0.000000 0.000000
vn 0.998543 -0.046099 0.028051
vn 0.995332 0.000000 -0.096515
vn 0.998543 -0.046099 0.028051
vn 1.000000 0.000000 0.000000
vn 1.000000 0.000000 0.000000
vn 0.998543 -0.046099 0.028051
vn 1.000000 0.000000 0.000000
vn 1.000000 0.000000 0.000000
vn 0.998543 -0.046099 0.028051
vn 1.000000 0.000000 0.000000
vn 0.998543 -0.046099 0.028051
vn 1.000000 -0.000000 0.000000
vn 1.000000 0.000000 0.000000
vn -0.999713 -0.023970 0.000013
vn -0.998959 -0.045619 0.000000
vn -0.998543 -0.046099 0.028051
vn -0.998543 -0.046099 0.028051
vn -0.998959 -0.045619 0.000000
vn -0.995332 0.000000 -0.096515
vn -0.189370 0.976940 0.098628
vn -0.083177 0.963390 0.254876
vn -0.077508 0.976966 0.198823
vn -0.077508 0.976966 0.198823
vn -0.083177 0.963390 0.254876
vn 0.000215 0.921502 0.388374
vn 0.000000 -0.995453 0.095255
vn 0.000000 -0.996387 0.084927
vn 0.000000 -0.999993 0.003650
vn 0.000000 -0.996387 0.084927
vn 0.000000 -0.999993 -0.003650
vn 0.000000 -0.999993 0.003650
vn 0.000000 -0.990262 -0.139219
vn 0.000000 -0.990641 -0.136490
vn 0.000000 -0.999993 -0.003650
vn 0.000000 -0.999993 -0.003650
vn 0.000000 -0.990641 -0.136490
vn 0.000000 -0.999993 0.003650
vn 0.999713 -0.023970 0.000013
vn 0.998959 -0.045619 0.000000
vn 0.999411 -0.028134 -0.019637
vn 0.999411 -0.028134 -0.019637
vn 0.998959 -0.045619 0.000000
vn 0.998752 0.000000 0.049939
vn -0.000244 0.940196 0.340633
vn 0.081061 0.964421 0.251637
vn 0.072392 0.977262 0.199296
vn 0.072392 0.977262 0.199296
vn 0.081061 0.964421 0.251637
vn 0.178200 0.979018 0.098838
vn -0.998752 0.000000 0.049939
vn -0.999411 -0.028134 -0.019637
vn -1.000000 0.000000 0.000000
vn -1.000000 0.000000 0.000000
vn -0.999411 -0.028134 -0.019637
vn -1.000000 0.000000 0.000000
vn -1.000000 0.000000 0.000000
vn -0.999411 -0.028134 -0.019637
vn -1.000000 0.000000 0.000000
vn -1.000000 0.000000 0.000000
vn -0.999411 -0.028134 -0.019637
vn -1.000000 0.000000 0.000000
vn -1.000000 0.000000 0.000000
vn -0.999411 -0.028134 -0.019637
vn -1.000000 0.000000 0.000000
vn -0.999411 -0.028134 -0.019637
vn -0.984566 0.000000 -0.175015
vn -1.000000 0.000000 0.000000
vn -1.000000 0.000000 0.000000
vn -0.984566 0.000000 -0.175015
vn -1.000000 -0.000001 0.000000
vn -1.000000 -0.000001 0.000000
vn -0.984566 0.000000 -0.175015
vn -1.000000 0.000000 0.000000
vn -1.000000 0.000000 0.000000
vn -0.984566 0.000000 -0.175015
vn -1.000000 0.000000 0.000000
vn -0.961756 0.000000 -0.273907
vn -1.000000 0.000000 0.000000
vn -0.984566 0.000000 -0.175015
vn -1.000000 0.000000 0.000000
vn -1.000000 0.000000 0.000000
vn -0.984566 0.000000 -0.175015
vn -1.000000 0.000000 0.000000
vn -1.000000 0.000000 0.000000
vn -0.984566 0.000000 -0.175015
vn -1.000000 0.000000 0.000000
vn -1.000000 0.000000 0.000000
vn -0.984566 0.000000 -0.175015
vn -0.998543 -0.046099 0.028051
vn -0.946050 0.320725 0.046097
vn -0.999713 -0.023970 0.000013
vn -0.999411 -0.028134 -0.019637
vn -0.999713 -0.023970 0.000013
vn -0.949703 0.309486 -0.047780
vn -0.999713 -0.023970 0.000013
vn -0.946050 0.320725 0.046097
vn -0.949703 0.309486 -0.047780
vn 0.000000 -1.000000 0.000000
vn 0.000000 -0.996387 0.084927
vn 0.000000 -1.000000 0.000000
vn 0.000000 -0.996387 0.084927
vn 0.000000 -0.995453 0.095255
vn 0.000000 -1.000000 0.000000
vn 0.000000 -1.000000 0.000000
vn 0.000000 -1.000000 0.000000
vn 0.000000 -0.995453 0.095255
vn 0.000000 -0.995453 0.095255
vn 0.000000 -1.000000 0.000000
vn 0.000000 -1.000000 0.000000
vn 0.000000 -1.000000 0.000000
vn 0.000000 -1.000000 0.000000
vn 0.000000 -1.000000 0.000000
vn 0.000000 -1.000000 0.000000
vn 0.000000 -1.000000 0.000000
vn 0.000000 -1.000000 0.000000
vn 0.000000 -1.000000 0.000000
vn 0.000000 -1.000000 0.000000
vn 0.000000 -1.000000 0.000000
vn 0.000000 -1.000000 0.000000
vn 0.000000 -1.000000 0.000000
vn 0.000000 -1.000000 0.000000
vn 0.000000 -1.000000 0.000000
vn 0.000000 -1.000000 0.000000
vn 0.000000 -1.000000 0.000000
vn 0.000000 -1.000000 0.000000
vn 0.000000 -1.000000 0.000000
vn 0.000000 -1.000000 0.000000
vn 0.000000 -1.000000 0.000000
vn 0.000000 -1.000000 0.000000
vn 0.000000 -1.000000 0.000000
vn 0.000000 -1.000000 0.000000
vn 0.000000 -1.000000 0.000000
vn 0.000000 -1.000000 0.000000
vn 0.000000 -1.000000 0.000000
vn 0.000000 -1.000000 0.000000
vn 0.000000 -1.000000 0.000000
vn 0.000000 -1.000000 0.000000
vn 0.000000 -1.000000 0.000000
vn 0.000000 -1.000000 0.000000
vn 0.000000 -1.000000 0.000000
vn 0.000000 -1.000000 0.000000
vn 0.000000 -1.000000 0.000000
vn 0.000000 -1.000000 0.000000
vn 0.000000 -1.000000 0.000000
vn 0.000000 -1.000000 0.000000
vn 0.000000 -1.000000 0.000000
vn 0.000000 -1.000000 0.000000
vn 0.000000 -1.000000 0.000000
vn 0.000000 -1.000000 0.000000
vn 0.000000 -1.000000 0.000000
vn 0.000000 -1.000000 0.000000
vn 0.000000 -1.000000 0.000000
vn 0.000000 -1.000000 0.000000
vn 0.000000 -1.000000 0.000000
vn 0.000000 -1.000000 0.000000
vn 0.000000 -1.000000 0.000000
vn 0.000000 -1.000000 0.000000
vn 0.000000 -1.000000 0.000000
vn 0.000000 -1.000000 0.000000
vn 0.000000 -1.000000 0.000000
vn 0.000000 -1.000000 0.000000
vn 0.000000 -1.000000 0.000000
vn 0.000000 -1.000000 0.000000
vn 0.000000 -1.000000 0.000000
vn 0.000000 -1.000000 0.000000
vn 0.000000 -1.000000 0.000000
vn 0.000000 -1.000000 0.000000
vn 0.000000 -1.000000 0.000000
vn 0.000000 -1.000000 0.000000
vn 0.000000 -0.986613 -0.163080
vn 0.000000 -0.921100 -0.389326
vn 0.000000 -1.000000 0.000000
vn 0.000000 -1.000000 0.000000
vn 0.000000 -0.921100 -0.389326
vn 0.000000 -1.000000 0.000000
vn 0.000000 -1.000000 0.000000
vn 0.000000 -0.921100 -0.389326
vn 0.000000 -1.000000 0.000000
vn 0.000000 -0.921100 -0.389326
vn 0.000000 -1.000000 0.000000
vn 0.000000 -1.000000 0.000000
vn 0.998752 0.000000 0.049939
vn 1.000000 0.000000 0.000000
vn 0.999411 -0.028134 -0.019637
vn 1.000000 0.000000 0.000000
vn 1.000000 0.000000 0.000000
vn 0.999411 -0.028134 -0.019637
vn 1.000000 0.000000 0.000000
vn 1.000000 0.000000 0.000000
vn 0.999411 -0.028134 -0.019637
vn 1.000000 0.000000 0.000000
vn 1.000000 0.000000 0.000000
vn 0.999411 -0.028134 -0.019637
vn 1.000000 0.000000 0.000000
vn 1.000000 -0.000000 0.000000
vn 0.999411 -0.028134 -0.019637
vn 0.999411 -0.028134 -0.019637
vn 1.000000 -0.000000 0.000000
vn 0.988767 0.000000 -0.149464
vn 1.000000 -0.000000 0.000000
vn 1.000000 -0.000002 0.000000
vn 0.988767 0.000000 -0.149464
vn 1.000000 -0.000002 0.000000
vn 1.000000 0.000000 0.000000
vn 0.988767 0.000000 -0.149464
vn 1.000000 0.000000 0.000000
vn 1.000000 0.000000 0.000000
vn 0.988767 0.000000 -0.149464
vn 0.949597 0.000000 -0.313474
vn 0.988767 0.000000 -0.149464
vn 1.000000 -0.000000 0.000000
vn 1.000000 -0.000000 0.000000
vn 0.988767 0.000000 -0.149464
vn 1.000000 -0.000000 0.000000
vn 1.000000 -0.000000 0.000000
vn 0.988767 0.000000 -0.149464
vn 1.000000 0.000000 0.000000
vn 1.000000 0.000000 0.000000
vn 1.000000 0.000000 0.000000
vn 0.988767 0.000000 -0.149464
vn 0.998543 -0.046099 0.028051
vn 0.999713 -0.023970 0.000013
vn 0.946051 0.320723 0.046098
vn 0.999411 -0.028134 -0.019637
vn 0.949704 0.309484 -0.047781
vn 0.999713 -0.023970 0.000013
vn 0.999713 -0.023970 0.000013
vn 0.949704 0.309484 -0.047781
vn 0.946051 0.320723 0.046098
vn -0.077508 0.976966 0.198823
vn 0.000215 0.921502 0.388374
vn 0.072392 0.977262 0.199296
vn 0.072392 0.977262 0.199296
vn 0.000215 0.921502 0.388374
vn -0.000244 0.940196 0.340633
vn -0.492013 0.000000 -0.870588
vn -0.961756 0.000000 -0.273907
vn -0.492012 0.000000 -0.870589
vn -0.492012 0.000000 -0.870589
vn -0.961756 0.000000 -0.273907
vn -0.984566 0.000000 -0.175015
vn 0.000000 0.898116 -0.439759
vn 0.000000 1.000000 -0.000001
vn 0.000000 1.000000 0.000000
vn 0.000000 1.000000 0.000000
vn 0.000000 1.000000 -0.000001
vn 0.000000 1.000000 -0.000001
vn -0.949703 0.309486 -0.047780
vn -0.980749 0.193323 0.027528
vn -0.999411 -0.028134 -0.019637
vn -0.999411 -0.028134 -0.019637
vn -0.980749 0.193323 0.027528
vn -0.980051 0.196112 0.032247
vn -0.983447 0.178578 -0.030692
vn -0.946050 0.320725 0.046097
vn -0.982669 0.182762 -0.030970
vn -0.982669 0.182762 -0.030970
vn -0.946050 0.320725 0.046097
vn -0.998543 -0.046099 0.028051
vn 0.164957 0.986301 0.000000
vn 0.164957 0.986301 0.000000
vn 0.164957 0.986301 0.000000
vn 0.164957 0.986301 0.000000
vn 0.164957 0.986301 0.000000
vn 0.164957 0.986301 0.000000
vn -0.111699 0.631045 0.767663
vn -0.065967 0.996598 0.049408
vn -0.137314 0.792979 0.593574
vn -0.137314 0.792979 0.593574
vn -0.065967 0.996598 0.049408
vn -0.029359 0.997075 0.070559
vn 0.000000 -0.613958 -0.789339
vn 0.000000 -0.613958 -0.789339
vn 0.000000 -0.986613 -0.163080
vn 0.000000 -0.986613 -0.163080
vn 0.000000 -0.613958 -0.789339
vn 0.000000 -0.921100 -0.389326
vn 0.949597 0.000000 -0.313474
vn 0.492012 0.000000 -0.870588
vn 0.988767 0.000000 -0.149464
vn 0.988767 0.000000 -0.149464
vn 0.492012 0.000000 -0.870588
vn 0.492015 0.000000 -0.870587
vn 0.000000 1.000000 0.000000
vn 0.000000 0.911084 -0.412221
vn 0.000000 1.000000 0.000000
vn 0.000000 1.000000 0.000000
vn 0.000000 0.911084 -0.412221
vn 0.000000 1.000000 0.000001
vn 0.998543 -0.046099 0.028051
vn 0.946051 0.320723 0.046098
vn 0.982669 0.182763 -0.030970
vn 0.982669 0.182763 -0.030970
vn 0.946051 0.320723 0.046098
vn 0.983447 0.178579 -0.030692
vn 0.949704 0.309484 -0.047781
vn 0.999411 -0.028134 -0.019637
vn 0.980749 0.193323 0.027528
vn 0.980749 0.193323 0.027528
vn 0.999411 -0.028134 -0.019637
vn 0.980051 0.196112 0.032247
vn -0.164956 0.986301 0.000000
vn -0.164956 0.986301 0.000000
vn -0.164956 0.986301 0.000000
vn -0.164956 0.986301 0.000000
vn -0.164956 0.986301 0.000000
vn -0.164956 0.986301 0.000000
vn 0.109492 0.627090 0.771213
vn 0.135189 0.787795 0.600919
vn 0.070033 0.996398 0.047812
vn 0.070033 0.996398 0.047812
vn 0.135189 0.787795 0.600919
vn 0.045021 0.997236 0.059106
vn -0.065967 0.996598 0.049408
vn 0.070033 0.996398 0.047812
vn -0.029359 0.997075 0.070559
vn -0.029359 0.997075 0.070559
vn 0.070033 0.996398 0.047812
vn 0.045021 0.997236 0.059106
vn 0.000000 0.000000 -1.000000
vn 0.000000 0.000000 -1.000000
vn 0.000000 0.000000 -1.000000
vn 0.000000 0.000000 -1.000000
vn 0.000000 0.000000 -1.000000
vn 0.000000 0.000000 -1.000000
vn 0.000000 0.898116 -0.439759
vn 0.000000 0.911084 -0.412221
vn 0.000000 0.613959 -0.789338
vn 0.000000 0.613959 -0.789338
vn 0.000000 0.911084 -0.412221
vn 0.000000 0.613958 -0.789339
vn 0.000000 0.911084 -0.412221
vn 0.000000 0.898116 -0.439759
vn 0.000000 1.000000 0.000001
vn 0.000000 1.000000 0.000001
vn 0.000000 0.898116 -0.439759
vn 0.000000 1.000000 0.000000
vn 0.000000 1.000000 -0.000001
vn 0.000000 1.000000 0.000000
vn 0.000000 1.000000 -0.000001
vn 0.000000 1.000000 -0.000001
vn 0.000000 1.000000 0.000000
vn 0.000000 1.000000 0.000000
vn 1.000000 0.000000 0.000000
vn 1.000000 0.000000 0.000000
vn 1.000000 0.000000 0.000000
vn 1.000000 0.000000 0.000000
vn 1.000000 0.000000 0.000000
vn 1.000000 0.000000 0.000000
vn 0.019517 0.116684 0.992977
vn 0.019548 0.116679 0.992977
vn 0.020389 0.116530 0.992978
vn 0.020389 0.116530 0.992978
vn 0.019548 0.116679 0.992977
vn 0.020424 0.116524 0.992978
vn -0.086028 -0.514378 -0.853238
vn -0.089902 -0.513701 -0.853246
vn -0.086145 -0.514358 -0.853238
vn -0.086145 -0.514358 -0.853238
vn -0.089902 -0.513701 -0.853246
vn -0.090035 -0.513678 -0.853246
vn -0.972997 0.230816 0.000000
vn -0.972997 0.230816 0.000000
vn -0.972997 0.230816 0.000000
vn -0.972997 0.230816 0.000000
vn -0.972997 0.230816 0.000000
vn -0.972997 0.230816 0.000000
vn -0.111699 0.631045 0.767663
vn -0.137314 0.792979 0.593574
vn 0.015483 0.485470 0.874116
vn 0.015483 0.485470 0.874116
vn -0.137314 0.792979 0.593574
vn 0.003576 0.407660 0.913127
vn -0.059074 0.891064 -0.450016
vn -0.060096 0.891010 -0.449989
vn -0.086244 0.889296 -0.449127
vn -0.086244 0.889296 -0.449127
vn -0.060096 0.891010 -0.449989
vn -0.086244 0.889296 -0.449127
vn -1.000000 0.000000 0.000000
vn -1.000000 0.000000 0.000000
vn -1.000000 0.000000 0.000000
vn -1.000000 0.000000 0.000000
vn -1.000000 0.000000 0.000000
vn -1.000000 0.000000 0.000000
vn 0.090035 -0.513677 -0.853246
vn 0.089902 -0.513701 -0.853246
vn 0.086144 -0.514360 -0.853237
vn 0.086144 -0.514360 -0.853237
vn 0.089902 -0.513701 -0.853246
vn 0.086028 -0.514380 -0.853237
vn -0.019516 0.116684 0.992977
vn -0.020389 0.116530 0.992978
vn -0.019547 0.116679 0.992977
vn -0.019547 0.116679 0.992977
vn -0.020389 0.116530 0.992978
vn -0.020424 0.116524 0.992978
vn 0.972998 0.230815 0.000000
vn 0.972998 0.230815 0.000000
vn 0.972998 0.230815 0.000000
vn 0.972998 0.230815 0.000000
vn 0.972998 0.230815 0.000000
vn 0.972997 0.230816 0.000000
vn 0.109492 0.627090 0.771213
vn -0.015483 0.485474 0.874114
vn 0.135189 0.787795 0.600919
vn 0.135189 0.787795 0.600919
vn -0.015483 0.485474 0.874114
vn -0.003576 0.407661 0.913127
vn 0.057152 0.891164 -0.450067
vn 0.082166 0.889604 -0.449281
vn 0.058062 0.891117 -0.450043
vn 0.058062 0.891117 -0.450043
vn 0.082166 0.889604 -0.449281
vn 0.082166 0.889604 -0.449282
vn -0.059074 0.891064 -0.450016
vn 0.057152 0.891164 -0.450067
vn -0.060096 0.891010 -0.449989
vn -0.060096 0.891010 -0.449989
vn 0.057152 0.891164 -0.450067
vn 0.058062 0.891117 -0.450043
vn 0.000000 0.000000 1.000000
vn 0.000000 0.000000 1.000000
vn 0.000000 0.000000 1.000000
vn 0.000000 0.000000 1.000000
vn 0.000000 0.000000 1.000000
vn 0.000000 0.000000 1.000000
vn -0.030920 -0.081656 -0.996181
vn 0.032047 -0.084631 -0.995897
vn -0.015089 -0.047122 -0.998775
vn -0.015089 -0.047122 -0.998775
vn 0.032047 -0.084631 -0.995897
vn 0.016358 -0.051085 -0.998560
vn 0.000000 0.000000 -1.000000
vn 0.000000 0.000000 -1.000000
vn 0.000000 0.000000 -1.000000
vn 0.000000 0.000000 -1.000000
vn 0.000000 0.000000 -1.000000
vn 0.000000 0.000000 -1.000000
vn 0.000000 1.000000 0.000000
vn 0.000000 1.000000 0.000000
vn 0.000000 1.000000 0.000000
vn 0.000000 1.000000 0.000000
vn 0.000000 1.000000 0.000000
vn 0.000000 1.000000 0.000000
vn -0.172644 -0.984984 0.000000
vn -0.172645 -0.984984 0.000000
vn -0.172644 -0.984984 0.000000
vn -0.172644 -0.984984 0.000000
vn -0.172645 -0.984984 0.000000
vn -0.172645 -0.984984 0.000000
vn -0.980051 0.196112 0.032247
vn -0.980749 0.193323 0.027528
vn -0.982669 0.182762 -0.030970
vn -0.982669 0.182762 -0.030970
vn -0.980749 0.193323 0.027528
vn -0.983447 0.178578 -0.030692
vn 0.032047 -0.084631 -0.995897
vn -0.030892 -0.082608 -0.996103
vn 0.016358 -0.051085 -0.998560
vn 0.016358 -0.051085 -0.998560
vn -0.030892 -0.082608 -0.996103
vn -0.023169 -0.045797 -0.998682
vn -0.015483 0.485474 0.874114
vn 0.000000 0.159006 0.987278
vn -0.003576 0.407661 0.913127
vn 0.015483 0.485470 0.874116
vn 0.003576 0.407660 0.913127
vn 0.000000 0.159006 0.987278
vn 0.000000 0.159006 0.987278
vn 0.003576 0.407660 0.913127
vn -0.003576 0.407661 0.913127
vn 0.981199 -0.172277 0.087005
vn 0.981199 -0.172277 0.087005
vn 0.981199 -0.172277 0.087006
vn 0.981199 -0.172277 0.087006
vn 0.981199 -0.172277 0.087005
vn 0.981199 -0.172277 0.087006
vn 0.172645 -0.984984 0.000000
vn 0.172645 -0.984984 0.000000
vn 0.172645 -0.984984 0.000000
vn 0.172645 -0.984984 0.000000
vn 0.172645 -0.984984 0.000000
vn 0.172645 -0.984984 0.000000
vn 0.980051 0.196112 0.032247
vn 0.982669 0.182763 -0.030970
vn 0.980749 0.193323 0.027528
vn 0.980749 0.193323 0.027528
vn 0.982669 0.182763 -0.030970
vn 0.983447 0.178579 -0.030692
vn -0.030920 -0.081656 -0.996181
vn -0.015089 -0.047122 -0.998775
vn 0.030892 -0.082608 -0.996103
vn 0.030892 -0.082608 -0.996103
vn -0.015089 -0.047122 -0.998775
vn 0.023169 -0.045797 -0.998682
vn -0.981199 -0.172277 0.087005
vn -0.981199 -0.172276 0.087006
vn -0.981199 -0.172277 0.087005
vn -0.981199 -0.172277 0.087005
vn -0.981199 -0.172276 0.087006
vn -0.981199 -0.172276 0.087006
vn 0.049767 0.538826 0.840946
vn 0.017354 0.561507 0.827290
vn 0.011604 0.565426 0.824718
vn 0.017354 0.561507 0.827290
vn -0.019382 0.560902 0.827655
vn 0.011604 0.565426 0.824718
vn 0.011604 0.565426 0.824718
vn -0.019382 0.560902 0.827655
vn -0.026913 0.556017 0.830735
vn -0.026913 0.556017 0.830735
vn -0.019382 0.560902 0.827655
vn -0.052289 0.539174 0.840570
vn 0.000000 1.000000 0.000000
vn 0.000000 1.000000 0.000000
vn 0.000000 1.000000 0.000000
vn 0.000000 1.000000 0.000000
vn 0.000000 1.000000 0.000000
vn 0.000000 1.000000 0.000000
vn -0.137324 0.990526 0.000000
vn 0.000000 1.000000 0.000000
vn -0.137323 0.990526 0.000000
vn -0.137323 0.990526 0.000000
vn 0.000000 1.000000 0.000000
vn 0.000000 1.000000 0.000000
vn -0.030892 -0.082608 -0.996103
vn -0.000000 0.000000 -1.000000
vn -0.023169 -0.045797 -0.998682
vn 0.030892 -0.082608 -0.996103
vn 0.023169 -0.045797 -0.998682
vn -0.000000 0.000000 -1.000000
vn -0.000000 0.000000 -1.000000
vn 0.023169 -0.045797 -0.998682
vn -0.023169 -0.045797 -0.998682
vn 0.974303 -0.225240 0.000000
vn 0.974303 -0.225240 0.000000
vn 0.974303 -0.225241 0.000000
vn 0.974303 -0.225241 0.000000
vn 0.974303 -0.225240 0.000000
vn 0.974303 -0.225241 0.000000
vn 0.000000 -0.892622 0.450805
vn 0.000000 -0.892625 0.450800
vn 0.000000 -0.892623 0.450805
vn 0.000000 -0.892623 0.450805
vn 0.000000 -0.892625 0.450800
vn 0.000000 -0.892625 0.450800
vn -0.974303 -0.225241 0.000000
vn -0.974303 -0.225241 0.000000
vn -0.974303 -0.225241 0.000000
vn -0.974303 -0.225241 0.000000
vn -0.974303 -0.225241 0.000000
vn -0.974303 -0.225241 0.000000
vn 0.000000 -0.121324 -0.992613
vn 0.000000 -0.121324 -0.992613
vn 0.000000 -0.121324 -0.992613
vn 0.000000 -0.121324 -0.992613
vn 0.000000 -0.121324 -0.992613
vn 0.000000 -0.121324 -0.992613
vn 0.000000 -1.000000 0.000000
vn 0.000000 -1.000000 0.000000
vn 0.000000 -1.000000 0.000000
vn 0.000000 -1.000000 0.000000
vn 0.000000 -1.000000 0.000000
vn 0.000000 -1.000000 0.000000
vn 0.000000 -0.951057 0.309016
vn 0.000000 -0.809017 0.587785
vn 0.000000 -0.951057 0.309016
vn 0.000000 -0.951057 0.309016
vn 0.000000 -0.809017 0.587785
vn 0.000000 -0.809017 0.587785
vn 0.000000 -1.000000 -0.000001
vn 0.000000 -0.951057 0.309016
vn 0.000000 -1.000000 -0.000001
vn 0.000000 -1.000000 -0.000001
vn 0.000000 -0.951057 0.309016
vn 0.000000 -0.951057 0.309016
vn -1.000000 0.000000 0.000000
vn -1.000000 0.000000 0.000000
vn -1.000000 0.000000 0.000000
vn -1.000000 0.000000 0.000000
vn -1.000000 0.000000 0.000000
vn -1.000000 0.000000 0.000000
vn 0.000000 -0.809017 0.587785
vn 0.000000 -0.587785 0.809017
vn 0.000000 -0.809017 0.587785
vn 0.000000 -0.809017 0.587785
vn 0.000000 -0.587785 0.809017
vn 0.000000 -0.587785 0.809017
vn 0.000000 -0.951057 -0.309017
vn 0.000000 -1.000000 -0.000001
vn 0.000000 -0.951057 -0.309017
vn 0.000000 -0.951057 -0.309017
vn 0.000000 -1.000000 -0.000001
vn 0.000000 -1.000000 -0.000001
vn -1.000000 0.000000 0.000000
vn -1.000000 0.000000 0.000000
vn -1.000000 0.000000 0.000000
vn -1.000000 0.000000 0.000000
vn -1.000000 0.000000 0.000000
vn -1.000000 0.000000 0.000000
vn -1.000000 0.000000 0.000000
vn -1.000000 0.000000 0.000000
vn -1.000000 0.000000 0.000000
vn -1.000000 0.000000 0.000000
vn -1.000000 0.000000 0.000000
vn -1.000000 0.000000 0.000000
vn 0.000000 -0.587785 0.809017
vn 0.000000 -0.309355 0.950947
vn 0.000000 -0.587785 0.809017
vn 0.000000 -0.587785 0.809017
vn 0.000000 -0.309355 0.950947
vn 0.000000 -0.309355 0.950947
vn 0.000000 -0.809017 -0.587785
vn 0.000000 -0.951057 -0.309017
vn 0.000000 -0.809017 -0.587785
vn 0.000000 -0.809017 -0.587785
vn 0.000000 -0.951057 -0.309017
vn 0.000000 -0.951057 -0.309017
vn -1.000000 0.000000 0.000000
vn -1.000000 0.000000 0.000000
vn -1.000000 0.000000 0.000000
vn -1.000000 0.000000 0.000000
vn -1.000000 0.000000 0.000000
vn -1.000000 0.000000 0.000000
vn -1.000000 0.000000 0.000000
vn -1.000000 0.000000 0.000000
vn -1.000000 0.000000 0.000000
vn -1.000000 0.000000 0.000000
vn -1.000000 0.000000 0.000000
vn -1.000000 0.000000 0.000000
vn 0.000000 -0.309355 0.950947
vn 0.000000 -0.309355 0.950947
vn 0.000000 -0.156434 0.987688
vn 0.000000 -0.156434 0.987688
vn 0.000000 -0.309355 0.950947
vn 0.000000 -0.156434 0.987688
vn 0.000000 -0.607932 -0.793989
vn 0.000000 -0.809017 -0.587785
vn 0.000000 -0.590241 -0.807227
vn 0.000000 -0.590241 -0.807227
vn 0.000000 -0.809017 -0.587785
vn 0.000000 -0.809017 -0.587785
vn -1.000000 0.000000 0.000000
vn -1.000000 0.000000 0.000000
vn -1.000000 0.000000 0.000000
vn -1.000000 0.000000 0.000000
vn -1.000000 0.000000 0.000000
vn -1.000000 0.000000 0.000000
vn -1.000000 0.000000 0.000000
vn -1.000000 0.000000 0.000000
vn -1.000000 0.000000 0.000000
vn 0.000000 -0.226634 -0.973980
vn 0.000000 -0.453990 -0.891007
vn 0.000000 -0.312295 -0.949985
vn 0.000000 -0.312295 -0.949985
vn 0.000000 -0.453990 -0.891007
vn 0.000000 -0.590241 -0.807227
vn 0.000000 -0.453990 -0.891007
vn 0.000000 -0.607932 -0.793989
vn 0.000000 -0.590241 -0.807227
vn -1.000000 0.000000 0.000000
vn -1.000000 0.000000 0.000000
vn -1.000000 0.000000 0.000000
vn -1.000000 0.000000 0.000000
vn -1.000000 0.000000 0.000000
vn -1.000000 0.000000 0.000000
vn 0.000000 -0.156434 -0.987688
vn 0.000000 -0.156434 -0.987688
vn 0.000000 -0.312295 -0.949985
vn 0.000000 -0.312295 -0.949985
vn 0.000000 -0.156434 -0.987688
vn 0.000000 -0.226634 -0.973980
vn -1.000000 0.000000 0.000000
vn -1.000000 0.000001 0.000000
vn -1.000000 0.000000 0.000000
vn -1.000000 0.000001 0.000000
vn -1.000000 0.000000 0.000000
vn -1.000000 0.000000 0.000000
vn -1.000000 0.000000 0.000000
vn -1.000000 0.000000 0.000000
vn -1.000000 0.000000 0.000000
vn -1.000000 0.000000 0.000000
vn -1.000000 0.000001 0.000000
vn -1.000000 0.000000 0.000000
vn 0.000000 -0.809017 0.587785
vn 0.000000 -0.951057 0.309016
vn 0.000000 -0.809017 0.587785
vn 0.000000 -0.809017 0.587785
vn 0.000000 -0.951057 0.309016
vn 0.000000 -0.951057 0.309016
vn 0.000000 -0.587785 0.809017
vn 0.000000 -0.809017 0.587785
vn 0.000000 -0.587785 0.809017
vn 0.000000 -0.587785 0.809017
vn 0.000000 -0.809017 0.587785
vn 0.000000 -0.809017 0.587785
vn 1.000000 -0.000000 0.000000
vn 1.000000 -0.000000 0.000000
vn 1.000000 -0.000000 0.000000
vn 1.000000 -0.000000 0.000000
vn 1.000000 -0.000000 0.000000
vn 1.000000 -0.000000 0.000000
vn 0.000000 -0.951057 0.309016
vn 0.000000 -1.000000 -0.000001
vn 0.000000 -0.951057 0.309016
vn 0.000000 -0.951057 0.309016
vn 0.000000 -1.000000 -0.000001
vn 0.000000 -1.000000 -0.000001
vn 0.000000 -0.309355 0.950947
vn 0.000000 -0.587785 0.809017
vn 0.000000 -0.309355 0.950947
vn 0.000000 -0.309355 0.950947
vn 0.000000 -0.587785 0.809017
vn 0.000000 -0.587785 0.809017
vn 1.000000 -0.000000 0.000000
vn 1.000000 0.000000 0.000000
vn 1.000000 -0.000000 0.000000
vn 1.000000 0.000000 0.000000
vn 1.000000 0.000000 0.000000
vn 1.000000 -0.000000 0.000000
vn 1.000000 0.000000 0.000000
vn 1.000000 -0.000000 0.000000
vn 1.000000 -0.000000 0.000000
vn 1.000000 -0.000000 0.000000
vn 1.000000 -0.000000 0.000000
vn 1.000000 -0.000000 0.000000
vn 0.000000 -1.000000 -0.000001
vn 0.000000 -0.951057 -0.309017
vn 0.000000 -1.000000 -0.000001
vn 0.000000 -1.000000 -0.000001
vn 0.000000 -0.951057 -0.309017
vn 0.000000 -0.951057 -0.309017
vn 0.000000 -0.156434 0.987688
vn 0.000000 -0.156434 0.987688
vn 0.000000 -0.309355 0.950947
vn 0.000000 -0.309355 0.950947
vn 0.000000 -0.156434 0.987688
vn 0.000000 -0.309355 0.950947
vn 1.000000 0.000000 0.000000
vn 1.000000 0.000000 0.000000
vn 1.000000 0.000000 0.000000
vn 1.000000 0.000000 0.000000
vn 1.000000 0.000000 0.000000
vn 1.000000 0.000000 0.000000
vn 1.000000 0.000000 0.000000
vn 1.000000 -0.000000 0.000000
vn 1.000000 0.000000 0.000000
vn 1.000000 0.000000 0.000000
vn 1.000000 -0.000000 0.000000
vn 1.000000 0.000000 0.000000
vn 0.000000 -0.951057 -0.309017
vn 0.000000 -0.809017 -0.587785
vn 0.000000 -0.951057 -0.309017
vn 0.000000 -0.951057 -0.309017
vn 0.000000 -0.809017 -0.587785
vn 0.000000 -0.809017 -0.587785
vn 1.000000 0.000000 0.000000
vn 1.000000 0.000000 0.000000
vn 1.000000 0.000000 0.000000
vn 1.000000 0.000000 0.000000
vn 1.000000 0.000000 0.000000
vn 1.000000 -0.000001 0.000000
vn 1.000000 -0.000001 0.000000
vn 1.000000 0.000000 0.000000
vn 1.000000 0.000000 0.000000
vn 0.000000 -0.809017 -0.587785
vn 0.000000 -0.607933 -0.793989
vn 0.000000 -0.809017 -0.587785
vn 0.000000 -0.809017 -0.587785
vn 0.000000 -0.607933 -0.793989
vn 0.000000 -0.590280 -0.807198
vn 1.000000 -0.000001 0.000000
vn 1.000000 0.000000 0.000000
vn 1.000000 -0.000002 0.000000
vn 1.000000 -0.000002 0.000000
vn 1.000000 0.000000 0.000000
vn 1.000000 0.000000 0.000000
vn 0.000000 -0.607933 -0.793989
vn 0.000000 -0.453990 -0.891007
vn 0.000000 -0.590280 -0.807198
vn 0.000000 -0.226634 -0.973980
vn 0.000000 -0.312247 -0.950001
vn 0.000000 -0.453990 -0.891007
vn 0.000000 -0.453990 -0.891007
vn 0.000000 -0.312247 -0.950001
vn 0.000000 -0.590280 -0.807198
vn 1.000000 -0.000002 0.000000
vn 1.000000 0.000000 0.000000
vn 1.000000 0.000001 0.000000
vn 1.000000 0.000001 0.000000
vn 1.000000 0.000000 0.000000
vn 1.000000 0.000000 0.000000
vn 0.000000 -0.226634 -0.973980
vn 0.000000 -0.156434 -0.987688
vn 0.000000 -0.312247 -0.950001
vn 0.000000 -0.312247 -0.950001
vn 0.000000 -0.156434 -0.987688
vn 0.000000 -0.156434 -0.987688
vn 1.000000 0.000001 0.000000
vn 1.000000 0.000000 0.000000
vn 1.000000 0.000000 0.000000
vn 1.000000 0.000000 0.000000
vn 1.000000 0.000001 0.000000
vn 1.000000 0.000000 0.000000
vn 0.000000 -0.951057 0.309016
vn 0.000000 -0.809017 0.587785
vn 0.000000 -0.951057 0.309016
vn 0.000000 -0.951057 0.309016
vn 0.000000 -0.809017 0.587785
vn 0.000000 -0.809017 0.587785
vn 0.000000 -1.000000 -0.000001
vn 0.000000 -0.951057 0.309016
vn 0.000000 -1.000000 -0.000001
vn 0.000000 -1.000000 -0.000001
vn 0.000000 -0.951057 0.309016
vn 0.000000 -0.951057 0.309016
vn -1.000000 0.000000 0.000000
vn -1.000000 0.000000 0.000000
vn -1.000000 0.000000 0.000000
vn -1.000000 0.000000 0.000000
vn -1.000000 0.000000 0.000000
vn -1.000000 0.000000 0.000000
vn 0.000000 -0.809017 0.587785
vn 0.000000 -0.587785 0.809017
vn 0.000000 -0.809017 0.587785
vn 0.000000 -0.809017 0.587785
vn 0.000000 -0.587785 0.809017
vn 0.000000 -0.587785 0.809017
vn 0.000000 -0.951056 -0.309017
vn 0.000000 -1.000000 -0.000001
vn 0.000000 -0.951057 -0.309017
vn 0.000000 -0.951057 -0.309017
vn 0.000000 -1.000000 -0.000001
vn 0.000000 -1.000000 -0.000001
vn -1.000000 0.000000 0.000000
vn -1.000000 0.000000 0.000000
vn -1.000000 0.000000 0.000000
vn -1.000000 0.000000 0.000000
vn -1.000000 0.000000 0.000000
vn -1.000000 0.000000 0.000000
vn -1.000000 0.000000 0.000000
vn -1.000000 0.000000 0.000000
vn -1.000000 0.000000 0.000000
vn -1.000000 0.000000 0.000000
vn -1.000000 0.000000 0.000000
vn -1.000000 0.000000 0.000000
vn 0.000000 -0.587785 0.809017
vn 0.000000 -0.309356 0.950946
vn 0.000000 -0.587785 0.809017
vn 0.000000 -0.587785 0.809017
vn 0.000000 -0.309356 0.950946
vn 0.000000 -0.309356 0.950946
vn 0.000000 -0.809017 -0.587785
vn 0.000000 -0.951056 -0.309017
vn 0.000000 -0.809017 -0.587785
vn 0.000000 -0.809017 -0.587785
vn 0.000000 -0.951056 -0.309017
vn 0.000000 -0.951057 -0.309017
vn -1.000000 0.000000 0.000000
vn -1.000000 0.000000 0.000000
vn -1.000000 0.000000 0.000000
vn -1.000000 0.000000 0.000000
vn -1.000000 0.000000 0.000000
vn -1.000000 0.000000 0.000000
vn -1.000000 0.000000 0.000000
vn -1.000000 0.000000 0.000000
vn -1.000000 0.000000 0.000000
vn -1.000000 0.000000 0.000000
vn -1.000000 0.000000 0.000000
vn -1.000000 0.000000 0.000000
vn 0.000000 -0.309356 0.950946
vn 0.000000 -0.309356 0.950946
vn 0.000000 -0.156435 0.987688
vn 0.000000 -0.156435 0.987688
vn 0.000000 -0.309356 0.950946
vn 0.000000 -0.156435 0.987688
vn 0.000000 -0.587785 -0.809017
vn 0.000000 -0.809017 -0.587785
vn 0.000000 -0.587785 -0.809017
vn 0.000000 -0.587785 -0.809017
vn 0.000000 -0.809017 -0.587785
vn 0.000000 -0.809017 -0.587785
vn -1.000000 0.000000 0.000000
vn -1.000000 0.000000 0.000000
vn -1.000000 0.000000 0.000000
vn -1.000000 0.000000 0.000000
vn -1.000000 0.000000 0.000000
vn -1.000000 0.000000 0.000000
vn -1.000000 0.000000 0.000000
vn -1.000000 0.000000 0.000000
vn -1.000000 0.000000 0.000000
vn 0.000000 -0.309356 -0.950946
vn 0.000000 -0.587785 -0.809017
vn 0.000000 -0.309356 -0.950946
vn 0.000000 -0.309356 -0.950946
vn 0.000000 -0.587785 -0.809017
vn 0.000000 -0.587785 -0.809017
vn -1.000000 0.000000 0.000000
vn -1.000000 0.000001 0.000000
vn -1.000000 0.000000 0.000000
vn -1.000000 0.000001 0.000000
vn -1.000000 0.000000 0.000000
vn -1.000000 0.000000 0.000000
vn 0.000000 -0.156435 -0.987688
vn 0.000000 -0.156435 -0.987688
vn 0.000000 -0.309356 -0.950946
vn 0.000000 -0.309356 -0.950946
vn 0.000000 -0.156435 -0.987688
vn 0.000000 -0.309356 -0.950946
vn -1.000000 0.000001 0.000000
vn -1.000000 0.000001 0.000000
vn -1.000000 0.000000 0.000000
vn -1.000000 0.000001 0.000000
vn -1.000000 0.000000 0.000000
vn -1.000000 0.000000 0.000000
vn -1.000000 0.000001 0.000000
vn -1.000000 0.000000 0.000000
vn -1.000000 0.000000 0.000000
vn 0.000000 -0.809017 0.587785
vn 0.000000 -0.951057 0.309016
vn 0.000000 -0.809017 0.587785
vn 0.000000 -0.809017 0.587785
vn 0.000000 -0.951057 0.309016
vn 0.000000 -0.951057 0.309016
vn 0.000000 -0.587785 0.809017
vn 0.000000 -0.809017 0.587785
vn 0.000000 -0.587785 0.809017
vn 0.000000 -0.587785 0.809017
vn 0.000000 -0.809017 0.587785
vn 0.000000 -0.809017 0.587785
vn 1.000000 -0.000000 0.000000
vn 1.000000 -0.000000 0.000000
vn 1.000000 -0.000000 0.000000
vn 1.000000 -0.000000 0.000000
vn 1.000000 -0.000000 0.000000
vn 1.000000 -0.000000 0.000000
vn 0.000000 -0.951057 0.309016
vn 0.000000 -1.000000 -0.000001
vn 0.000000 -0.951057 0.309016
vn 0.000000 -0.951057 0.309016
vn 0.000000 -1.000000 -0.000001
vn 0.000000 -1.000000 -0.000001
vn 0.000000 -0.309356 0.950946
vn 0.000000 -0.587785 0.809017
vn 0.000000 -0.309356 0.950946
vn 0.000000 -0.309356 0.950946
vn 0.000000 -0.587785 0.809017
vn 0.000000 -0.587785 0.809017
vn 1.000000 -0.000000 0.000000
vn 1.000000 -0.000001 0.000000
vn 1.000000 -0.000000 0.000000
vn 1.000000 -0.000001 0.000000
vn 1.000000 -0.000000 0.000000
vn 1.000000 -0.000000 0.000000
vn 1.000000 0.000000 0.000000
vn 1.000000 -0.000000 0.000000
vn 1.000000 -0.000000 0.000000
vn 1.000000 -0.000000 0.000000
vn 1.000000 -0.000000 0.000000
vn 1.000000 -0.000000 0.000000
vn 0.000000 -1.000000 -0.000001
vn 0.000000 -0.951057 -0.309017
vn 0.000000 -1.000000 -0.000001
vn 0.000000 -1.000000 -0.000001
vn 0.000000 -0.951057 -0.309017
vn 0.000000 -0.951057 -0.309017
vn 0.000000 -0.156435 0.987688
vn 0.000000 -0.156435 0.987688
vn 0.000000 -0.309356 0.950946
vn 0.000000 -0.309356 0.950946
vn 0.000000 -0.156435 0.987688
vn 0.000000 -0.309356 0.950946
vn 1.000000 -0.000001 0.000000
vn 1.000000 -0.000003 0.000000
vn 1.000000 -0.000000 0.000000
vn 1.000000 -0.000003 0.000000
vn 1.000000 0.000000 0.000000
vn 1.000000 -0.000000 0.000000
vn 1.000000 0.000000 0.000000
vn 1.000000 -0.000000 0.000000
vn 1.000000 0.000000 0.000000
vn 1.000000 0.000000 0.000000
vn 1.000000 -0.000000 0.000000
vn 1.000000 -0.000000 0.000000
vn 0.000000 -0.951057 -0.309017
vn 0.000000 -0.809017 -0.587785
vn 0.000000 -0.951057 -0.309017
vn 0.000000 -0.951057 -0.309017
vn 0.000000 -0.809017 -0.587785
vn 0.000000 -0.809017 -0.587785
vn 1.000000 -0.000003 0.000000
vn 1.000000 0.000000 0.000000
vn 1.000000 0.000000 0.000000
vn 1.000000 0.000000 0.000000
vn 1.000000 -0.000000 0.000000
vn 1.000000 0.000000 0.000000
vn 1.000000 0.000000 0.000000
vn 1.000000 -0.000000 0.000000
vn 1.000000 -0.000000 0.000000
vn 0.000000 -0.809017 -0.587785
vn 0.000000 -0.587785 -0.809017
vn 0.000000 -0.809017 -0.587785
vn 0.000000 -0.809017 -0.587785
vn 0.000000 -0.587785 -0.809017
vn 0.000000 -0.587785 -0.809017
vn 1.000000 0.000000 0.000000
vn 1.000000 -0.000000 0.000000
vn 1.000000 0.000002 0.000000
vn 1.000000 0.000002 0.000000
vn 1.000000 -0.000000 0.000000
vn 1.000000 0.000000 0.000000
vn 0.000000 -0.587785 -0.809017
vn 0.000000 -0.309356 -0.950946
vn 0.000000 -0.587785 -0.809017
vn 0.000000 -0.587785 -0.809017
vn 0.000000 -0.309356 -0.950946
vn 0.000000 -0.309356 -0.950946
vn 1.000000 0.000002 0.000000
vn 1.000000 0.000000 0.000000
vn 1.000000 0.000001 0.000000
vn 1.000000 0.000001 0.000000
vn 1.000000 0.000000 0.000000
vn 1.000000 -0.000000 0.000000
vn 0.000000 -0.309356 -0.950946
vn 0.000000 -0.156435 -0.987688
vn 0.000000 -0.309356 -0.950946
vn 0.000000 -0.309356 -0.950946
vn 0.000000 -0.156435 -0.987688
vn 0.000000 -0.156435 -0.987688
vn 1.000000 -0.000000 0.000000
vn 1.000000 0.000001 0.000000
vn 1.000000 -0.000000 0.000000
vn 0.000000 0.000000 1.000000
vn 0.000000 0.000000 1.000000
vn 0.000000 0.000000 1.000000
vn 0.000000 0.000000 1.000000
vn 0.000000 0.000000 1.000000
vn 0.000000 0.000000 1.000000
vn 0.000000 1.000000 0.000000
vn 0.000000 1.000000 0.000000
vn 0.000000 1.000000 0.000000
vn 0.000000 1.000000 0.000000
vn 0.000000 1.000000 0.000000
vn 0.000000 1.000000 0.000000
vn 0.000000 0.000000 -1.000000
vn 0.000000 0.000000 -1.000000
vn 0.000000 0.000000 -1.000000
vn 0.000000 0.000000 -1.000000
vn 0.000000 0.000000 -1.000000
vn 0.000000 0.000000 -1.000000
vn 0.000000 -1.000000 0.000000
vn 0.000000 -1.000000 0.000000
vn 0.000000 -1.000000 0.000000
vn 0.000000 -1.000000 0.000000
vn 0.000000 -1.000000 0.000000
vn 0.000000 -1.000000 0.000000
vn 1.000000 0.000000 0.000000
vn 1.000000 0.000000 0.000000
vn 1.000000 0.000000 0.000000
vn 1.000000 0.000000 0.000000
vn 1.000000 0.000000 0.000000
vn 1.000000 0.000000 0.000000
vn -1.000000 0.000000 0.000000
vn -1.000000 0.000000 0.000000
vn -1.000000 0.000000 0.000000
vn -1.000000 0.000000 0.000000
vn -1.000000 0.000000 0.000000
vn -1.000000 0.000000 0.000000
vn 0.000000 0.162875 0.986647
vn 0.000000 0.162875 0.986647
vn 0.000000 0.162875 0.986647
vn 0.000000 0.162875 0.986647
vn 0.000000 0.162875 0.986647
vn 0.000000 0.162875 0.986647
vn 0.000000 0.993095 -0.117317
vn 0.000000 0.993095 -0.117317
vn 0.000000 0.993095 -0.117317
vn 0.000000 0.993095 -0.117317
vn 0.000000 0.993095 -0.117317
vn 0.000000 0.993095 -0.117317
vn 0.000000 -0.162876 -0.986647
vn 0.000000 -0.162876 -0.986647
vn 0.000000 -0.162876 -0.986647
vn 0.000000 -0.162876 -0.986647
vn 0.000000 -0.162876 -0.986647
vn 0.000000 -0.162876 -0.986647
vn 0.000000 -0.993095 0.117316
vn 0.000000 -0.993095 0.117316
vn 0.000000 -0.993095 0.117316
vn 0.000000 -0.993095 0.117316
vn 0.000000 -0.993095 0.117316
vn 0.000000 -0.993095 0.117316
vn 1.000000 0.000000 0.000000
vn 1.000000 0.000000 0.000000
vn 1.000000 0.000000 0.000000
vn 1.000000 0.000000 0.000000
vn 1.000000 0.000000 0.000000
vn 1.000000 0.000000 0.000000
vn -1.000000 0.000000 0.000000
vn -1.000000 0.000000 0.000000
vn -1.000000 0.000000 0.000000
vn -1.000000 0.000000 0.000000
vn -1.000000 0.000000 0.000000
vn -1.000000 0.000000 0.000000
vn 0.000000 0.000000 1.000000
vn 0.000000 0.000000 1.000000
vn 0.000000 0.000000 1.000000
vn 0.000000 0.000000 1.000000
vn 0.000000 0.000000 1.000000
vn 0.000000 0.000000 1.000000
vn 0.000000 1.000000 0.000000
vn 0.000000 1.000000 0.000000
vn 0.000000 1.000000 0.000000
vn 0.000000 1.000000 0.000000
vn 0.000000 1.000000 0.000000
vn 0.000000 1.000000 0.000000
vn 0.000000 0.000000 -1.000000
vn 0.000000 0.000000 -1.000000
vn 0.000000 0.000000 -1.000000
vn 0.000000 0.000000 -1.000000
vn 0.000000 0.000000 -1.000000
vn 0.000000 0.000000 -1.000000
vn 0.000000 -1.000000 0.000000
vn 0.000000 -1.000000 0.000000
vn 0.000000 -1.000000 0.000000
vn 0.000000 -1.000000 0.000000
vn 0.000000 -1.000000 0.000000
vn 0.000000 -1.000000 0.000000
vn 1.000000 0.000000 0.000000
vn 1.000000 0.000000 0.000000
vn 1.000000 0.000000 0.000000
vn 1.000000 0.000000 0.000000
vn 1.000000 0.000000 0.000000
vn 1.000000 0.000000 0.000000
vn -1.000000 0.000000 0.000000
vn -1.000000 0.000000 0.000000
vn -1.000000 0.000000 0.000000
vn -1.000000 0.000000 0.000000
vn -1.000000 0.000000 0.000000
vn -1.000000 0.000000 0.000000
vn 0.000000 0.162875 0.986647
vn 0.000000 0.162876 0.986647
vn 0.000000 0.162876 0.986647
vn 0.000000 0.162876 0.986647
vn 0.000000 0.162876 0.986647
vn 0.000000 0.162876 0.986647
vn 0.000000 0.993095 -0.117317
vn 0.000000 0.993095 -0.117315
vn 0.000000 0.993095 -0.117317
vn 0.000000 0.993095 -0.117317
vn 0.000000 0.993095 -0.117315
vn 0.000000 0.993095 -0.117315
vn 0.000000 -0.162875 -0.986647
vn 0.000000 -0.162875 -0.986647
vn 0.000000 -0.162875 -0.986647
vn 0.000000 -0.162875 -0.986647
vn 0.000000 -0.162875 -0.986647
vn 0.000000 -0.162876 -0.986647
vn 0.000000 -0.993095 0.117317
vn 0.000000 -0.993095 0.117317
vn 0.000000 -0.993095 0.117317
vn 0.000000 -0.993095 0.117317
vn 0.000000 -0.993095 0.117317
vn 0.000000 -0.993095 0.117317
vn 1.000000 0.000000 0.000000
vn 1.000000 0.000000 0.000000
vn 1.000000 0.000000 0.000000
vn 1.000000 0.000000 0.000000
vn 1.000000 0.000000 0.000000
vn 1.000000 0.000000 0.000000
vn -1.000000 0.000000 0.000000
vn -1.000000 0.000000 0.000000
vn -1.000000 0.000000 0.000000
vn -1.000000 0.000000 0.000000
vn -1.000000 0.000000 0.000000
vn -1.000000 0.000000 0.000000
vn 0.000000 0.162875 0.986647
vn 0.000000 0.162876 0.986647
vn 0.000000 0.162875 0.986647
vn 0.000000 0.162875 0.986647
vn 0.000000 0.162876 0.986647
vn 0.000000 0.162876 0.986647
vn 0.000000 0.993095 -0.117317
vn 0.000000 0.993095 -0.117315
vn 0.000000 0.993095 -0.117317
vn 0.000000 0.993095 -0.117317
vn 0.000000 0.993095 -0.117315
vn 0.000000 0.993095 -0.117315
vn 0.000000 -0.162875 -0.986647
vn 0.000000 -0.162875 -0.986647
vn 0.000000 -0.162875 -0.986647
vn 0.000000 -0.162875 -0.986647
vn 0.000000 -0.162875 -0.986647
vn 0.000000 -0.162875 -0.986647
vn 0.000000 -0.993095 0.117317
vn 0.000000 -0.993095 0.117317
vn 0.000000 -0.993095 0.117317
vn 0.000000 -0.993095 0.117317
vn 0.000000 -0.993095 0.117317
vn 0.000000 -0.993095 0.117317
vn 1.000000 0.000000 0.000000
vn 1.000000 0.000000 0.000000
vn 1.000000 0.000000 0.000000
vn 1.000000 0.000000 0.000000
vn 1.000000 0.000000 0.000000
vn 1.000000 0.000000 0.000000
vn -1.000000 0.000000 0.000000
vn -1.000000 0.000000 0.000000
vn -1.000000 0.000000 0.000000
vn -1.000000 0.000000 0.000000
vn -1.000000 0.000000 0.000000
vn -1.000000 0.000000 0.000000
vn 0.000000 0.162876 0.986647
vn 0.000000 0.162876 0.986647
vn 0.000000 0.162876 0.986647
vn 0.000000 0.162876 0.986647
vn 0.000000 0.162876 0.986647
vn 0.000000 0.162876 0.986647
vn 0.000000 0.993095 -0.117317
vn 0.000000 0.993095 -0.117317
vn 0.000000 0.993095 -0.117317
vn 0.000000 0.993095 -0.117317
vn 0.000000 0.993095 -0.117317
vn 0.000000 0.993095 -0.117317
vn 0.000000 -0.162876 -0.986647
vn 0.000000 -0.162876 -0.986647
vn 0.000000 -0.162876 -0.986647
vn 0.000000 -0.162876 -0.986647
vn 0.000000 -0.162876 -0.986647
vn 0.000000 -0.162876 -0.986647
vn 0.000000 -0.993095 0.117315
vn 0.000000 -0.993095 0.117317
vn 0.000000 -0.993095 0.117315
vn 0.000000 -0.993095 0.117315
vn 0.000000 -0.993095 0.117317
vn 0.000000 -0.993095 0.117317
vn 1.000000 -0.000000 0.000000
vn 1.000000 -0.000000 0.000000
vn 1.000000 -0.000000 0.000000
vn 1.000000 -0.000000 0.000000
vn 1.000000 -0.000000 0.000000
vn 1.000000 0.000000 0.000000
vn -1.000000 0.000000 0.000000
vn -1.000000 0.000000 0.000000
vn -1.000000 0.000000 0.000000
vn -1.000000 0.000000 0.000000
vn -1.000000 0.000000 0.000000
vn -1.000000 0.000000 0.000000
vn 0.000000 0.162876 0.986647
vn 0.000000 0.162876 0.986647
vn 0.000000 0.162876 0.986647
vn 0.000000 0.162876 0.986647
vn 0.000000 0.162876 0.986647
vn 0.000000 0.162876 0.986647
vn 0.000000 0.993095 -0.117317
vn 0.000000 0.993095 -0.117317
vn 0.000000 0.993095 -0.117317
vn 0.000000 0.993095 -0.117317
vn 0.000000 0.993095 -0.117317
vn 0.000000 0.993095 -0.117317
vn 0.000000 -0.162876 -0.986647
vn 0.000000 -0.162876 -0.986647
vn 0.000000 -0.162876 -0.986647
vn 0.000000 -0.162876 -0.986647
vn 0.000000 -0.162876 -0.986647
vn 0.000000 -0.162876 -0.986647
vn 0.000000 -0.993095 0.117317
vn 0.000000 -0.993095 0.117317
vn 0.000000 -0.993095 0.117317
vn 0.000000 -0.993095 0.117317
vn 0.000000 -0.993095 0.117317
vn 0.000000 -0.993095 0.117317
vn 1.000000 0.000001 0.000000
vn 1.000000 0.000001 0.000000
vn 1.000000 0.000000 0.000000
vn 1.000000 0.000000 0.000000
vn 1.000000 0.000001 0.000000
vn 1.000000 0.000000 0.000000
vn -1.000000 0.000000 0.000000
vn -1.000000 0.000000 0.000000
vn -1.000000 0.000000 0.000000
vn -1.000000 0.000000 0.000000
vn -1.000000 0.000000 0.000000
vn -1.000000 0.000000 0.000000
vn 0.000000 0.000000 1.000000
vn 0.000000 0.000000 1.000000
vn 0.000000 0.000000 1.000000
vn 0.000000 0.000000 1.000000
vn 0.000000 0.000000 1.000000
vn 0.000000 0.000000 1.000000
vn 0.000000 1.000000 0.000000
vn 0.000000 1.000000 0.000000
vn 0.000000 1.000000 0.000000
vn 0.000000 1.000000 0.000000
vn 0.000000 1.000000 0.000000
vn 0.000000 1.000000 0.000000
vn 0.000000 0.000000 -1.000000
vn 0.000000 0.000000 -1.000000
vn 0.000000 0.000000 -1.000000
vn 0.000000 0.000000 -1.000000
vn 0.000000 0.000000 -1.000000
vn 0.000000 0.000000 -1.000000
vn 0.000000 -1.000000 0.000000
vn 0.000000 -1.000000 0.000000
vn 0.000000 -1.000000 0.000000
vn 0.000000 -1.000000 0.000000
vn 0.000000 -1.000000 0.000000
vn 0.000000 -1.000000 0.000000
vn 1.000000 0.000000 0.000000
vn 1.000000 0.000000 0.000000
vn 1.000000 0.000000 0.000000
vn 1.000000 0.000000 0.000000
vn 1.000000 0.000000 0.000000
vn 1.000000 0.000000 0.000000
vn -1.000000 0.000000 0.000000
vn -1.000000 0.000000 0.000000
vn -1.000000 0.000000 0.000000
vn -1.000000 0.000000 0.000000
vn -1.000000 0.000000 0.000000
vn -1.000000 0.000000 0.000000
vn 0.000000 1.000000 0.000000
vn 0.000000 1.000000 0.000000
vn 0.137323 0.990526 0.000000
vn 0.137323 0.990526 0.000000
vn 0.000000 1.000000 0.000000
vn 0.137323 0.990526 0.000000
vn -0.998752 0.000000 0.049939
vn -0.998959 -0.045619 0.000000
vn -0.999411 -0.028134 -0.019637
vn -0.999411 -0.028134 -0.019637
vn -0.998959 -0.045619 0.000000
vn -0.999713 -0.023970 0.000013
vn 0.995332 0.000000 -0.096515
vn 0.998959 -0.045619 0.000000
vn 0.998543 -0.046099 0.028051
vn 0.998543 -0.046099 0.028051
vn 0.998959 -0.045619 0.000000
vn 0.999713 -0.023970 0.000013
s off
g pCube14
usemtl phongE1SG
f 1/563/1 10/564/2 2/565/3
f 2/565/4 10/564/5 4/567/6
f 10/564/7 3/569/8 4/567/9
f 3/267/10 5/268/11 4/269/12
f 4/269/13 5/268/14 6/270/15
f 5/574/16 9/575/17 6/576/18
f 6/576/19 9/575/20 8/577/21
f 9/575/22 7/578/23 8/577/24
f 7/271/25 1/272/26 8/273/27
f 8/273/28 1/272/29 2/275/30
f 2/565/31 4/567/32 8/570/33
f 8/570/34 4/567/35 6/572/36
f 5/573/37 3/569/38 9/571/39
f 9/571/40 3/569/41 10/564/42
f 11/1/43 14/2/44 12/3/45
f 12/3/46 14/2/47 13/4/48
f 11/276/49 12/274/50 7/271/51
f 7/271/52 12/274/53 1/272/54
f 12/568/55 13/566/56 1/563/57
f 1/563/58 13/566/59 10/564/60
f 10/277/61 13/278/62 9/279/63
f 9/279/64 13/278/65 14/280/66
f 9/575/67 14/579/68 7/578/69
f 7/578/70 14/579/71 11/580/72
f 15/581/73 16/582/74 24/583/75
f 16/582/76 18/584/77 24/583/78
f 18/584/79 17/587/80 24/583/81
f 17/281/82 18/282/83 19/283/84
f 19/283/85 18/282/86 20/284/87
f 19/592/88 20/593/89 23/594/90
f 20/593/91 22/595/92 23/594/93
f 22/595/94 21/596/95 23/594/96
f 21/285/97 22/286/98 15/287/99
f 15/287/100 22/286/101 16/288/102
f 16/582/103 22/586/104 18/584/105
f 18/584/106 22/586/107 20/589/108
f 24/583/109 17/587/110 23/590/111
f 23/590/112 17/587/113 19/591/114
f 25/5/115 26/6/116 28/7/117
f 28/7/118 26/6/119 27/8/120
f 15/287/121 26/289/122 21/285/123
f 21/285/124 26/289/125 25/290/126
f 24/583/127 27/585/128 15/581/129
f 15/581/130 27/585/131 26/588/132
f 24/291/133 23/292/134 27/293/135
f 27/293/136 23/292/137 28/294/138
f 23/594/139 21/596/140 28/597/141
f 28/597/142 21/596/143 25/598/144
f 29/599/145 30/600/146 32/601/147
f 32/601/148 30/600/149 31/602/150
f 34/9/151 35/10/152 32/11/153
f 33/17/154 29/13/155 36/15/156
f 36/15/157 29/13/158 35/10/159
f 29/13/160 32/11/161 35/10/162
f 40/306/163 30/303/164 39/299/165
f 30/303/166 29/301/167 39/299/168
f 33/304/169 41/297/170 29/301/171
f 37/295/172 38/296/173 41/297/174
f 38/296/175 39/299/176 41/297/177
f 39/299/178 29/301/179 41/297/180
f 44/49/181 31/50/182 43/51/183
f 40/56/184 42/54/185 30/52/186
f 42/54/187 43/51/188 30/52/189
f 30/52/190 43/51/191 31/50/192
f 34/362/193 32/366/194 88/364/195
f 32/366/196 31/370/197 88/364/198
f 88/364/199 31/370/200 87/371/201
f 31/370/202 44/374/203 87/371/204
f 35/10/205 34/9/206 54/12/207
f 54/12/208 34/9/209 53/14/210
f 53/14/211 34/9/212 52/16/213
f 34/9/214 55/18/215 52/16/216
f 52/16/217 55/18/218 51/19/219
f 51/19/220 55/18/221 50/20/222
f 50/20/223 55/18/224 49/21/225
f 45/25/226 46/24/227 55/18/228
f 46/24/229 47/23/230 55/18/231
f 47/23/232 48/22/233 55/18/234
f 48/22/235 49/21/236 55/18/237
f 45/326/238 56/323/239 46/325/240
f 46/325/241 56/323/242 77/321/243
f 57/324/244 58/322/245 56/323/246
f 56/323/247 58/322/248 77/321/249
f 58/322/250 59/320/251 77/321/252
f 77/321/253 59/320/254 76/319/255
f 59/320/256 60/318/257 76/319/258
f 76/319/259 60/318/260 75/317/261
f 60/318/262 61/316/263 75/317/264
f 75/317/265 61/316/266 74/315/267
f 61/316/268 62/314/269 74/315/270
f 74/315/271 62/314/272 73/313/273
f 62/314/274 63/312/275 73/313/276
f 73/313/277 63/312/278 72/311/279
f 63/312/280 64/310/281 72/311/282
f 72/311/283 64/310/284 71/309/285
f 64/310/286 65/308/287 71/309/288
f 71/309/289 65/308/290 70/307/291
f 65/308/292 66/305/293 70/307/294
f 70/307/295 66/305/296 69/302/297
f 66/305/298 67/300/299 69/302/300
f 69/302/301 67/300/302 68/298/303
f 67/300/304 38/296/305 68/298/306
f 38/296/307 37/295/308 68/298/309
f 43/51/310 79/53/311 44/49/312
f 79/53/313 80/55/314 44/49/315
f 80/55/316 81/57/317 44/49/318
f 44/49/319 81/57/320 78/58/321
f 81/57/322 82/59/323 78/58/324
f 82/59/325 83/60/326 78/58/327
f 83/60/328 84/61/329 78/58/330
f 56/65/331 78/58/332 57/64/333
f 57/64/334 78/58/335 86/63/336
f 86/63/337 78/58/338 85/62/339
f 78/58/340 84/61/341 85/62/342
f 297/27/343 298/26/344 55/18/345
f 55/18/346 298/26/347 45/25/348
f 55/361/349 34/362/350 108/363/351
f 108/363/352 34/362/353 88/364/354
f 89/330/355 91/329/356 298/328/357
f 91/329/358 300/327/359 298/328/360
f 56/323/361 45/326/362 300/327/363
f 300/327/364 45/326/365 298/328/366
f 299/67/367 300/66/368 92/68/369
f 92/68/370 300/66/371 91/70/372
f 87/371/373 44/374/374 146/367/375
f 146/367/376 44/374/377 78/376/378
f 89/30/379 90/28/380 104/33/381
f 104/33/382 90/28/383 103/36/384
f 103/36/385 90/28/386 102/38/387
f 102/38/388 90/28/389 101/39/390
f 101/39/391 90/28/392 100/40/393
f 90/28/394 105/41/395 100/40/396
f 100/40/397 105/41/398 99/42/399
f 99/42/400 105/41/401 98/43/402
f 98/43/403 105/41/404 97/44/405
f 93/48/406 94/47/407 105/41/408
f 94/47/409 95/46/410 105/41/411
f 95/46/412 96/45/413 105/41/414
f 96/45/415 97/44/416 105/41/417
f 55/18/418 106/29/419 297/27/420
f 90/28/421 297/27/422 107/31/423
f 297/27/424 106/29/425 107/31/426
f 122/333/427 91/329/428 121/331/429
f 91/329/430 89/330/431 121/331/432
f 104/334/433 123/332/434 89/330/435
f 89/330/436 123/332/437 121/331/438
f 121/331/439 123/332/440 120/335/441
f 123/332/442 124/336/443 120/335/444
f 120/335/445 124/336/446 119/337/447
f 124/336/448 125/338/449 119/337/450
f 119/337/451 125/338/452 118/339/453
f 125/338/454 126/340/455 118/339/456
f 118/339/457 126/340/458 117/341/459
f 126/340/460 127/342/461 117/341/462
f 117/341/463 127/342/464 116/343/465
f 127/342/466 128/344/467 116/343/468
f 116/343/469 128/344/470 115/345/471
f 128/344/472 129/346/473 115/345/474
f 115/345/475 129/346/476 114/347/477
f 129/346/478 130/348/479 114/347/480
f 114/347/481 130/348/482 113/349/483
f 130/348/484 131/350/485 113/349/486
f 113/349/487 131/350/488 112/351/489
f 131/350/490 132/352/491 112/351/492
f 112/351/493 132/352/494 111/353/495
f 132/352/496 133/354/497 111/353/498
f 93/358/499 109/355/500 94/356/501
f 94/356/502 109/355/503 133/354/504
f 133/354/505 109/355/506 111/353/507
f 109/355/508 110/357/509 111/353/510
f 91/70/511 122/73/512 92/68/513
f 122/73/514 134/76/515 92/68/516
f 134/76/517 135/78/518 92/68/519
f 135/78/520 136/79/521 92/68/522
f 136/79/523 137/80/524 92/68/525
f 92/68/526 137/80/527 143/81/528
f 137/80/529 138/82/530 143/81/531
f 138/82/532 139/83/533 143/81/534
f 139/83/535 140/84/536 143/81/537
f 109/88/538 143/81/539 110/87/540
f 110/87/541 143/81/542 142/86/543
f 142/86/544 143/81/545 141/85/546
f 140/84/547 141/85/548 143/81/549
f 78/58/550 299/67/551 145/69/552
f 92/68/553 144/71/554 299/67/555
f 299/67/556 144/71/557 145/69/558
f 108/363/559 88/364/560 146/367/561
f 146/367/562 88/364/563 87/371/564
f 147/603/565 93/604/566 148/605/567
f 148/605/568 93/604/569 105/606/570
f 105/383/571 90/384/572 150/385/573
f 150/385/574 90/384/575 149/386/576
f 107/31/577 151/34/578 90/28/579
f 90/28/580 151/34/581 170/37/582
f 152/35/583 106/29/584 171/32/585
f 171/32/586 106/29/587 55/18/588
f 107/393/589 106/394/590 154/395/591
f 154/395/592 106/394/593 153/396/594
f 55/361/595 108/363/596 156/365/597
f 156/365/598 108/363/599 155/368/600
f 147/360/601 157/359/602 93/358/603
f 93/358/604 157/359/605 109/355/606
f 109/610/607 157/608/608 143/609/609
f 143/609/610 157/608/611 158/607/612
f 92/388/613 143/389/614 160/390/615
f 160/390/616 143/389/617 159/387/618
f 78/58/619 145/69/620 179/72/621
f 179/72/622 145/69/623 161/75/624
f 144/71/625 92/68/626 162/74/627
f 162/74/628 92/68/629 180/77/630
f 145/397/631 144/398/632 164/399/633
f 164/399/634 144/398/635 163/400/636
f 78/376/637 165/377/638 146/367/639
f 146/367/640 165/377/641 166/375/642
f 108/363/643 146/367/644 155/368/645
f 155/368/646 146/367/647 166/375/648
f 148/605/649 158/607/650 147/603/651
f 147/603/652 158/607/653 157/608/654
f 105/383/655 143/389/656 148/391/657
f 148/391/658 143/389/659 158/392/660
f 143/389/661 105/383/662 159/387/663
f 159/387/664 105/383/665 150/385/666
f 90/384/667 92/388/668 149/386/669
f 149/386/670 92/388/671 160/390/672
f 150/89/673 149/90/674 168/91/675
f 168/91/676 149/90/677 167/92/678
f 107/611/679 154/612/680 151/613/681
f 151/613/682 154/612/683 169/614/684
f 106/418/685 152/413/686 153/417/687
f 153/417/688 152/413/689 172/415/690
f 153/93/691 172/94/692 154/95/693
f 154/95/694 172/94/695 169/96/696
f 55/361/697 156/365/698 171/369/699
f 171/369/700 156/365/701 173/373/702
f 155/368/703 174/372/704 156/365/705
f 156/401/706 174/402/707 175/403/708
f 160/97/709 159/98/710 177/99/711
f 177/99/712 159/98/713 176/100/714
f 178/422/715 161/420/716 164/423/717
f 164/423/718 161/420/719 145/424/720
f 144/615/721 162/616/722 163/617/723
f 163/617/724 162/616/725 181/618/726
f 164/101/727 163/102/728 178/103/729
f 178/103/730 163/102/731 181/104/732
f 78/376/733 179/380/734 165/377/735
f 165/377/736 179/380/737 182/382/738
f 166/375/739 165/377/740 184/378/741
f 184/405/742 165/406/743 183/407/744
f 155/368/745 166/375/746 174/372/747
f 174/372/748 166/375/749 184/378/750
f 159/619/751 150/620/752 176/621/753
f 176/621/754 150/620/755 168/622/756
f 92/623/757 90/624/758 186/625/759
f 186/625/760 90/624/761 185/626/762
f 149/632/763 160/633/764 167/634/765
f 167/634/766 160/633/767 177/635/768
f 167/409/769 177/410/770 168/411/771
f 168/411/772 177/410/773 176/412/774
f 152/413/775 151/414/776 172/415/777
f 172/415/778 151/414/779 169/416/780
f 170/37/781 151/34/782 171/32/783
f 171/32/784 151/34/785 152/35/786
f 90/624/787 170/628/788 185/626/789
f 185/626/790 170/628/791 187/630/792
f 179/636/793 295/637/794 182/638/795
f 171/640/796 173/639/797 295/637/798
f 295/637/799 173/639/800 182/638/801
f 156/105/802 175/106/803 173/107/804
f 173/107/805 175/106/806 188/108/807
f 162/419/808 161/420/809 181/421/810
f 181/421/811 161/420/812 178/422/813
f 180/77/814 179/72/815 162/74/816
f 162/74/817 179/72/818 161/75/819
f 92/623/820 186/625/821 180/627/822
f 180/627/823 186/625/824 189/629/825
f 165/109/826 182/110/827 183/111/828
f 183/111/829 182/110/830 190/112/831
f 183/407/832 190/408/833 184/405/834
f 190/381/835 188/379/836 184/378/837
f 184/378/838 188/379/839 174/372/840
f 174/402/841 188/404/842 175/403/843
f 186/425/844 185/426/845 192/427/846
f 192/427/847 185/426/848 191/428/849
f 171/429/850 295/430/851 170/431/852
f 170/431/853 295/430/854 296/432/855
f 170/628/856 296/631/857 187/630/858
f 180/627/859 189/629/860 296/631/861
f 296/631/862 189/629/863 187/630/864
f 187/113/865 193/114/866 185/115/867
f 185/115/868 193/114/869 191/116/870
f 182/435/871 173/436/872 190/437/873
f 190/437/874 173/436/875 188/438/876
f 189/117/877 186/118/878 194/119/879
f 194/119/880 186/118/881 192/120/882
f 192/641/883 191/642/884 194/643/885
f 194/643/886 191/642/887 193/644/888
f 187/439/889 189/440/890 193/441/891
f 193/441/892 189/440/893 194/442/894
f 50/443/895 49/444/896 196/445/897
f 196/445/898 49/444/899 195/446/900
f 51/449/901 50/443/902 197/447/903
f 197/447/904 50/443/905 196/445/906
f 73/121/907 196/122/908 74/123/909
f 74/123/910 196/122/911 195/125/912
f 49/444/913 48/448/914 195/446/915
f 195/446/916 48/448/917 198/450/918
f 52/452/919 51/449/920 199/451/921
f 199/451/922 51/449/923 197/447/924
f 72/126/925 197/124/926 73/121/927
f 73/121/928 197/124/929 196/122/930
f 74/123/931 195/125/932 75/127/933
f 75/127/934 195/125/935 198/129/936
f 48/645/937 47/646/938 198/647/939
f 198/647/940 47/646/941 200/648/942
f 53/454/943 52/452/944 201/453/945
f 201/453/946 52/452/947 199/451/948
f 72/126/949 71/128/950 197/124/951
f 71/128/952 199/130/953 197/124/954
f 75/127/955 198/129/956 76/131/957
f 76/131/958 198/129/959 200/133/960
f 200/648/961 47/646/962 77/649/963
f 77/649/964 47/646/965 46/650/966
f 54/456/967 53/454/968 202/455/969
f 202/455/970 53/454/971 201/453/972
f 71/128/973 70/132/974 199/130/975
f 70/132/976 201/134/977 199/130/978
f 77/135/979 76/131/980 200/133/981
f 36/651/982 35/652/983 203/653/984
f 203/653/985 35/652/986 202/654/987
f 35/652/988 54/656/989 202/654/990
f 70/132/991 69/136/992 201/134/993
f 69/136/994 202/137/995 201/134/996
f 41/657/997 33/655/998 203/653/999
f 203/653/1000 33/655/1001 36/651/1002
f 69/136/1003 68/138/1004 202/137/1005
f 68/138/1006 203/139/1007 202/137/1008
f 41/141/1009 203/139/1010 37/140/1011
f 203/139/1012 68/138/1013 37/140/1014
f 84/457/1015 83/458/1016 205/459/1017
f 205/459/1018 83/458/1019 204/460/1020
f 85/463/1021 84/457/1022 206/461/1023
f 206/461/1024 84/457/1025 205/459/1026
f 62/142/1027 61/143/1028 204/144/1029
f 61/143/1030 205/145/1031 204/144/1032
f 83/458/1033 82/462/1034 204/460/1035
f 204/460/1036 82/462/1037 207/464/1038
f 86/658/1039 85/659/1040 208/660/1041
f 208/660/1042 85/659/1043 206/661/1044
f 61/143/1045 60/147/1046 205/145/1047
f 60/147/1048 206/149/1049 205/145/1050
f 63/148/1051 62/142/1052 207/146/1053
f 62/142/1054 204/144/1055 207/146/1056
f 82/462/1057 81/465/1058 207/464/1059
f 207/464/1060 81/465/1061 209/466/1062
f 58/663/1063 57/662/1064 208/660/1065
f 208/660/1066 57/662/1067 86/658/1068
f 60/147/1069 59/151/1070 206/149/1071
f 59/151/1072 208/153/1073 206/149/1074
f 63/148/1075 207/146/1076 64/150/1077
f 64/150/1078 207/146/1079 209/152/1080
f 81/465/1081 80/467/1082 209/466/1083
f 209/466/1084 80/467/1085 210/468/1086
f 59/151/1087 58/155/1088 208/153/1089
f 64/150/1090 209/152/1091 65/154/1092
f 65/154/1093 209/152/1094 210/156/1095
f 80/467/1096 79/469/1097 210/468/1098
f 210/468/1099 79/469/1100 211/470/1101
f 65/154/1102 210/156/1103 66/157/1104
f 66/157/1105 210/156/1106 211/158/1107
f 79/664/1108 43/665/1109 211/666/1110
f 42/668/1111 212/667/1112 43/665/1113
f 43/665/1114 212/667/1115 211/666/1116
f 66/157/1117 211/158/1118 67/159/1119
f 67/159/1120 211/158/1121 212/160/1122
f 42/668/1123 40/669/1124 212/667/1125
f 212/667/1126 40/669/1127 39/670/1128
f 39/162/1129 38/161/1130 212/160/1131
f 38/161/1132 67/159/1133 212/160/1134
f 98/471/1135 97/472/1136 214/473/1137
f 214/473/1138 97/472/1139 213/474/1140
f 99/477/1141 98/471/1142 215/475/1143
f 215/475/1144 98/471/1145 214/473/1146
f 129/163/1147 214/164/1148 130/165/1149
f 130/165/1150 214/164/1151 213/167/1152
f 97/472/1153 96/476/1154 213/474/1155
f 213/474/1156 96/476/1157 216/478/1158
f 100/480/1159 99/477/1160 217/479/1161
f 217/479/1162 99/477/1163 215/475/1164
f 128/168/1165 215/166/1166 129/163/1167
f 129/163/1168 215/166/1169 214/164/1170
f 130/165/1171 213/167/1172 131/169/1173
f 131/169/1174 213/167/1175 216/171/1176
f 96/671/1177 95/672/1178 216/673/1179
f 216/673/1180 95/672/1181 218/674/1182
f 101/482/1183 100/480/1184 219/481/1185
f 219/481/1186 100/480/1187 217/479/1188
f 128/168/1189 127/170/1190 215/166/1191
f 127/170/1192 217/172/1193 215/166/1194
f 131/169/1195 216/171/1196 132/173/1197
f 132/173/1198 216/171/1199 218/175/1200
f 218/674/1201 95/672/1202 133/675/1203
f 133/675/1204 95/672/1205 94/676/1206
f 102/484/1207 101/482/1208 220/483/1209
f 220/483/1210 101/482/1211 219/481/1212
f 127/170/1213 126/174/1214 217/172/1215
f 126/174/1216 219/176/1217 217/172/1218
f 133/177/1219 132/173/1220 218/175/1221
f 103/677/1222 102/678/1223 221/679/1224
f 221/679/1225 102/678/1226 220/680/1227
f 126/174/1228 125/178/1229 219/176/1230
f 125/178/1231 220/179/1232 219/176/1233
f 123/682/1234 104/681/1235 221/679/1236
f 221/679/1237 104/681/1238 103/677/1239
f 125/178/1240 124/180/1241 220/179/1242
f 124/180/1243 221/181/1244 220/179/1245
f 124/180/1246 123/182/1247 221/181/1248
f 140/485/1249 139/486/1250 223/487/1251
f 223/487/1252 139/486/1253 222/488/1254
f 141/491/1255 140/485/1256 224/489/1257
f 224/489/1258 140/485/1259 223/487/1260
f 115/183/1261 114/184/1262 222/185/1263
f 114/184/1264 223/186/1265 222/185/1266
f 139/486/1267 138/490/1268 222/488/1269
f 222/488/1270 138/490/1271 225/492/1272
f 142/683/1273 141/684/1274 226/685/1275
f 226/685/1276 141/684/1277 224/686/1278
f 114/184/1279 113/188/1280 223/186/1281
f 113/188/1282 224/190/1283 223/186/1284
f 116/189/1285 115/183/1286 225/187/1287
f 115/183/1288 222/185/1289 225/187/1290
f 138/490/1291 137/493/1292 225/492/1293
f 225/492/1294 137/493/1295 227/494/1296
f 111/688/1297 110/687/1298 226/685/1299
f 226/685/1300 110/687/1301 142/683/1302
f 113/188/1303 112/192/1304 224/190/1305
f 112/192/1306 226/194/1307 224/190/1308
f 116/189/1309 225/187/1310 117/191/1311
f 117/191/1312 225/187/1313 227/193/1314
f 137/493/1315 136/495/1316 227/494/1317
f 227/494/1318 136/495/1319 228/496/1320
f 112/192/1321 111/196/1322 226/194/1323
f 117/191/1324 227/193/1325 118/195/1326
f 118/195/1327 227/193/1328 228/197/1329
f 136/495/1330 135/497/1331 228/496/1332
f 228/496/1333 135/497/1334 229/498/1335
f 118/195/1336 228/197/1337 119/198/1338
f 119/198/1339 228/197/1340 229/199/1341
f 135/689/1342 134/690/1343 229/691/1344
f 229/691/1345 134/690/1346 230/692/1347
f 119/198/1348 229/199/1349 120/200/1350
f 120/200/1351 229/199/1352 230/201/1353
f 134/690/1354 122/693/1355 230/692/1356
f 230/692/1357 122/693/1358 121/694/1359
f 121/202/1360 120/200/1361 230/201/1362
f 231/695/1363 232/696/1364 233/697/1365
f 233/697/1366 232/696/1367 234/698/1368
f 233/499/1369 234/500/1370 235/501/1371
f 235/501/1372 234/500/1373 236/502/1374
f 235/699/1375 236/700/1376 237/701/1377
f 237/701/1378 236/700/1379 238/702/1380
f 237/503/1381 238/504/1382 231/505/1383
f 231/505/1384 238/504/1385 232/506/1386
f 232/203/1387 238/204/1388 234/205/1389
f 234/205/1390 238/204/1391 236/206/1392
f 237/207/1393 231/208/1394 235/209/1395
f 235/209/1396 231/208/1397 233/210/1398
f 239/703/1399 240/704/1400 241/705/1401
f 241/705/1402 240/704/1403 242/706/1404
f 241/507/1405 242/508/1406 243/509/1407
f 243/509/1408 242/508/1409 244/510/1410
f 243/707/1411 244/708/1412 245/709/1413
f 245/709/1414 244/708/1415 246/710/1416
f 245/511/1417 246/512/1418 239/513/1419
f 239/513/1420 246/512/1421 240/514/1422
f 240/211/1423 246/212/1424 242/213/1425
f 242/213/1426 246/212/1427 244/214/1428
f 239/215/1429 241/216/1430 245/217/1431
f 245/217/1432 241/216/1433 243/218/1434
f 247/711/1435 248/712/1436 249/713/1437
f 249/713/1438 248/712/1439 250/714/1440
f 249/515/1441 250/516/1442 251/517/1443
f 251/517/1444 250/516/1445 252/518/1446
f 251/715/1447 252/716/1448 253/717/1449
f 253/717/1450 252/716/1451 254/718/1452
f 253/519/1453 254/520/1454 247/521/1455
f 247/521/1456 254/520/1457 248/522/1458
f 248/219/1459 254/220/1460 250/221/1461
f 250/221/1462 254/220/1463 252/222/1464
f 253/223/1465 247/224/1466 251/225/1467
f 251/225/1468 247/224/1469 249/226/1470
f 255/719/1471 256/720/1472 257/721/1473
f 257/721/1474 256/720/1475 258/722/1476
f 257/523/1477 258/524/1478 259/525/1479
f 259/525/1480 258/524/1481 260/526/1482
f 259/723/1483 260/724/1484 261/725/1485
f 261/725/1486 260/724/1487 262/726/1488
f 261/527/1489 262/528/1490 255/529/1491
f 255/529/1492 262/528/1493 256/530/1494
f 256/227/1495 262/228/1496 258/229/1497
f 258/229/1498 262/228/1499 260/230/1500
f 255/231/1501 257/232/1502 261/233/1503
f 261/233/1504 257/232/1505 259/234/1506
f 263/727/1507 264/728/1508 265/729/1509
f 265/729/1510 264/728/1511 266/730/1512
f 265/531/1513 266/532/1514 267/533/1515
f 267/533/1516 266/532/1517 268/534/1518
f 267/731/1519 268/732/1520 269/733/1521
f 269/733/1522 268/732/1523 270/734/1524
f 269/535/1525 270/536/1526 263/537/1527
f 263/537/1528 270/536/1529 264/538/1530
f 264/235/1531 270/236/1532 266/237/1533
f 266/237/1534 270/236/1535 268/238/1536
f 263/239/1537 265/240/1538 269/241/1539
f 269/241/1540 265/240/1541 267/242/1542
f 271/735/1543 272/736/1544 273/737/1545
f 273/737/1546 272/736/1547 274/738/1548
f 273/539/1549 274/540/1550 275/541/1551
f 275/541/1552 274/540/1553 276/542/1554
f 275/739/1555 276/740/1556 277/741/1557
f 277/741/1558 276/740/1559 278/742/1560
f 277/543/1561 278/544/1562 271/545/1563
f 271/545/1564 278/544/1565 272/546/1566
f 272/243/1567 278/244/1568 274/245/1569
f 274/245/1570 278/244/1571 276/246/1572
f 271/247/1573 273/248/1574 277/249/1575
f 277/249/1576 273/248/1577 275/250/1578
f 279/743/1579 280/744/1580 281/745/1581
f 281/745/1582 280/744/1583 282/746/1584
f 281/547/1585 282/548/1586 283/549/1587
f 283/549/1588 282/548/1589 284/550/1590
f 283/747/1591 284/748/1592 285/749/1593
f 285/749/1594 284/748/1595 286/750/1596
f 285/551/1597 286/552/1598 279/553/1599
f 279/553/1600 286/552/1601 280/554/1602
f 280/251/1603 286/252/1604 282/253/1605
f 282/253/1606 286/252/1607 284/254/1608
f 279/255/1609 281/256/1610 285/257/1611
f 285/257/1612 281/256/1613 283/258/1614
f 287/751/1615 288/752/1616 289/753/1617
f 289/753/1618 288/752/1619 290/754/1620
f 289/555/1621 290/556/1622 291/557/1623
f 291/557/1624 290/556/1625 292/558/1626
f 291/755/1627 292/756/1628 293/757/1629
f 293/757/1630 292/756/1631 294/758/1632
f 293/559/1633 294/560/1634 287/561/1635
f 287/561/1636 294/560/1637 288/562/1638
f 288/259/1639 294/260/1640 290/261/1641
f 290/261/1642 294/260/1643 292/262/1644
f 293/263/1645 287/264/1646 291/265/1647
f 291/265/1648 287/264/1649 289/266/1650
f 296/432/1651 295/430/1652 180/433/1653
f 180/433/1654 295/430/1655 179/434/1656
f 89/30/1657 298/26/1658 90/28/1659
f 90/28/1660 298/26/1661 297/27/1662
f 56/65/1663 300/66/1664 78/58/1665
f 78/58/1666 300/66/1667 299/67/1668
