# This file uses centimeters as units for non-parametric coordinates.

mtllib Media_luna.mtl
g default
v 2.002958 4.215517 2.553812
v 2.169927 4.155260 4.029247
v 2.175359 4.122188 5.514944
v 3.330955 4.009870 2.288515
v 3.347768 3.962568 3.951305
v 3.378720 3.907865 5.554542
v 5.100992 3.745905 1.715336
v 4.969183 3.700505 3.798020
v 4.916740 3.619936 5.773360
vt 0.000000 0.000000
vt 0.500000 0.000000
vt 1.000000 0.000000
vt 0.000000 0.500000
vt 0.500000 0.500000
vt 1.000000 0.500000
vt 0.000000 1.000000
vt 0.500000 1.000000
vt 1.000000 1.000000
vn 0.165450 0.985917 0.024376
vn 0.161966 0.986399 0.027992
vn 0.159782 0.986839 0.024862
vn 0.158774 0.986903 0.028523
vn 0.174626 0.984405 0.021274
vn 0.170731 0.984727 0.034110
vn 0.164117 0.985881 0.033224
vn 0.157389 0.987035 0.031477
vn 0.177663 0.983071 0.044814
s 1
g pPlane6
usemtl phong3SG
f 2/2/1 5/5/2 1/1/3
f 1/1/3 5/5/2 4/4/4
f 3/3/5 6/6/6 2/2/1
f 2/2/1 6/6/6 5/5/2
f 5/5/2 8/8/7 4/4/4
f 4/4/4 8/8/7 7/7/8
f 5/5/2 6/6/6 8/8/7
f 8/8/7 6/6/6 9/9/9
g default
v 0.960114 4.228427 -0.306250
v 1.643768 4.101005 0.918456
v 2.171658 3.994275 2.219788
v 2.176866 4.086867 -1.093892
v 2.778366 3.956491 0.357417
v 3.372942 3.821433 1.750074
v 3.721341 3.919893 -2.335964
v 4.324052 3.763304 -0.455094
v 4.967586 3.576895 1.296531
vt 0.000000 0.000000
vt 0.500000 0.000000
vt 1.000000 0.000000
vt 0.000000 0.500000
vt 0.500000 0.500000
vt 1.000000 0.500000
vt 0.000000 1.000000
vt 0.500000 1.000000
vt 1.000000 1.000000
vn 0.142475 0.989423 0.027256
vn 0.140688 0.989517 0.032608
vn 0.137106 0.990100 0.030061
vn 0.137781 0.989863 0.034468
vn 0.150111 0.988463 0.020177
vn 0.152120 0.987714 0.035778
vn 0.145194 0.988694 0.037465
vn 0.137763 0.989726 0.038253
vn 0.163831 0.985476 0.044685
s 1
g pPlane5
usemtl phong2SG
f 11/11/10 14/14/11 10/10/12
f 10/10/12 14/14/11 13/13/13
f 12/12/14 15/15/15 11/11/10
f 11/11/10 15/15/15 14/14/11
f 14/14/11 17/17/16 13/13/13
f 13/13/13 17/17/16 16/16/17
f 14/14/11 15/15/15 17/17/16
f 17/17/16 15/15/15 18/18/18
g default
v -10.368385 3.969291 -7.500854
v -9.615362 3.969291 -7.567885
v -7.948870 3.969291 -7.673551
v -6.354337 3.969291 -7.685148
v -4.837473 3.969291 -7.584155
v -3.403515 3.969291 -7.357532
v -2.057842 3.969291 -6.997515
v -0.806506 3.969291 -6.500873
v 0.343773 3.969291 -5.868299
v 1.385716 3.969291 -5.103598
v 2.311719 3.969291 -4.212957
v 3.114181 3.969291 -3.204351
v 3.785818 3.969291 -2.087017
v 4.320288 3.969291 -0.871247
v 4.713891 3.969291 0.430778
v 4.963063 3.969291 1.808983
v 5.069556 3.969291 3.251386
v 5.039254 3.969291 4.747203
v 4.884008 3.969291 6.286865
v 4.622502 3.969291 7.862707
v 4.414007 3.969291 8.882509
v -10.368385 4.269077 -7.500854
v -9.615362 4.269077 -7.567885
v -7.948870 4.269077 -7.673551
v -6.354337 4.269077 -7.685148
v -4.837473 4.269077 -7.584155
v -3.403515 4.269077 -7.357532
v -2.057842 4.269077 -6.997515
v -0.806506 4.269077 -6.500873
v 0.343773 4.269077 -5.868299
v 1.385716 4.269077 -5.103598
v 2.311719 4.269077 -4.212957
v 3.114181 4.269077 -3.204351
v 3.785818 4.269077 -2.087017
v 4.320288 4.269077 -0.871247
v 4.713891 4.269077 0.430778
v 4.963063 4.269077 1.808983
v 5.069556 4.269077 3.251386
v 5.039254 4.269077 4.747203
v 4.884008 4.269077 6.286865
v 4.622502 4.269077 7.862707
v 4.414007 4.269077 8.882509
v -10.427715 4.269077 -7.707975
v -9.459012 4.269077 -7.782144
v -7.796971 4.269077 -7.883865
v -6.207935 4.269077 -7.887687
v -4.693796 4.269077 -7.780590
v -3.261263 4.269077 -7.547768
v -1.915524 4.269077 -7.181976
v -0.663642 4.269077 -6.679186
v 0.488435 4.269077 -6.041154
v 1.533052 4.269077 -5.271399
v 2.462768 4.269077 -4.376334
v 3.270235 4.269077 -3.364157
v 3.948007 4.269077 -2.243821
v 4.489484 4.269077 -1.025290
v 4.890286 4.269077 0.280023
v 5.147976 4.269077 1.660748
v 5.263902 4.269077 3.105095
v 5.243475 4.269077 4.602395
v 5.097676 4.269077 6.143396
v 4.845644 4.269077 7.719182
v 4.644656 4.269077 8.899430
v -10.427715 3.969291 -7.707975
v -9.459012 3.969291 -7.782144
v -7.796971 3.969291 -7.883865
v -6.207935 3.969291 -7.887687
v -4.693796 3.969291 -7.780590
v -3.261263 3.969291 -7.547768
v -1.915524 3.969291 -7.181976
v -0.663642 3.969291 -6.679186
v 0.488435 3.969291 -6.041154
v 1.533052 3.969291 -5.271399
v 2.462768 3.969291 -4.376334
v 3.270235 3.969291 -3.364157
v 3.948007 3.969291 -2.243821
v 4.489484 3.969291 -1.025290
v 4.890286 3.969291 0.280023
v 5.147976 3.969291 1.660748
v 5.263902 3.969291 3.105095
v 5.243475 3.969291 4.602395
v 5.097676 3.969291 6.143396
v 4.845644 3.969291 7.719182
v 4.644656 3.969291 8.899430
vt 0.375000 0.000000
vt 0.387500 0.000000
vt 0.400000 0.000000
vt 0.412500 0.000000
vt 0.425000 0.000000
vt 0.437500 0.000000
vt 0.450000 0.000000
vt 0.462500 0.000000
vt 0.475000 0.000000
vt 0.487500 0.000000
vt 0.500000 0.000000
vt 0.512500 0.000000
vt 0.525000 0.000000
vt 0.537500 0.000000
vt 0.550000 0.000000
vt 0.562500 0.000000
vt 0.575000 0.000000
vt 0.587500 0.000000
vt 0.600000 0.000000
vt 0.612500 0.000000
vt 0.625000 0.000000
vt 0.375000 0.250000
vt 0.387500 0.250000
vt 0.400000 0.250000
vt 0.412500 0.250000
vt 0.425000 0.250000
vt 0.437500 0.250000
vt 0.450000 0.250000
vt 0.462500 0.250000
vt 0.475000 0.250000
vt 0.487500 0.250000
vt 0.500000 0.250000
vt 0.512500 0.250000
vt 0.525000 0.250000
vt 0.537500 0.250000
vt 0.550000 0.250000
vt 0.562500 0.250000
vt 0.575000 0.250000
vt 0.587500 0.250000
vt 0.600000 0.250000
vt 0.612500 0.250000
vt 0.625000 0.250000
vt 0.375000 0.500000
vt 0.387500 0.500000
vt 0.400000 0.500000
vt 0.412500 0.500000
vt 0.425000 0.500000
vt 0.437500 0.500000
vt 0.450000 0.500000
vt 0.462500 0.500000
vt 0.475000 0.500000
vt 0.487500 0.500000
vt 0.500000 0.500000
vt 0.512500 0.500000
vt 0.525000 0.500000
vt 0.537500 0.500000
vt 0.550000 0.500000
vt 0.562500 0.500000
vt 0.575000 0.500000
vt 0.587500 0.500000
vt 0.600000 0.500000
vt 0.612500 0.500000
vt 0.625000 0.500000
vt 0.375000 0.750000
vt 0.387500 0.750000
vt 0.400000 0.750000
vt 0.412500 0.750000
vt 0.425000 0.750000
vt 0.437500 0.750000
vt 0.450000 0.750000
vt 0.462500 0.750000
vt 0.475000 0.750000
vt 0.487500 0.750000
vt 0.500000 0.750000
vt 0.512500 0.750000
vt 0.525000 0.750000
vt 0.537500 0.750000
vt 0.550000 0.750000
vt 0.562500 0.750000
vt 0.575000 0.750000
vt 0.587500 0.750000
vt 0.600000 0.750000
vt 0.612500 0.750000
vt 0.625000 0.750000
vt 0.375000 1.000000
vt 0.387500 1.000000
vt 0.400000 1.000000
vt 0.412500 1.000000
vt 0.425000 1.000000
vt 0.437500 1.000000
vt 0.450000 1.000000
vt 0.462500 1.000000
vt 0.475000 1.000000
vt 0.487500 1.000000
vt 0.500000 1.000000
vt 0.512500 1.000000
vt 0.525000 1.000000
vt 0.537500 1.000000
vt 0.550000 1.000000
vt 0.562500 1.000000
vt 0.575000 1.000000
vt 0.587500 1.000000
vt 0.600000 1.000000
vt 0.612500 1.000000
vt 0.625000 1.000000
vt 0.875000 0.000000
vt 0.875000 0.250000
vt 0.125000 0.000000
vt 0.125000 0.250000
vn 0.088665 0.000000 0.996061
vn 0.071195 0.000000 0.997462
vn 0.088665 0.000000 0.996061
vn 0.071195 0.000000 0.997462
vn 0.035936 0.000000 0.999354
vn 0.035936 0.000000 0.999354
vn -0.028720 0.000000 0.999587
vn -0.028720 0.000000 0.999587
vn -0.110348 0.000000 0.993893
vn -0.110348 0.000000 0.993893
vn -0.206501 0.000000 0.978446
vn -0.206501 0.000000 0.978446
vn -0.313261 0.000000 0.949667
vn -0.313260 0.000000 0.949667
vn -0.425502 0.000000 0.904958
vn -0.425501 0.000000 0.904958
vn -0.537484 0.000000 0.843274
vn -0.537484 0.000000 0.843274
vn -0.643709 0.000000 0.765270
vn -0.643709 0.000000 0.765270
vn -0.739576 0.000000 0.673073
vn -0.739577 0.000000 0.673072
vn -0.821776 0.000000 0.569811
vn -0.821777 0.000000 0.569809
vn -0.888322 0.000000 0.459222
vn -0.888322 0.000000 0.459221
vn -0.938287 0.000000 0.345857
vn -0.938287 0.000000 0.345857
vn -0.972427 0.000000 0.233208
vn -0.972427 0.000000 0.233209
vn -0.992144 0.000000 0.125104
vn -0.992144 0.000000 0.125104
vn -0.999664 0.000000 0.025922
vn -0.999664 0.000000 0.025922
vn -0.998137 0.000000 -0.061012
vn -0.998137 0.000000 -0.061012
vn -0.991171 0.000000 -0.132586
vn -0.991171 0.000000 -0.132586
vn -0.983999 0.000000 -0.178175
vn -0.983999 0.000000 -0.178175
vn -0.979734 0.000000 -0.200304
vn -0.979734 0.000000 -0.200304
vn 0.000000 1.000000 0.000000
vn 0.000000 1.000000 0.000000
vn 0.000000 1.000000 0.000000
vn 0.000000 1.000000 0.000000
vn 0.000000 1.000000 0.000000
vn 0.000000 1.000000 0.000000
vn 0.000000 1.000000 0.000000
vn 0.000000 1.000000 0.000000
vn 0.000000 1.000000 0.000000
vn 0.000000 1.000000 0.000000
vn 0.000000 1.000000 0.000000
vn 0.000000 1.000000 0.000000
vn 0.000000 1.000000 0.000000
vn 0.000000 1.000000 0.000000
vn 0.000000 1.000000 0.000000
vn 0.000000 1.000000 0.000000
vn 0.000000 1.000000 0.000000
vn 0.000000 1.000000 0.000000
vn 0.000000 1.000000 0.000000
vn 0.000000 1.000000 0.000000
vn 0.000000 1.000000 0.000000
vn 0.000000 1.000000 0.000000
vn 0.000000 1.000000 0.000000
vn 0.000000 1.000000 0.000000
vn 0.000000 1.000000 0.000000
vn 0.000000 1.000000 0.000000
vn 0.000000 1.000000 0.000000
vn 0.000000 1.000000 0.000000
vn 0.000000 1.000000 0.000000
vn 0.000000 1.000000 0.000000
vn 0.000000 1.000000 0.000000
vn 0.000000 1.000000 0.000000
vn 0.000000 1.000000 0.000000
vn 0.000000 1.000000 0.000000
vn 0.000000 1.000000 0.000000
vn 0.000000 1.000000 0.000000
vn 0.000000 1.000000 0.000000
vn 0.000000 1.000000 0.000000
vn 0.000000 1.000000 0.000000
vn 0.000000 1.000000 0.000000
vn 0.000000 1.000000 0.000000
vn 0.000000 1.000000 0.000000
vn -0.076342 0.000000 -0.997082
vn -0.066711 0.000000 -0.997772
vn -0.076342 0.000000 -0.997082
vn -0.066711 0.000000 -0.997772
vn -0.032447 0.000000 -0.999473
vn -0.032447 0.000000 -0.999473
vn 0.033262 0.000000 -0.999447
vn 0.033262 0.000000 -0.999447
vn 0.114597 0.000000 -0.993412
vn 0.114597 0.000000 -0.993412
vn 0.210630 0.000000 -0.977566
vn 0.210629 0.000000 -0.977566
vn 0.317117 0.000000 -0.948386
vn 0.317117 0.000000 -0.948386
vn 0.428733 0.000000 -0.903431
vn 0.428733 0.000000 -0.903431
vn 0.539570 0.000000 -0.841941
vn 0.539571 0.000000 -0.841940
vn 0.644639 0.000000 -0.764487
vn 0.644640 0.000000 -0.764486
vn 0.739298 0.000000 -0.673378
vn 0.739297 0.000000 -0.673379
vn 0.820590 0.000000 -0.571518
vn 0.820588 0.000000 -0.571519
vn 0.886745 0.000000 -0.462259
vn 0.886745 0.000000 -0.462260
vn 0.936836 0.000000 -0.349768
vn 0.936836 0.000000 -0.349768
vn 0.971240 0.000000 -0.238103
vn 0.971240 0.000000 -0.238103
vn 0.991368 0.000000 -0.131109
vn 0.991368 0.000000 -0.131109
vn 0.999473 0.000000 -0.032447
vn 0.999473 0.000000 -0.032448
vn 0.998507 0.000000 0.054629
vn 0.998507 0.000000 0.054629
vn 0.991952 0.000000 0.126614
vn 0.991952 0.000000 0.126614
vn 0.986758 0.000000 0.162197
vn 0.986758 0.000000 0.162197
vn 0.985808 0.000000 0.167875
vn 0.985808 0.000000 0.167875
vn 0.000000 -1.000000 0.000000
vn 0.000000 -1.000000 0.000000
vn 0.000000 -1.000000 0.000000
vn 0.000000 -1.000000 0.000000
vn 0.000000 -1.000000 0.000000
vn 0.000000 -1.000000 0.000000
vn 0.000000 -1.000000 0.000000
vn 0.000000 -1.000000 0.000000
vn 0.000000 -1.000000 0.000000
vn 0.000000 -1.000000 0.000000
vn 0.000000 -1.000000 0.000000
vn 0.000000 -1.000000 0.000000
vn 0.000000 -1.000000 0.000000
vn 0.000000 -1.000000 0.000000
vn 0.000000 -1.000000 0.000000
vn 0.000000 -1.000000 0.000000
vn 0.000000 -1.000000 0.000000
vn 0.000000 -1.000000 0.000000
vn 0.000000 -1.000000 0.000000
vn 0.000000 -1.000000 0.000000
vn 0.000000 -1.000000 0.000000
vn 0.000000 -1.000000 0.000000
vn 0.000000 -1.000000 0.000000
vn 0.000000 -1.000000 0.000000
vn 0.000000 -1.000000 0.000000
vn 0.000000 -1.000000 0.000000
vn 0.000000 -1.000000 0.000000
vn 0.000000 -1.000000 0.000000
vn 0.000000 -1.000000 0.000000
vn 0.000000 -1.000000 0.000000
vn 0.000000 -1.000000 0.000000
vn 0.000000 -1.000000 0.000000
vn 0.000000 -1.000000 0.000000
vn 0.000000 -1.000000 0.000000
vn 0.000000 -1.000000 0.000000
vn 0.000000 -1.000000 0.000000
vn 0.000000 -1.000000 0.000000
vn 0.000000 -1.000000 0.000000
vn 0.000000 -1.000000 0.000000
vn 0.000000 -1.000000 0.000000
vn 0.000000 -1.000000 0.000000
vn 0.000000 -1.000000 0.000000
vn -0.073161 0.000000 0.997320
vn -0.073163 0.000000 0.997320
vn -0.073166 0.000000 0.997320
vn -0.073168 0.000000 0.997320
vn -0.961337 0.000000 0.275375
vn -0.961337 0.000000 0.275375
vn -0.961337 0.000000 0.275375
vn -0.961337 0.000000 0.275375
s 1
g pCube2
usemtl phong1SG
f 19/19/19 20/20/20 40/40/21
f 40/40/21 20/20/20 41/41/22
f 20/20/20 21/21/23 41/41/22
f 41/41/22 21/21/23 42/42/24
f 21/21/23 22/22/25 42/42/24
f 42/42/24 22/22/25 43/43/26
f 22/22/25 23/23/27 43/43/26
f 43/43/26 23/23/27 44/44/28
f 23/23/27 24/24/29 44/44/28
f 44/44/28 24/24/29 45/45/30
f 24/24/29 25/25/31 45/45/30
f 45/45/30 25/25/31 46/46/32
f 25/25/31 26/26/33 46/46/32
f 46/46/32 26/26/33 47/47/34
f 26/26/33 27/27/35 47/47/34
f 47/47/34 27/27/35 48/48/36
f 27/27/35 28/28/37 48/48/36
f 48/48/36 28/28/37 49/49/38
f 28/28/37 29/29/39 49/49/38
f 49/49/38 29/29/39 50/50/40
f 29/29/39 30/30/41 50/50/40
f 50/50/40 30/30/41 51/51/42
f 30/30/41 31/31/43 51/51/42
f 51/51/42 31/31/43 52/52/44
f 31/31/43 32/32/45 52/52/44
f 52/52/44 32/32/45 53/53/46
f 32/32/45 33/33/47 53/53/46
f 53/53/46 33/33/47 54/54/48
f 33/33/47 34/34/49 54/54/48
f 54/54/48 34/34/49 55/55/50
f 34/34/49 35/35/51 55/55/50
f 55/55/50 35/35/51 56/56/52
f 35/35/51 36/36/53 56/56/52
f 56/56/52 36/36/53 57/57/54
f 36/36/53 37/37/55 57/57/54
f 57/57/54 37/37/55 58/58/56
f 37/37/55 38/38/57 58/58/56
f 58/58/56 38/38/57 59/59/58
f 38/38/57 39/39/59 59/59/58
f 59/59/58 39/39/59 60/60/60
s 2
f 40/40/61 41/41/62 61/61/63
f 61/61/63 41/41/62 62/62/64
f 41/41/62 42/42/65 62/62/64
f 62/62/64 42/42/65 63/63/66
f 42/42/65 43/43/67 63/63/66
f 63/63/66 43/43/67 64/64/68
f 43/43/67 44/44/69 64/64/68
f 64/64/68 44/44/69 65/65/70
f 44/44/69 45/45/71 65/65/70
f 65/65/70 45/45/71 66/66/72
f 45/45/71 46/46/73 66/66/72
f 66/66/72 46/46/73 67/67/74
f 46/46/73 47/47/75 67/67/74
f 67/67/74 47/47/75 68/68/76
f 47/47/75 48/48/77 68/68/76
f 68/68/76 48/48/77 69/69/78
f 48/48/77 49/49/79 69/69/78
f 69/69/78 49/49/79 70/70/80
f 49/49/79 50/50/81 70/70/80
f 70/70/80 50/50/81 71/71/82
f 51/51/83 72/72/84 50/50/81
f 50/50/81 72/72/84 71/71/82
f 52/52/85 73/73/86 51/51/83
f 51/51/83 73/73/86 72/72/84
f 53/53/87 74/74/88 52/52/85
f 52/52/85 74/74/88 73/73/86
f 54/54/89 75/75/90 53/53/87
f 53/53/87 75/75/90 74/74/88
f 55/55/91 76/76/92 54/54/89
f 54/54/89 76/76/92 75/75/90
f 56/56/93 77/77/94 55/55/91
f 55/55/91 77/77/94 76/76/92
f 57/57/95 78/78/96 56/56/93
f 56/56/93 78/78/96 77/77/94
f 58/58/97 79/79/98 57/57/95
f 57/57/95 79/79/98 78/78/96
f 59/59/99 80/80/100 58/58/97
f 58/58/97 80/80/100 79/79/98
f 60/60/101 81/81/102 59/59/99
f 59/59/99 81/81/102 80/80/100
s 12
f 61/61/103 62/62/104 82/82/105
f 82/82/105 62/62/104 83/83/106
f 62/62/104 63/63/107 83/83/106
f 83/83/106 63/63/107 84/84/108
f 63/63/107 64/64/109 84/84/108
f 84/84/108 64/64/109 85/85/110
f 64/64/109 65/65/111 85/85/110
f 85/85/110 65/65/111 86/86/112
f 65/65/111 66/66/113 86/86/112
f 86/86/112 66/66/113 87/87/114
f 66/66/113 67/67/115 87/87/114
f 87/87/114 67/67/115 88/88/116
f 67/67/115 68/68/117 88/88/116
f 88/88/116 68/68/117 89/89/118
f 68/68/117 69/69/119 89/89/118
f 89/89/118 69/69/119 90/90/120
f 69/69/119 70/70/121 90/90/120
f 90/90/120 70/70/121 91/91/122
f 70/70/121 71/71/123 91/91/122
f 91/91/122 71/71/123 92/92/124
f 71/71/123 72/72/125 92/92/124
f 92/92/124 72/72/125 93/93/126
f 72/72/125 73/73/127 93/93/126
f 93/93/126 73/73/127 94/94/128
f 73/73/127 74/74/129 94/94/128
f 94/94/128 74/74/129 95/95/130
f 74/74/129 75/75/131 95/95/130
f 95/95/130 75/75/131 96/96/132
f 75/75/131 76/76/133 96/96/132
f 96/96/132 76/76/133 97/97/134
f 76/76/133 77/77/135 97/97/134
f 97/97/134 77/77/135 98/98/136
f 77/77/135 78/78/137 98/98/136
f 98/98/136 78/78/137 99/99/138
f 78/78/137 79/79/139 99/99/138
f 99/99/138 79/79/139 100/100/140
f 79/79/139 80/80/141 100/100/140
f 100/100/140 80/80/141 101/101/142
f 80/80/141 81/81/143 101/101/142
f 101/101/142 81/81/143 102/102/144
s 13
f 83/83/145 20/104/146 82/82/147
f 82/82/147 20/104/146 19/103/148
f 84/84/149 21/105/150 83/83/145
f 83/83/145 21/105/150 20/104/146
f 85/85/151 22/106/152 84/84/149
f 84/84/149 22/106/152 21/105/150
f 86/86/153 23/107/154 85/85/151
f 85/85/151 23/107/154 22/106/152
f 87/87/155 24/108/156 86/86/153
f 86/86/153 24/108/156 23/107/154
f 88/88/157 25/109/158 87/87/155
f 87/87/155 25/109/158 24/108/156
f 89/89/159 26/110/160 88/88/157
f 88/88/157 26/110/160 25/109/158
f 90/90/161 27/111/162 89/89/159
f 89/89/159 27/111/162 26/110/160
f 91/91/163 28/112/164 90/90/161
f 90/90/161 28/112/164 27/111/162
f 92/92/165 29/113/166 91/91/163
f 91/91/163 29/113/166 28/112/164
f 92/92/165 93/93/167 29/113/166
f 29/113/166 93/93/167 30/114/168
f 93/93/167 94/94/169 30/114/168
f 30/114/168 94/94/169 31/115/170
f 94/94/169 95/95/171 31/115/170
f 31/115/170 95/95/171 32/116/172
f 95/95/171 96/96/173 32/116/172
f 32/116/172 96/96/173 33/117/174
f 96/96/173 97/97/175 33/117/174
f 33/117/174 97/97/175 34/118/176
f 97/97/175 98/98/177 34/118/176
f 34/118/176 98/98/177 35/119/178
f 98/98/177 99/99/179 35/119/178
f 35/119/178 99/99/179 36/120/180
f 99/99/179 100/100/181 36/120/180
f 36/120/180 100/100/181 37/121/182
f 100/100/181 101/101/183 37/121/182
f 37/121/182 101/101/183 38/122/184
f 101/101/183 102/102/185 38/122/184
f 38/122/184 102/102/185 39/123/186
s 23
f 39/39/187 102/124/188 60/60/189
f 60/60/189 102/124/188 81/125/190
s 24
f 82/126/191 19/19/192 61/127/193
f 61/127/193 19/19/192 40/40/194
g default
v -10.528737 -0.101331 -4.106358
v -10.204602 -0.101331 -4.106358
v -10.528737 4.344226 -4.106358
v -10.204602 4.344226 -4.106358
v -10.528737 4.344226 -4.430493
v -10.204602 4.344226 -4.430493
v -10.528737 -0.101331 -4.430493
v -10.204602 -0.101331 -4.430493
vt 0.375000 0.000000
vt 0.625000 0.000000
vt 0.375000 0.250000
vt 0.625000 0.250000
vt 0.375000 0.500000
vt 0.625000 0.500000
vt 0.375000 0.750000
vt 0.625000 0.750000
vt 0.375000 1.000000
vt 0.625000 1.000000
vt 0.875000 0.000000
vt 0.875000 0.250000
vt 0.125000 0.000000
vt 0.125000 0.250000
vn 0.000000 0.000000 1.000000
vn 0.000000 0.000000 1.000000
vn 0.000000 0.000000 1.000000
vn 0.000000 0.000000 1.000000
vn 0.000000 1.000000 0.000000
vn 0.000000 1.000000 0.000000
vn 0.000000 1.000000 0.000000
vn 0.000000 1.000000 0.000000
vn 0.000000 0.000000 -1.000000
vn 0.000000 0.000000 -1.000000
vn 0.000000 0.000000 -1.000000
vn 0.000000 0.000000 -1.000000
vn 0.000000 -1.000000 0.000000
vn 0.000000 -1.000000 0.000000
vn 0.000000 -1.000000 0.000000
vn 0.000000 -1.000000 0.000000
vn 1.000000 0.000000 0.000000
vn 1.000000 0.000000 0.000000
vn 1.000000 0.000000 0.000000
vn 1.000000 0.000000 0.000000
vn -1.000000 0.000000 0.000000
vn -1.000000 0.000000 0.000000
vn -1.000000 0.000000 0.000000
vn -1.000000 0.000000 0.000000
s 1
g pCube1
usemtl phong1SG
f 103/128/195 104/129/196 105/130/197
f 105/130/197 104/129/196 106/131/198
s 2
f 105/130/199 106/131/200 107/132/201
f 107/132/201 106/131/200 108/133/202
s 3
f 107/132/203 108/133/204 109/134/205
f 109/134/205 108/133/204 110/135/206
s 4
f 109/134/207 110/135/208 103/136/209
f 103/136/209 110/135/208 104/137/210
s 5
f 104/129/211 110/138/212 106/131/213
f 106/131/213 110/138/212 108/139/214
s 6
f 109/140/215 103/128/216 107/141/217
f 107/141/217 103/128/216 105/130/218
g default
v 0.598553 -0.101331 -0.359222
v 0.915619 -0.101331 -0.291894
v 0.598553 4.344226 -0.359222
v 0.915619 4.344226 -0.291894
v 0.665882 4.344226 -0.676288
v 0.982948 4.344226 -0.608959
v 0.665882 -0.101331 -0.676288
v 0.982948 -0.101331 -0.608959
vt 0.375000 0.000000
vt 0.625000 0.000000
vt 0.375000 0.250000
vt 0.625000 0.250000
vt 0.375000 0.500000
vt 0.625000 0.500000
vt 0.375000 0.750000
vt 0.625000 0.750000
vt 0.375000 1.000000
vt 0.625000 1.000000
vt 0.875000 0.000000
vt 0.875000 0.250000
vt 0.125000 0.000000
vt 0.125000 0.250000
vn -0.207719 0.000000 0.978189
vn -0.207719 0.000000 0.978189
vn -0.207719 0.000000 0.978189
vn -0.207719 0.000000 0.978189
vn 0.000000 1.000000 0.000000
vn 0.000000 1.000000 0.000000
vn 0.000000 1.000000 0.000000
vn 0.000000 1.000000 0.000000
vn 0.207719 0.000000 -0.978189
vn 0.207719 0.000000 -0.978189
vn 0.207719 0.000000 -0.978189
vn 0.207719 0.000000 -0.978189
vn 0.000000 -1.000000 0.000000
vn 0.000000 -1.000000 0.000000
vn 0.000000 -1.000000 0.000000
vn 0.000000 -1.000000 0.000000
vn 0.978189 0.000000 0.207719
vn 0.978189 0.000000 0.207719
vn 0.978189 0.000000 0.207719
vn 0.978189 0.000000 0.207719
vn -0.978189 0.000000 -0.207719
vn -0.978189 0.000000 -0.207719
vn -0.978189 0.000000 -0.207719
vn -0.978189 0.000000 -0.207719
s 1
g pCube11
usemtl phong1SG
f 111/142/219 112/143/220 113/144/221
f 113/144/221 112/143/220 114/145/222
s 2
f 113/144/223 114/145/224 115/146/225
f 115/146/225 114/145/224 116/147/226
s 3
f 115/146/227 116/147/228 117/148/229
f 117/148/229 116/147/228 118/149/230
s 4
f 117/148/231 118/149/232 111/150/233
f 111/150/233 118/149/232 112/151/234
s 5
f 112/143/235 118/152/236 114/145/237
f 114/145/237 118/152/236 116/153/238
s 6
f 117/154/239 111/142/240 115/155/241
f 115/155/241 111/142/240 113/144/242
g default
v -1.295657 -0.101331 -2.638747
v -0.978592 -0.101331 -2.571418
v -1.295657 4.344226 -2.638747
v -0.978592 4.344226 -2.571418
v -1.228328 4.344226 -2.955813
v -0.911263 4.344226 -2.888484
v -1.228328 -0.101331 -2.955813
v -0.911263 -0.101331 -2.888484
vt 0.375000 0.000000
vt 0.625000 0.000000
vt 0.375000 0.250000
vt 0.625000 0.250000
vt 0.375000 0.500000
vt 0.625000 0.500000
vt 0.375000 0.750000
vt 0.625000 0.750000
vt 0.375000 1.000000
vt 0.625000 1.000000
vt 0.875000 0.000000
vt 0.875000 0.250000
vt 0.125000 0.000000
vt 0.125000 0.250000
vn -0.207719 0.000000 0.978189
vn -0.207719 0.000000 0.978189
vn -0.207719 0.000000 0.978189
vn -0.207719 0.000000 0.978189
vn 0.000000 1.000000 0.000000
vn 0.000000 1.000000 0.000000
vn 0.000000 1.000000 0.000000
vn 0.000000 1.000000 0.000000
vn 0.207719 0.000000 -0.978189
vn 0.207719 0.000000 -0.978189
vn 0.207719 0.000000 -0.978189
vn 0.207719 0.000000 -0.978189
vn 0.000000 -1.000000 0.000000
vn 0.000000 -1.000000 0.000000
vn 0.000000 -1.000000 0.000000
vn 0.000000 -1.000000 0.000000
vn 0.978189 0.000000 0.207719
vn 0.978189 0.000000 0.207719
vn 0.978189 0.000000 0.207719
vn 0.978189 0.000000 0.207719
vn -0.978189 0.000000 -0.207719
vn -0.978189 0.000000 -0.207719
vn -0.978189 0.000000 -0.207719
vn -0.978189 0.000000 -0.207719
s 1
g pCube10
usemtl phong1SG
f 119/156/243 120/157/244 121/158/245
f 121/158/245 120/157/244 122/159/246
s 2
f 121/158/247 122/159/248 123/160/249
f 123/160/249 122/159/248 124/161/250
s 3
f 123/160/251 124/161/252 125/162/253
f 125/162/253 124/161/252 126/163/254
s 4
f 125/162/255 126/163/256 119/164/257
f 119/164/257 126/163/256 120/165/258
s 5
f 120/157/259 126/166/260 122/159/261
f 122/159/261 126/166/260 124/167/262
s 6
f 125/168/263 119/156/264 123/169/265
f 123/169/265 119/156/264 121/158/266
g default
v -7.157428 -0.101331 -4.380500
v -6.833293 -0.101331 -4.380500
v -7.157428 4.344226 -4.380500
v -6.833293 4.344226 -4.380500
v -7.157428 4.344226 -4.704635
v -6.833293 4.344226 -4.704635
v -7.157428 -0.101331 -4.704635
v -6.833293 -0.101331 -4.704635
vt 0.375000 0.000000
vt 0.625000 0.000000
vt 0.375000 0.250000
vt 0.625000 0.250000
vt 0.375000 0.500000
vt 0.625000 0.500000
vt 0.375000 0.750000
vt 0.625000 0.750000
vt 0.375000 1.000000
vt 0.625000 1.000000
vt 0.875000 0.000000
vt 0.875000 0.250000
vt 0.125000 0.000000
vt 0.125000 0.250000
vn 0.000000 0.000000 1.000000
vn 0.000000 0.000000 1.000000
vn 0.000000 0.000000 1.000000
vn 0.000000 0.000000 1.000000
vn 0.000000 1.000000 0.000000
vn 0.000000 1.000000 0.000000
vn 0.000000 1.000000 0.000000
vn 0.000000 1.000000 0.000000
vn 0.000000 0.000000 -1.000000
vn 0.000000 0.000000 -1.000000
vn 0.000000 0.000000 -1.000000
vn 0.000000 0.000000 -1.000000
vn 0.000000 -1.000000 0.000000
vn 0.000000 -1.000000 0.000000
vn 0.000000 -1.000000 0.000000
vn 0.000000 -1.000000 0.000000
vn 1.000000 0.000000 0.000000
vn 1.000000 0.000000 0.000000
vn 1.000000 0.000000 0.000000
vn 1.000000 0.000000 0.000000
vn -1.000000 0.000000 0.000000
vn -1.000000 0.000000 0.000000
vn -1.000000 0.000000 0.000000
vn -1.000000 0.000000 0.000000
s 1
g pCube5
usemtl phong1SG
f 127/170/267 128/171/268 129/172/269
f 129/172/269 128/171/268 130/173/270
s 2
f 129/172/271 130/173/272 131/174/273
f 131/174/273 130/173/272 132/175/274
s 3
f 131/174/275 132/175/276 133/176/277
f 133/176/277 132/175/276 134/177/278
s 4
f 133/176/279 134/177/280 127/178/281
f 127/178/281 134/177/280 128/179/282
s 5
f 128/171/283 134/180/284 130/173/285
f 130/173/285 134/180/284 132/181/286
s 6
f 133/182/287 127/170/288 131/183/289
f 131/183/289 127/170/288 129/172/290
g default
v -10.349307 4.000792 -4.174878
v -9.669355 4.000792 -4.265341
v -8.314165 4.000792 -4.390970
v -7.020337 4.000792 -4.437397
v -5.792651 4.000792 -4.389696
v -4.635264 4.000792 -4.237550
v -3.552304 4.000792 -3.974954
v -2.548422 4.000792 -3.599497
v -1.628824 4.000792 -3.111837
v -0.799213 4.000792 -2.515029
v -0.065591 4.000792 -1.813964
v 0.566011 4.000792 -1.014913
v 1.089868 4.000792 -0.125199
v 1.500966 4.000792 0.847051
v 1.795558 4.000792 1.893110
v 1.971852 4.000792 3.003912
v 2.030916 4.000792 4.170337
v 1.977537 4.000792 5.383712
v 1.821368 4.000792 6.636164
v 1.546456 4.000792 7.916492
v 1.260285 4.000792 8.913428
v -10.349307 4.237577 -4.174878
v -9.669355 4.237577 -4.265341
v -8.314165 4.237577 -4.390970
v -7.020337 4.237577 -4.437397
v -5.792651 4.237577 -4.389696
v -4.635264 4.237577 -4.237550
v -3.552304 4.237577 -3.974954
v -2.548422 4.237577 -3.599497
v -1.628824 4.237577 -3.111837
v -0.799213 4.237577 -2.515029
v -0.065591 4.237577 -1.813964
v 0.566011 4.237577 -1.014913
v 1.089868 4.237577 -0.125199
v 1.500966 4.237577 0.847051
v 1.795558 4.237577 1.893110
v 1.971852 4.237577 3.003912
v 2.030916 4.237577 4.170337
v 1.977537 4.237577 5.383712
v 1.821368 4.237577 6.636164
v 1.546456 4.237577 7.916492
v 1.260285 4.237577 8.913428
v -10.393156 4.237577 -4.338682
v -9.543422 4.237577 -4.437216
v -8.192297 4.237577 -4.559135
v -6.903348 4.237577 -4.598839
v -5.678268 4.237577 -4.545825
v -4.522377 4.237577 -4.388381
v -3.439894 4.237577 -4.120650
v -2.435530 4.237577 -3.740394
v -1.514563 4.237577 -3.248365
v -0.682840 4.237577 -2.647566
v 0.053715 4.237577 -1.943007
v 0.689290 4.237577 -1.141155
v 1.217972 4.237577 -0.249050
v 1.634656 4.237577 0.725324
v 1.935660 4.237577 1.773194
v 2.119113 4.237577 2.885519
v 2.185899 4.237577 4.053186
v 2.140605 4.237577 5.267422
v 1.992513 4.237577 6.520267
v 1.756466 4.237577 7.804972
v 1.478844 4.237577 8.898655
v -10.393156 4.000792 -4.338682
v -9.543422 4.000792 -4.437216
v -8.192297 4.000792 -4.559135
v -6.903348 4.000792 -4.598839
v -5.678268 4.000792 -4.545825
v -4.522377 4.000792 -4.388381
v -3.439894 4.000792 -4.120650
v -2.435530 4.000792 -3.740394
v -1.514563 4.000792 -3.248365
v -0.682840 4.000792 -2.647566
v 0.053715 4.000792 -1.943007
v 0.689290 4.000792 -1.141155
v 1.217972 4.000792 -0.249050
v 1.634656 4.000792 0.725324
v 1.935660 4.000792 1.773194
v 2.119113 4.000792 2.885519
v 2.185899 4.000792 4.053186
v 2.140605 4.000792 5.267422
v 1.992513 4.000792 6.520267
v 1.756466 4.000792 7.804972
v 1.478844 4.000792 8.898655
vt 0.375000 0.000000
vt 0.387500 0.000000
vt 0.400000 0.000000
vt 0.412500 0.000000
vt 0.425000 0.000000
vt 0.437500 0.000000
vt 0.450000 0.000000
vt 0.462500 0.000000
vt 0.475000 0.000000
vt 0.487500 0.000000
vt 0.500000 0.000000
vt 0.512500 0.000000
vt 0.525000 0.000000
vt 0.537500 0.000000
vt 0.550000 0.000000
vt 0.562500 0.000000
vt 0.575000 0.000000
vt 0.587500 0.000000
vt 0.600000 0.000000
vt 0.612500 0.000000
vt 0.625000 0.000000
vt 0.375000 0.250000
vt 0.387500 0.250000
vt 0.400000 0.250000
vt 0.412500 0.250000
vt 0.425000 0.250000
vt 0.437500 0.250000
vt 0.450000 0.250000
vt 0.462500 0.250000
vt 0.475000 0.250000
vt 0.487500 0.250000
vt 0.500000 0.250000
vt 0.512500 0.250000
vt 0.525000 0.250000
vt 0.537500 0.250000
vt 0.550000 0.250000
vt 0.562500 0.250000
vt 0.575000 0.250000
vt 0.587500 0.250000
vt 0.600000 0.250000
vt 0.612500 0.250000
vt 0.625000 0.250000
vt 0.375000 0.500000
vt 0.387500 0.500000
vt 0.400000 0.500000
vt 0.412500 0.500000
vt 0.425000 0.500000
vt 0.437500 0.500000
vt 0.450000 0.500000
vt 0.462500 0.500000
vt 0.475000 0.500000
vt 0.487500 0.500000
vt 0.500000 0.500000
vt 0.512500 0.500000
vt 0.525000 0.500000
vt 0.537500 0.500000
vt 0.550000 0.500000
vt 0.562500 0.500000
vt 0.575000 0.500000
vt 0.587500 0.500000
vt 0.600000 0.500000
vt 0.612500 0.500000
vt 0.625000 0.500000
vt 0.375000 0.750000
vt 0.387500 0.750000
vt 0.400000 0.750000
vt 0.412500 0.750000
vt 0.425000 0.750000
vt 0.437500 0.750000
vt 0.450000 0.750000
vt 0.462500 0.750000
vt 0.475000 0.750000
vt 0.487500 0.750000
vt 0.500000 0.750000
vt 0.512500 0.750000
vt 0.525000 0.750000
vt 0.537500 0.750000
vt 0.550000 0.750000
vt 0.562500 0.750000
vt 0.575000 0.750000
vt 0.587500 0.750000
vt 0.600000 0.750000
vt 0.612500 0.750000
vt 0.625000 0.750000
vt 0.375000 1.000000
vt 0.387500 1.000000
vt 0.400000 1.000000
vt 0.412500 1.000000
vt 0.425000 1.000000
vt 0.437500 1.000000
vt 0.450000 1.000000
vt 0.462500 1.000000
vt 0.475000 1.000000
vt 0.487500 1.000000
vt 0.500000 1.000000
vt 0.512500 1.000000
vt 0.525000 1.000000
vt 0.537500 1.000000
vt 0.550000 1.000000
vt 0.562500 1.000000
vt 0.575000 1.000000
vt 0.587500 1.000000
vt 0.600000 1.000000
vt 0.612500 1.000000
vt 0.625000 1.000000
vt 0.875000 0.000000
vt 0.875000 0.250000
vt 0.125000 0.000000
vt 0.125000 0.250000
vn 0.131882 0.000000 0.991265
vn 0.105587 0.000000 0.994410
vn 0.131882 0.000000 0.991265
vn 0.105587 0.000000 0.994410
vn 0.064814 0.000000 0.997897
vn 0.064814 0.000000 0.997897
vn -0.000505 0.000000 1.000000
vn -0.000505 0.000000 1.000000
vn -0.083498 0.000000 0.996508
vn -0.083498 0.000000 0.996508
vn -0.182031 0.000000 0.983293
vn -0.182031 0.000000 0.983293
vn -0.292389 0.000000 0.956299
vn -0.292389 0.000000 0.956299
vn -0.409398 0.000000 0.912356
vn -0.409398 0.000000 0.912356
vn -0.526925 0.000000 0.849912
vn -0.526926 0.000000 0.849911
vn -0.638782 0.000000 0.769388
vn -0.638783 0.000000 0.769387
vn -0.739576 0.000000 0.673073
vn -0.739577 0.000000 0.673072
vn -0.825310 0.000000 0.564679
vn -0.825310 0.000000 0.564680
vn -0.893663 0.000000 0.448739
vn -0.893663 0.000000 0.448739
vn -0.943963 0.000000 0.330051
vn -0.943963 0.000000 0.330050
vn -0.976988 0.000000 0.213295
vn -0.976988 0.000000 0.213296
vn -0.994702 0.000000 0.102805
vn -0.994701 0.000000 0.102806
vn -0.999997 0.000000 0.002389
vn -0.999997 0.000000 0.002389
vn -0.996409 0.000000 -0.084676
vn -0.996409 0.000000 -0.084676
vn -0.985823 0.000000 -0.167788
vn -0.985823 0.000000 -0.167788
vn -0.970963 0.000000 -0.239230
vn -0.970963 0.000000 -0.239230
vn -0.961184 0.000000 -0.275908
vn -0.961184 0.000000 -0.275907
vn 0.000000 1.000000 0.000000
vn 0.000000 1.000000 0.000000
vn 0.000000 1.000000 0.000000
vn 0.000000 1.000000 0.000000
vn 0.000000 1.000000 0.000000
vn 0.000000 1.000000 0.000000
vn 0.000000 1.000000 0.000000
vn 0.000000 1.000000 0.000000
vn 0.000000 1.000000 0.000000
vn 0.000000 1.000000 0.000000
vn 0.000000 1.000000 0.000000
vn 0.000000 1.000000 0.000000
vn 0.000000 1.000000 0.000000
vn 0.000000 1.000000 0.000000
vn 0.000000 1.000000 0.000000
vn 0.000000 1.000000 0.000000
vn 0.000000 1.000000 0.000000
vn 0.000000 1.000000 0.000000
vn 0.000000 1.000000 0.000000
vn 0.000000 1.000000 0.000000
vn 0.000000 1.000000 0.000000
vn 0.000000 1.000000 0.000000
vn 0.000000 1.000000 0.000000
vn 0.000000 1.000000 0.000000
vn 0.000000 1.000000 0.000000
vn 0.000000 1.000000 0.000000
vn 0.000000 1.000000 0.000000
vn 0.000000 1.000000 0.000000
vn 0.000000 1.000000 0.000000
vn 0.000000 1.000000 0.000000
vn 0.000000 1.000000 0.000000
vn 0.000000 1.000000 0.000000
vn 0.000000 1.000000 0.000000
vn 0.000000 1.000000 0.000000
vn 0.000000 1.000000 0.000000
vn 0.000000 1.000000 0.000000
vn 0.000000 1.000000 0.000000
vn 0.000000 1.000000 0.000000
vn 0.000000 1.000000 0.000000
vn 0.000000 1.000000 0.000000
vn 0.000000 1.000000 0.000000
vn 0.000000 1.000000 0.000000
vn -0.115188 0.000000 -0.993344
vn -0.099668 0.000000 -0.995021
vn -0.115188 0.000000 -0.993344
vn -0.099668 0.000000 -0.995021
vn -0.061105 0.000000 -0.998131
vn -0.061105 0.000000 -0.998131
vn 0.005294 0.000000 -0.999986
vn 0.005294 0.000000 -0.999986
vn 0.088049 0.000000 -0.996116
vn 0.088049 0.000000 -0.996116
vn 0.186611 0.000000 -0.982434
vn 0.186611 0.000000 -0.982434
vn 0.296543 0.000000 -0.955019
vn 0.296543 0.000000 -0.955019
vn 0.412678 0.000000 -0.910877
vn 0.412679 0.000000 -0.910877
vn 0.529093 0.000000 -0.848564
vn 0.529093 0.000000 -0.848564
vn 0.639739 0.000000 -0.768593
vn 0.639739 0.000000 -0.768592
vn 0.739289 0.000000 -0.673388
vn 0.739289 0.000000 -0.673388
vn 0.824119 0.000000 -0.566417
vn 0.824118 0.000000 -0.566418
vn 0.892097 0.000000 -0.451844
vn 0.892097 0.000000 -0.451844
vn 0.942411 0.000000 -0.334458
vn 0.942410 0.000000 -0.334459
vn 0.975763 0.000000 -0.218830
vn 0.975763 0.000000 -0.218831
vn 0.994031 0.000000 -0.109099
vn 0.994031 0.000000 -0.109099
vn 0.999959 0.000000 -0.009022
vn 0.999959 0.000000 -0.009022
vn 0.996942 0.000000 0.078147
vn 0.996942 0.000000 0.078147
vn 0.988735 0.000000 0.149676
vn 0.988735 0.000000 0.149676
vn 0.977463 0.000000 0.211106
vn 0.977463 0.000000 0.211106
vn 0.969260 0.000000 0.246038
vn 0.969260 0.000000 0.246038
vn 0.000000 -1.000000 0.000000
vn 0.000000 -1.000000 0.000000
vn 0.000000 -1.000000 0.000000
vn 0.000000 -1.000000 0.000000
vn 0.000000 -1.000000 0.000000
vn 0.000000 -1.000000 0.000000
vn 0.000000 -1.000000 0.000000
vn 0.000000 -1.000000 0.000000
vn 0.000000 -1.000000 0.000000
vn 0.000000 -1.000000 0.000000
vn 0.000000 -1.000000 0.000000
vn 0.000000 -1.000000 0.000000
vn 0.000000 -1.000000 0.000000
vn 0.000000 -1.000000 0.000000
vn 0.000000 -1.000000 0.000000
vn 0.000000 -1.000000 0.000000
vn 0.000000 -1.000000 0.000000
vn 0.000000 -1.000000 0.000000
vn 0.000000 -1.000000 0.000000
vn 0.000000 -1.000000 0.000000
vn 0.000000 -1.000000 0.000000
vn 0.000000 -1.000000 0.000000
vn 0.000000 -1.000000 0.000000
vn 0.000000 -1.000000 0.000000
vn 0.000000 -1.000000 0.000000
vn 0.000000 -1.000000 0.000000
vn 0.000000 -1.000000 0.000000
vn 0.000000 -1.000000 0.000000
vn 0.000000 -1.000000 0.000000
vn 0.000000 -1.000000 0.000000
vn 0.000000 -1.000000 0.000000
vn 0.000000 -1.000000 0.000000
vn 0.000000 -1.000000 0.000000
vn 0.000000 -1.000000 0.000000
vn 0.000000 -1.000000 0.000000
vn 0.000000 -1.000000 0.000000
vn 0.000000 -1.000000 0.000000
vn 0.000000 -1.000000 0.000000
vn 0.000000 -1.000000 0.000000
vn 0.000000 -1.000000 0.000000
vn 0.000000 -1.000000 0.000000
vn 0.000000 -1.000000 0.000000
vn 0.067441 0.000000 0.997723
vn 0.067439 0.000000 0.997723
vn 0.067438 0.000000 0.997723
vn 0.067436 0.000000 0.997724
vn -0.965988 0.000000 0.258585
vn -0.965988 0.000000 0.258587
vn -0.965986 0.000000 0.258593
vn -0.965986 0.000000 0.258594
s 1
g pCube3
usemtl phong1SG
f 135/184/291 136/185/292 156/205/293
f 156/205/293 136/185/292 157/206/294
f 136/185/292 137/186/295 157/206/294
f 157/206/294 137/186/295 158/207/296
f 137/186/295 138/187/297 158/207/296
f 158/207/296 138/187/297 159/208/298
f 138/187/297 139/188/299 159/208/298
f 159/208/298 139/188/299 160/209/300
f 139/188/299 140/189/301 160/209/300
f 160/209/300 140/189/301 161/210/302
f 140/189/301 141/190/303 161/210/302
f 161/210/302 141/190/303 162/211/304
f 141/190/303 142/191/305 162/211/304
f 162/211/304 142/191/305 163/212/306
f 142/191/305 143/192/307 163/212/306
f 163/212/306 143/192/307 164/213/308
f 143/192/307 144/193/309 164/213/308
f 164/213/308 144/193/309 165/214/310
f 144/193/309 145/194/311 165/214/310
f 165/214/310 145/194/311 166/215/312
f 145/194/311 146/195/313 166/215/312
f 166/215/312 146/195/313 167/216/314
f 146/195/313 147/196/315 167/216/314
f 167/216/314 147/196/315 168/217/316
f 147/196/315 148/197/317 168/217/316
f 168/217/316 148/197/317 169/218/318
f 148/197/317 149/198/319 169/218/318
f 169/218/318 149/198/319 170/219/320
f 149/198/319 150/199/321 170/219/320
f 170/219/320 150/199/321 171/220/322
f 150/199/321 151/200/323 171/220/322
f 171/220/322 151/200/323 172/221/324
f 151/200/323 152/201/325 172/221/324
f 172/221/324 152/201/325 173/222/326
f 152/201/325 153/202/327 173/222/326
f 173/222/326 153/202/327 174/223/328
f 153/202/327 154/203/329 174/223/328
f 174/223/328 154/203/329 175/224/330
f 154/203/329 155/204/331 175/224/330
f 175/224/330 155/204/331 176/225/332
s 2
f 156/205/333 157/206/334 177/226/335
f 177/226/335 157/206/334 178/227/336
f 157/206/334 158/207/337 178/227/336
f 178/227/336 158/207/337 179/228/338
f 158/207/337 159/208/339 179/228/338
f 179/228/338 159/208/339 180/229/340
f 159/208/339 160/209/341 180/229/340
f 180/229/340 160/209/341 181/230/342
f 160/209/341 161/210/343 181/230/342
f 181/230/342 161/210/343 182/231/344
f 161/210/343 162/211/345 182/231/344
f 182/231/344 162/211/345 183/232/346
f 162/211/345 163/212/347 183/232/346
f 183/232/346 163/212/347 184/233/348
f 163/212/347 164/213/349 184/233/348
f 184/233/348 164/213/349 185/234/350
f 164/213/349 165/214/351 185/234/350
f 185/234/350 165/214/351 186/235/352
f 165/214/351 166/215/353 186/235/352
f 186/235/352 166/215/353 187/236/354
f 167/216/355 188/237/356 166/215/353
f 166/215/353 188/237/356 187/236/354
f 168/217/357 189/238/358 167/216/355
f 167/216/355 189/238/358 188/237/356
f 169/218/359 190/239/360 168/217/357
f 168/217/357 190/239/360 189/238/358
f 170/219/361 191/240/362 169/218/359
f 169/218/359 191/240/362 190/239/360
f 171/220/363 192/241/364 170/219/361
f 170/219/361 192/241/364 191/240/362
f 172/221/365 193/242/366 171/220/363
f 171/220/363 193/242/366 192/241/364
f 173/222/367 194/243/368 172/221/365
f 172/221/365 194/243/368 193/242/366
f 174/223/369 195/244/370 173/222/367
f 173/222/367 195/244/370 194/243/368
f 175/224/371 196/245/372 174/223/369
f 174/223/369 196/245/372 195/244/370
f 176/225/373 197/246/374 175/224/371
f 175/224/371 197/246/374 196/245/372
s 12
f 177/226/375 178/227/376 198/247/377
f 198/247/377 178/227/376 199/248/378
f 178/227/376 179/228/379 199/248/378
f 199/248/378 179/228/379 200/249/380
f 179/228/379 180/229/381 200/249/380
f 200/249/380 180/229/381 201/250/382
f 180/229/381 181/230/383 201/250/382
f 201/250/382 181/230/383 202/251/384
f 181/230/383 182/231/385 202/251/384
f 202/251/384 182/231/385 203/252/386
f 182/231/385 183/232/387 203/252/386
f 203/252/386 183/232/387 204/253/388
f 183/232/387 184/233/389 204/253/388
f 204/253/388 184/233/389 205/254/390
f 184/233/389 185/234/391 205/254/390
f 205/254/390 185/234/391 206/255/392
f 185/234/391 186/235/393 206/255/392
f 206/255/392 186/235/393 207/256/394
f 186/235/393 187/236/395 207/256/394
f 207/256/394 187/236/395 208/257/396
f 187/236/395 188/237/397 208/257/396
f 208/257/396 188/237/397 209/258/398
f 188/237/397 189/238/399 209/258/398
f 209/258/398 189/238/399 210/259/400
f 189/238/399 190/239/401 210/259/400
f 210/259/400 190/239/401 211/260/402
f 190/239/401 191/240/403 211/260/402
f 211/260/402 191/240/403 212/261/404
f 191/240/403 192/241/405 212/261/404
f 212/261/404 192/241/405 213/262/406
f 192/241/405 193/242/407 213/262/406
f 213/262/406 193/242/407 214/263/408
f 193/242/407 194/243/409 214/263/408
f 214/263/408 194/243/409 215/264/410
f 194/243/409 195/244/411 215/264/410
f 215/264/410 195/244/411 216/265/412
f 195/244/411 196/245/413 216/265/412
f 216/265/412 196/245/413 217/266/414
f 196/245/413 197/246/415 217/266/414
f 217/266/414 197/246/415 218/267/416
s 13
f 199/248/417 136/269/418 198/247/419
f 198/247/419 136/269/418 135/268/420
f 200/249/421 137/270/422 199/248/417
f 199/248/417 137/270/422 136/269/418
f 201/250/423 138/271/424 200/249/421
f 200/249/421 138/271/424 137/270/422
f 202/251/425 139/272/426 201/250/423
f 201/250/423 139/272/426 138/271/424
f 203/252/427 140/273/428 202/251/425
f 202/251/425 140/273/428 139/272/426
f 204/253/429 141/274/430 203/252/427
f 203/252/427 141/274/430 140/273/428
f 205/254/431 142/275/432 204/253/429
f 204/253/429 142/275/432 141/274/430
f 206/255/433 143/276/434 205/254/431
f 205/254/431 143/276/434 142/275/432
f 207/256/435 144/277/436 206/255/433
f 206/255/433 144/277/436 143/276/434
f 208/257/437 145/278/438 207/256/435
f 207/256/435 145/278/438 144/277/436
f 208/257/437 209/258/439 145/278/438
f 145/278/438 209/258/439 146/279/440
f 209/258/439 210/259/441 146/279/440
f 146/279/440 210/259/441 147/280/442
f 210/259/441 211/260/443 147/280/442
f 147/280/442 211/260/443 148/281/444
f 211/260/443 212/261/445 148/281/444
f 148/281/444 212/261/445 149/282/446
f 212/261/445 213/262/447 149/282/446
f 149/282/446 213/262/447 150/283/448
f 213/262/447 214/263/449 150/283/448
f 150/283/448 214/263/449 151/284/450
f 214/263/449 215/264/451 151/284/450
f 151/284/450 215/264/451 152/285/452
f 215/264/451 216/265/453 152/285/452
f 152/285/452 216/265/453 153/286/454
f 216/265/453 217/266/455 153/286/454
f 153/286/454 217/266/455 154/287/456
f 217/266/455 218/267/457 154/287/456
f 154/287/456 218/267/457 155/288/458
s 23
f 155/204/459 218/289/460 176/225/461
f 176/225/461 218/289/460 197/290/462
s 24
f 198/291/463 135/184/464 177/292/465
f 177/292/465 135/184/464 156/205/466
g default
v -10.528737 -0.101331 -7.450895
v -10.204602 -0.101331 -7.450895
v -10.528737 4.344226 -7.450895
v -10.204602 4.344226 -7.450895
v -10.528737 4.344226 -7.775030
v -10.204602 4.344226 -7.775030
v -10.528737 -0.101331 -7.775030
v -10.204602 -0.101331 -7.775030
vt 0.375000 0.000000
vt 0.625000 0.000000
vt 0.375000 0.250000
vt 0.625000 0.250000
vt 0.375000 0.500000
vt 0.625000 0.500000
vt 0.375000 0.750000
vt 0.625000 0.750000
vt 0.375000 1.000000
vt 0.625000 1.000000
vt 0.875000 0.000000
vt 0.875000 0.250000
vt 0.125000 0.000000
vt 0.125000 0.250000
vn 0.000000 0.000000 1.000000
vn 0.000000 0.000000 1.000000
vn 0.000000 0.000000 1.000000
vn 0.000000 0.000000 1.000000
vn 0.000000 1.000000 0.000000
vn 0.000000 1.000000 0.000000
vn 0.000000 1.000000 0.000000
vn 0.000000 1.000000 0.000000
vn 0.000000 0.000000 -1.000000
vn 0.000000 0.000000 -1.000000
vn 0.000000 0.000000 -1.000000
vn 0.000000 0.000000 -1.000000
vn 0.000000 -1.000000 0.000000
vn 0.000000 -1.000000 0.000000
vn 0.000000 -1.000000 0.000000
vn 0.000000 -1.000000 0.000000
vn 1.000000 0.000000 0.000000
vn 1.000000 0.000000 0.000000
vn 1.000000 0.000000 0.000000
vn 1.000000 0.000000 0.000000
vn -1.000000 0.000000 0.000000
vn -1.000000 0.000000 0.000000
vn -1.000000 0.000000 0.000000
vn -1.000000 0.000000 0.000000
s 1
g pCube4
usemtl phong1SG
f 219/293/467 220/294/468 221/295/469
f 221/295/469 220/294/468 222/296/470
s 2
f 221/295/471 222/296/472 223/297/473
f 223/297/473 222/296/472 224/298/474
s 3
f 223/297/475 224/298/476 225/299/477
f 225/299/477 224/298/476 226/300/478
s 4
f 225/299/479 226/300/480 219/301/481
f 219/301/481 226/300/480 220/302/482
s 5
f 220/294/483 226/303/484 222/296/485
f 222/296/485 226/303/484 224/304/486
s 6
f 225/305/487 219/293/488 223/306/489
f 223/306/489 219/293/488 221/295/490
g default
v -3.581985 4.073002 -7.546005
v -3.348125 4.073002 -7.523887
v -3.902193 4.073002 -4.160498
v -3.668334 4.073002 -4.138379
v -3.902193 4.307905 -4.160498
v -3.668334 4.307905 -4.138379
v -3.581985 4.307905 -7.546005
v -3.348125 4.307905 -7.523887
vt 0.375000 0.000000
vt 0.625000 0.000000
vt 0.375000 0.250000
vt 0.625000 0.250000
vt 0.375000 0.500000
vt 0.625000 0.500000
vt 0.375000 0.750000
vt 0.625000 0.750000
vt 0.375000 1.000000
vt 0.625000 1.000000
vt 0.875000 0.000000
vt 0.875000 0.250000
vt 0.125000 0.000000
vt 0.125000 0.250000
vn -0.000000 -1.000000 0.000000
vn -0.000000 -1.000000 0.000000
vn -0.000000 -1.000000 0.000000
vn -0.000000 -1.000000 0.000000
vn -0.094162 0.000000 0.995557
vn -0.094162 0.000000 0.995557
vn -0.094162 0.000000 0.995557
vn -0.094162 0.000000 0.995557
vn 0.000000 1.000000 -0.000000
vn 0.000000 1.000000 -0.000000
vn 0.000000 1.000000 -0.000000
vn 0.000000 1.000000 -0.000000
vn 0.094162 -0.000000 -0.995557
vn 0.094162 -0.000000 -0.995557
vn 0.094162 -0.000000 -0.995557
vn 0.094162 -0.000000 -0.995557
vn 0.995557 0.000000 0.094162
vn 0.995557 0.000000 0.094162
vn 0.995557 0.000000 0.094162
vn 0.995557 0.000000 0.094162
vn -0.995557 -0.000000 -0.094162
vn -0.995557 -0.000000 -0.094162
vn -0.995557 -0.000000 -0.094162
vn -0.995557 -0.000000 -0.094162
s 1
g pCube21
usemtl phong1SG
f 227/307/491 228/308/492 229/309/493
f 229/309/493 228/308/492 230/310/494
s 2
f 229/309/495 230/310/496 231/311/497
f 231/311/497 230/310/496 232/312/498
s 3
f 231/311/499 232/312/500 233/313/501
f 233/313/501 232/312/500 234/314/502
s 4
f 233/313/503 234/314/504 227/315/505
f 227/315/505 234/314/504 228/316/506
s 5
f 228/308/507 234/317/508 230/310/509
f 230/310/509 234/317/508 232/318/510
s 6
f 233/319/511 227/307/512 231/320/513
f 231/320/513 227/307/512 229/309/514
g default
v -7.109273 4.073002 -7.824886
v -6.874371 4.073002 -7.825727
v -7.097726 4.073002 -4.603174
v -6.862825 4.073002 -4.604016
v -7.097726 4.307905 -4.603174
v -6.862825 4.307905 -4.604016
v -7.109273 4.307905 -7.824886
v -6.874371 4.307905 -7.825727
vt 0.375000 0.000000
vt 0.625000 0.000000
vt 0.375000 0.250000
vt 0.625000 0.250000
vt 0.375000 0.500000
vt 0.625000 0.500000
vt 0.375000 0.750000
vt 0.625000 0.750000
vt 0.375000 1.000000
vt 0.625000 1.000000
vt 0.875000 0.000000
vt 0.875000 0.250000
vt 0.125000 0.000000
vt 0.125000 0.250000
vn 0.000000 -1.000000 0.000000
vn 0.000000 -1.000000 0.000000
vn 0.000000 -1.000000 0.000000
vn 0.000000 -1.000000 0.000000
vn 0.003584 0.000000 0.999994
vn 0.003584 0.000000 0.999994
vn 0.003584 0.000000 0.999994
vn 0.003584 0.000000 0.999994
vn -0.000000 1.000000 -0.000000
vn -0.000000 1.000000 -0.000000
vn -0.000000 1.000000 -0.000000
vn -0.000000 1.000000 -0.000000
vn -0.003584 -0.000000 -0.999994
vn -0.003584 -0.000000 -0.999994
vn -0.003584 -0.000000 -0.999994
vn -0.003584 -0.000000 -0.999994
vn 0.999994 -0.000000 -0.003584
vn 0.999994 -0.000000 -0.003584
vn 0.999994 -0.000000 -0.003584
vn 0.999994 -0.000000 -0.003584
vn -0.999994 0.000000 0.003584
vn -0.999994 0.000000 0.003584
vn -0.999994 0.000000 0.003584
vn -0.999994 0.000000 0.003584
s 1
g pCube20
usemtl phong1SG
f 235/321/515 236/322/516 237/323/517
f 237/323/517 236/322/516 238/324/518
s 2
f 237/323/519 238/324/520 239/325/521
f 239/325/521 238/324/520 240/326/522
s 3
f 239/325/523 240/326/524 241/327/525
f 241/327/525 240/326/524 242/328/526
s 4
f 241/327/527 242/328/528 235/329/529
f 235/329/529 242/328/528 236/330/530
s 5
f 236/322/531 242/331/532 238/324/533
f 238/324/533 242/331/532 240/332/534
s 6
f 241/333/535 235/321/536 239/334/537
f 239/334/537 235/321/536 237/323/538
g default
v -10.504558 4.073002 -7.493878
v -10.269686 4.073002 -7.497704
v -10.452087 4.073002 -4.272573
v -10.217215 4.073002 -4.276399
v -10.452087 4.307905 -4.272573
v -10.217215 4.307905 -4.276399
v -10.504558 4.307905 -7.493878
v -10.269686 4.307905 -7.497704
vt 0.375000 0.000000
vt 0.625000 0.000000
vt 0.375000 0.250000
vt 0.625000 0.250000
vt 0.375000 0.500000
vt 0.625000 0.500000
vt 0.375000 0.750000
vt 0.625000 0.750000
vt 0.375000 1.000000
vt 0.625000 1.000000
vt 0.875000 0.000000
vt 0.875000 0.250000
vt 0.125000 0.000000
vt 0.125000 0.250000
vn 0.000000 -1.000000 0.000000
vn 0.000000 -1.000000 0.000000
vn 0.000000 -1.000000 0.000000
vn 0.000000 -1.000000 0.000000
vn 0.016287 0.000000 0.999867
vn 0.016287 0.000000 0.999867
vn 0.016287 0.000000 0.999867
vn 0.016287 0.000000 0.999867
vn -0.000000 1.000000 -0.000000
vn -0.000000 1.000000 -0.000000
vn -0.000000 1.000000 -0.000000
vn -0.000000 1.000000 -0.000000
vn -0.016287 -0.000000 -0.999867
vn -0.016287 -0.000000 -0.999867
vn -0.016287 -0.000000 -0.999867
vn -0.016287 -0.000000 -0.999867
vn 0.999867 -0.000000 -0.016287
vn 0.999867 -0.000000 -0.016287
vn 0.999867 -0.000000 -0.016287
vn 0.999867 -0.000000 -0.016287
vn -0.999867 0.000000 0.016287
vn -0.999867 0.000000 0.016287
vn -0.999867 0.000000 0.016287
vn -0.999867 0.000000 0.016287
s 1
g pCube19
usemtl phong1SG
f 243/335/539 244/336/540 245/337/541
f 245/337/541 244/336/540 246/338/542
s 2
f 245/337/543 246/338/544 247/339/545
f 247/339/545 246/338/544 248/340/546
s 3
f 247/339/547 248/340/548 249/341/549
f 249/341/549 248/340/548 250/342/550
s 4
f 249/341/551 250/342/552 243/343/553
f 243/343/553 250/342/552 244/344/554
s 5
f 244/336/555 250/345/556 246/338/557
f 246/338/557 250/345/556 248/346/558
s 6
f 249/347/559 243/335/560 247/348/561
f 247/348/561 243/335/560 245/337/562
g default
v 1.967784 4.187062 5.776400
v 1.814435 4.007764 7.288918
v 1.507012 3.848334 8.784401
v 3.477394 4.004562 5.881265
v 3.278651 3.844937 7.302701
v 3.064366 3.685312 8.729489
v 4.992425 3.841541 5.827292
v 4.727325 3.682111 7.321836
v 4.620165 3.502813 8.833324
vt 0.000000 0.000000
vt 0.500000 0.000000
vt 1.000000 0.000000
vt 0.000000 0.500000
vt 0.500000 0.500000
vt 1.000000 0.500000
vt 0.000000 1.000000
vt 0.500000 1.000000
vt 1.000000 1.000000
vn 0.108221 0.985933 0.127373
vn 0.108800 0.986008 0.126300
vn 0.109399 0.985848 0.127023
vn 0.110140 0.985932 0.125723
vn 0.107701 0.986005 0.127255
vn 0.107674 0.986079 0.126709
vn 0.109566 0.986082 0.125052
vn 0.110543 0.986006 0.124789
vn 0.108210 0.986164 0.125586
s 1
g pPlane7
usemtl phong2SG
f 252/350/563 255/353/564 251/349/565
f 251/349/565 255/353/564 254/352/566
f 253/351/567 256/354/568 252/350/563
f 252/350/563 256/354/568 255/353/564
f 255/353/564 258/356/569 254/352/566
f 254/352/566 258/356/569 257/355/570
f 256/354/568 259/357/571 255/353/564
f 255/353/564 259/357/571 258/356/569
g default
v -0.974679 4.156659 -2.679560
v 0.109083 4.140077 -1.780278
v 1.074477 4.148864 -0.754869
v -0.119024 3.962594 -3.841928
v 0.976570 3.961488 -2.702241
v 2.134707 3.954258 -1.615715
v 0.879234 3.708559 -5.543390
v 2.199880 3.720143 -4.004306
v 3.689547 3.698547 -2.600877
vt 0.000000 0.000000
vt 0.500000 0.000000
vt 1.000000 0.000000
vt 0.000000 0.500000
vt 0.500000 0.500000
vt 1.000000 0.500000
vt 0.000000 1.000000
vt 0.500000 1.000000
vt 1.000000 1.000000
vn 0.097636 0.990192 -0.099939
vn 0.096997 0.990696 -0.095466
vn 0.097972 0.990594 -0.095522
vn 0.097483 0.990969 -0.092075
vn 0.099239 0.990001 -0.100247
vn 0.100127 0.990300 -0.096339
vn 0.098358 0.990807 -0.092885
vn 0.097257 0.991098 -0.090913
vn 0.103138 0.990193 -0.094238
s 1
g pPlane4
usemtl phong3SG
f 261/359/572 264/362/573 260/358/574
f 260/358/574 264/362/573 263/361/575
f 261/359/572 262/360/576 264/362/573
f 264/362/573 262/360/576 265/363/577
f 264/362/573 267/365/578 263/361/575
f 263/361/575 267/365/578 266/364/579
f 264/362/573 265/363/577 267/365/578
f 267/365/578 265/363/577 268/366/580
g default
v -3.827380 4.172158 -4.331299
v -2.369421 4.077245 -3.812967
v -0.977363 4.005903 -3.134436
v -3.421605 3.997362 -5.600100
v -1.905497 3.911302 -4.940732
v -0.373479 3.819551 -4.320041
v -3.065911 3.778411 -7.338255
v -1.278550 3.687047 -6.464792
v 0.595002 3.564853 -5.800856
vt 0.000000 0.000000
vt 0.500000 0.000000
vt 1.000000 0.000000
vt 0.000000 0.500000
vt 0.500000 0.500000
vt 1.000000 0.500000
vt 0.000000 1.000000
vt 0.500000 1.000000
vt 1.000000 1.000000
vn 0.101347 0.989411 -0.103894
vn 0.101347 0.989411 -0.103894
vn 0.101347 0.989411 -0.103894
vn 0.101347 0.989411 -0.103894
vn 0.101347 0.989411 -0.103894
vn 0.101347 0.989411 -0.103894
vn 0.101347 0.989411 -0.103894
vn 0.101347 0.989411 -0.103894
vn 0.101347 0.989411 -0.103894
s 1
g pPlane3
usemtl phong2SG
f 270/368/581 273/371/582 269/367/583
f 269/367/583 273/371/582 272/370/584
f 270/368/581 271/369/585 273/371/582
f 273/371/582 271/369/585 274/372/586
f 273/371/582 276/374/587 272/370/584
f 272/370/584 276/374/587 275/373/588
f 273/371/582 274/372/586 276/374/587
f 276/374/587 274/372/586 277/375/589
g default
v -6.836448 4.216988 -4.562986
v -5.294104 4.061703 -4.537275
v -3.762992 3.926107 -4.335009
v -6.650411 4.037415 -6.091627
v -5.202049 3.900338 -5.984193
v -3.753687 3.763261 -5.876759
v -6.641106 3.874569 -7.633378
v -5.109994 3.738974 -7.431111
v -3.567650 3.583688 -7.405401
vt 0.000000 0.000000
vt 0.500000 0.000000
vt 1.000000 0.000000
vt 0.000000 0.500000
vt 0.500000 0.500000
vt 1.000000 0.500000
vt 0.000000 1.000000
vt 0.500000 1.000000
vt 1.000000 1.000000
vn 0.101347 0.989411 -0.103894
vn 0.101347 0.989411 -0.103894
vn 0.101347 0.989411 -0.103894
vn 0.101347 0.989411 -0.103894
vn 0.101347 0.989411 -0.103894
vn 0.101347 0.989411 -0.103894
vn 0.101347 0.989411 -0.103894
vn 0.101347 0.989411 -0.103894
vn 0.101347 0.989411 -0.103894
s 1
g pPlane2
usemtl phong3SG
f 278/376/590 279/377/591 281/379/592
f 281/379/592 279/377/591 282/380/593
f 280/378/594 283/381/595 279/377/591
f 279/377/591 283/381/595 282/380/593
f 282/380/593 285/383/596 281/379/592
f 281/379/592 285/383/596 284/382/597
f 282/380/593 283/381/595 285/383/596
f 285/383/596 283/381/595 286/384/598
g default
v 3.667822 4.073002 -2.570921
v 3.799247 4.073002 -2.376224
v 0.752283 4.073002 -0.602861
v 0.883708 4.073002 -0.408163
v 0.752283 4.307905 -0.602861
v 0.883708 4.307905 -0.408163
v 3.667822 4.307905 -2.570921
v 3.799247 4.307905 -2.376224
vt 0.375000 0.000000
vt 0.625000 0.000000
vt 0.375000 0.250000
vt 0.625000 0.250000
vt 0.375000 0.500000
vt 0.625000 0.500000
vt 0.375000 0.750000
vt 0.625000 0.750000
vt 0.375000 1.000000
vt 0.625000 1.000000
vt 0.875000 0.000000
vt 0.875000 0.250000
vt 0.125000 0.000000
vt 0.125000 0.250000
vn 0.000000 -1.000000 -0.000000
vn 0.000000 -1.000000 -0.000000
vn 0.000000 -1.000000 -0.000000
vn 0.000000 -1.000000 -0.000000
vn -0.828839 -0.000000 0.559487
vn -0.828839 -0.000000 0.559487
vn -0.828839 -0.000000 0.559487
vn -0.828839 -0.000000 0.559487
vn -0.000000 1.000000 0.000000
vn -0.000000 1.000000 0.000000
vn -0.000000 1.000000 0.000000
vn -0.000000 1.000000 0.000000
vn 0.828839 0.000000 -0.559487
vn 0.828839 0.000000 -0.559487
vn 0.828839 0.000000 -0.559487
vn 0.828839 0.000000 -0.559487
vn 0.559487 -0.000000 0.828839
vn 0.559487 -0.000000 0.828839
vn 0.559487 -0.000000 0.828839
vn 0.559487 -0.000000 0.828839
vn -0.559487 0.000000 -0.828839
vn -0.559487 0.000000 -0.828839
vn -0.559487 0.000000 -0.828839
vn -0.559487 0.000000 -0.828839
s 1
g pCube23
usemtl phong1SG
f 287/385/599 288/386/600 289/387/601
f 289/387/601 288/386/600 290/388/602
s 2
f 289/387/603 290/388/604 291/389/605
f 291/389/605 290/388/604 292/390/606
s 3
f 291/389/607 292/390/608 293/391/609
f 293/391/609 292/390/608 294/392/610
s 4
f 293/391/611 294/392/612 287/393/613
f 287/393/613 294/392/612 288/394/614
s 5
f 288/386/615 294/395/616 290/388/617
f 290/388/617 294/395/616 292/396/618
s 6
f 293/397/619 287/385/620 291/398/621
f 291/398/621 287/385/620 289/387/622
g default
v 0.616956 4.073002 -5.723199
v 0.815893 4.073002 -5.598284
v -1.253605 4.073002 -2.744167
v -1.054668 4.073002 -2.619253
v -1.253605 4.307905 -2.744167
v -1.054668 4.307905 -2.619253
v 0.616956 4.307905 -5.723199
v 0.815893 4.307905 -5.598284
vt 0.375000 0.000000
vt 0.625000 0.000000
vt 0.375000 0.250000
vt 0.625000 0.250000
vt 0.375000 0.500000
vt 0.625000 0.500000
vt 0.375000 0.750000
vt 0.625000 0.750000
vt 0.375000 1.000000
vt 0.625000 1.000000
vt 0.875000 0.000000
vt 0.875000 0.250000
vt 0.125000 0.000000
vt 0.125000 0.250000
vn -0.000000 -1.000000 0.000000
vn -0.000000 -1.000000 0.000000
vn -0.000000 -1.000000 0.000000
vn -0.000000 -1.000000 0.000000
vn -0.531770 0.000000 0.846889
vn -0.531770 0.000000 0.846889
vn -0.531770 0.000000 0.846889
vn -0.531770 0.000000 0.846889
vn 0.000000 1.000000 -0.000000
vn 0.000000 1.000000 -0.000000
vn 0.000000 1.000000 -0.000000
vn 0.000000 1.000000 -0.000000
vn 0.531770 -0.000000 -0.846889
vn 0.531770 -0.000000 -0.846889
vn 0.531770 -0.000000 -0.846889
vn 0.531770 -0.000000 -0.846889
vn 0.846889 0.000000 0.531770
vn 0.846889 0.000000 0.531770
vn 0.846889 0.000000 0.531770
vn 0.846889 0.000000 0.531770
vn -0.846889 -0.000000 -0.531770
vn -0.846889 -0.000000 -0.531770
vn -0.846889 -0.000000 -0.531770
vn -0.846889 -0.000000 -0.531770
s 1
g pCube22
usemtl phong1SG
f 295/399/623 296/400/624 297/401/625
f 297/401/625 296/400/624 298/402/626
s 2
f 297/401/627 298/402/628 299/403/629
f 299/403/629 298/402/628 300/404/630
s 3
f 299/403/631 300/404/632 301/405/633
f 301/405/633 300/404/632 302/406/634
s 4
f 301/405/635 302/406/636 295/407/637
f 295/407/637 302/406/636 296/408/638
s 5
f 296/400/639 302/409/640 298/402/641
f 298/402/641 302/409/640 300/410/642
s 6
f 301/411/643 295/399/644 299/412/645
f 299/412/645 295/399/644 297/401/646
g default
v 1.111363 -0.101331 8.989176
v 1.428428 -0.101331 9.056505
v 1.111363 4.344226 8.989176
v 1.428428 4.344226 9.056505
v 1.178692 4.344226 8.672111
v 1.495757 4.344226 8.739440
v 1.178692 -0.101331 8.672111
v 1.495757 -0.101331 8.739440
vt 0.375000 0.000000
vt 0.625000 0.000000
vt 0.375000 0.250000
vt 0.625000 0.250000
vt 0.375000 0.500000
vt 0.625000 0.500000
vt 0.375000 0.750000
vt 0.625000 0.750000
vt 0.375000 1.000000
vt 0.625000 1.000000
vt 0.875000 0.000000
vt 0.875000 0.250000
vt 0.125000 0.000000
vt 0.125000 0.250000
vn -0.207719 0.000000 0.978189
vn -0.207719 0.000000 0.978189
vn -0.207719 0.000000 0.978189
vn -0.207719 0.000000 0.978189
vn 0.000000 1.000000 0.000000
vn 0.000000 1.000000 0.000000
vn 0.000000 1.000000 0.000000
vn 0.000000 1.000000 0.000000
vn 0.207719 0.000000 -0.978189
vn 0.207719 0.000000 -0.978189
vn 0.207719 0.000000 -0.978189
vn 0.207719 0.000000 -0.978189
vn 0.000000 -1.000000 0.000000
vn 0.000000 -1.000000 0.000000
vn 0.000000 -1.000000 0.000000
vn 0.000000 -1.000000 0.000000
vn 0.978189 0.000000 0.207719
vn 0.978189 0.000000 0.207719
vn 0.978189 0.000000 0.207719
vn 0.978189 0.000000 0.207719
vn -0.978189 0.000000 -0.207719
vn -0.978189 0.000000 -0.207719
vn -0.978189 0.000000 -0.207719
vn -0.978189 0.000000 -0.207719
s 1
g pCube18
usemtl phong1SG
f 303/413/647 304/414/648 305/415/649
f 305/415/649 304/414/648 306/416/650
s 2
f 305/415/651 306/416/652 307/417/653
f 307/417/653 306/416/652 308/418/654
s 3
f 307/417/655 308/418/656 309/419/657
f 309/419/657 308/418/656 310/420/658
s 4
f 309/419/659 310/420/660 303/421/661
f 303/421/661 310/420/660 304/422/662
s 5
f 304/414/663 310/423/664 306/416/665
f 306/416/665 310/423/664 308/424/666
s 6
f 309/425/667 303/413/668 307/426/669
f 307/426/669 303/413/668 305/415/670
g default
v 4.492028 -0.101331 9.043044
v 4.809093 -0.101331 9.110373
v 4.492028 4.344226 9.043044
v 4.809093 4.344226 9.110373
v 4.559357 4.344226 8.725979
v 4.876422 4.344226 8.793308
v 4.559357 -0.101331 8.725979
v 4.876422 -0.101331 8.793308
vt 0.375000 0.000000
vt 0.625000 0.000000
vt 0.375000 0.250000
vt 0.625000 0.250000
vt 0.375000 0.500000
vt 0.625000 0.500000
vt 0.375000 0.750000
vt 0.625000 0.750000
vt 0.375000 1.000000
vt 0.625000 1.000000
vt 0.875000 0.000000
vt 0.875000 0.250000
vt 0.125000 0.000000
vt 0.125000 0.250000
vn -0.207719 0.000000 0.978189
vn -0.207719 0.000000 0.978189
vn -0.207719 0.000000 0.978189
vn -0.207719 0.000000 0.978189
vn 0.000000 1.000000 0.000000
vn 0.000000 1.000000 0.000000
vn 0.000000 1.000000 0.000000
vn 0.000000 1.000000 0.000000
vn 0.207719 0.000000 -0.978189
vn 0.207719 0.000000 -0.978189
vn 0.207719 0.000000 -0.978189
vn 0.207719 0.000000 -0.978189
vn 0.000000 -1.000000 0.000000
vn 0.000000 -1.000000 0.000000
vn 0.000000 -1.000000 0.000000
vn 0.000000 -1.000000 0.000000
vn 0.978189 0.000000 0.207719
vn 0.978189 0.000000 0.207719
vn 0.978189 0.000000 0.207719
vn 0.978189 0.000000 0.207719
vn -0.978189 0.000000 -0.207719
vn -0.978189 0.000000 -0.207719
vn -0.978189 0.000000 -0.207719
vn -0.978189 0.000000 -0.207719
s 1
g pCube17
usemtl phong1SG
f 311/427/671 312/428/672 313/429/673
f 313/429/673 312/428/672 314/430/674
s 2
f 313/429/675 314/430/676 315/431/677
f 315/431/677 314/430/676 316/432/678
s 3
f 315/431/679 316/432/680 317/433/681
f 317/433/681 316/432/680 318/434/682
s 4
f 317/433/683 318/434/684 311/435/685
f 311/435/685 318/434/684 312/436/686
s 5
f 312/428/687 318/437/688 314/430/689
f 314/430/689 318/437/688 316/438/690
s 6
f 317/439/691 311/427/692 315/440/693
f 315/440/693 311/427/692 313/429/694
g default
v 4.882542 -0.101331 5.816477
v 5.199607 -0.101331 5.883806
v 4.882542 4.344226 5.816477
v 5.199607 4.344226 5.883806
v 4.949871 4.344226 5.499411
v 5.266936 4.344226 5.566740
v 4.949871 -0.101331 5.499411
v 5.266936 -0.101331 5.566740
vt 0.375000 0.000000
vt 0.625000 0.000000
vt 0.375000 0.250000
vt 0.625000 0.250000
vt 0.375000 0.500000
vt 0.625000 0.500000
vt 0.375000 0.750000
vt 0.625000 0.750000
vt 0.375000 1.000000
vt 0.625000 1.000000
vt 0.875000 0.000000
vt 0.875000 0.250000
vt 0.125000 0.000000
vt 0.125000 0.250000
vn -0.207719 0.000000 0.978189
vn -0.207719 0.000000 0.978189
vn -0.207719 0.000000 0.978189
vn -0.207719 0.000000 0.978189
vn 0.000000 1.000000 0.000000
vn 0.000000 1.000000 0.000000
vn 0.000000 1.000000 0.000000
vn 0.000000 1.000000 0.000000
vn 0.207719 0.000000 -0.978189
vn 0.207719 0.000000 -0.978189
vn 0.207719 0.000000 -0.978189
vn 0.207719 0.000000 -0.978189
vn 0.000000 -1.000000 0.000000
vn 0.000000 -1.000000 0.000000
vn 0.000000 -1.000000 0.000000
vn 0.000000 -1.000000 0.000000
vn 0.978189 0.000000 0.207719
vn 0.978189 0.000000 0.207719
vn 0.978189 0.000000 0.207719
vn 0.978189 0.000000 0.207719
vn -0.978189 0.000000 -0.207719
vn -0.978189 0.000000 -0.207719
vn -0.978189 0.000000 -0.207719
vn -0.978189 0.000000 -0.207719
s 1
g pCube16
usemtl phong1SG
f 319/441/695 320/442/696 321/443/697
f 321/443/697 320/442/696 322/444/698
s 2
f 321/443/699 322/444/700 323/445/701
f 323/445/701 322/444/700 324/446/702
s 3
f 323/445/703 324/446/704 325/447/705
f 325/447/705 324/446/704 326/448/706
s 4
f 325/447/707 326/448/708 319/449/709
f 319/449/709 326/448/708 320/450/710
s 5
f 320/442/711 326/451/712 322/444/713
f 322/444/713 326/451/712 324/452/714
s 6
f 325/453/715 319/441/716 323/454/717
f 323/454/717 319/441/716 321/443/718
g default
v 1.861516 -0.101331 5.762609
v 2.178581 -0.101331 5.829938
v 1.861516 4.344226 5.762609
v 2.178581 4.344226 5.829938
v 1.928845 4.344226 5.445544
v 2.245910 4.344226 5.512873
v 1.928845 -0.101331 5.445544
v 2.245910 -0.101331 5.512873
vt 0.375000 0.000000
vt 0.625000 0.000000
vt 0.375000 0.250000
vt 0.625000 0.250000
vt 0.375000 0.500000
vt 0.625000 0.500000
vt 0.375000 0.750000
vt 0.625000 0.750000
vt 0.375000 1.000000
vt 0.625000 1.000000
vt 0.875000 0.000000
vt 0.875000 0.250000
vt 0.125000 0.000000
vt 0.125000 0.250000
vn -0.207719 0.000000 0.978189
vn -0.207719 0.000000 0.978189
vn -0.207719 0.000000 0.978189
vn -0.207719 0.000000 0.978189
vn 0.000000 1.000000 0.000000
vn 0.000000 1.000000 0.000000
vn 0.000000 1.000000 0.000000
vn 0.000000 1.000000 0.000000
vn 0.207719 0.000000 -0.978189
vn 0.207719 0.000000 -0.978189
vn 0.207719 0.000000 -0.978189
vn 0.207719 0.000000 -0.978189
vn 0.000000 -1.000000 0.000000
vn 0.000000 -1.000000 0.000000
vn 0.000000 -1.000000 0.000000
vn 0.000000 -1.000000 0.000000
vn 0.978189 0.000000 0.207719
vn 0.978189 0.000000 0.207719
vn 0.978189 0.000000 0.207719
vn 0.978189 0.000000 0.207719
vn -0.978189 0.000000 -0.207719
vn -0.978189 0.000000 -0.207719
vn -0.978189 0.000000 -0.207719
vn -0.978189 0.000000 -0.207719
s 1
g pCube15
usemtl phong1SG
f 327/455/719 328/456/720 329/457/721
f 329/457/721 328/456/720 330/458/722
s 2
f 329/457/723 330/458/724 331/459/725
f 331/459/725 330/458/724 332/460/726
s 3
f 331/459/727 332/460/728 333/461/729
f 333/461/729 332/460/728 334/462/730
s 4
f 333/461/731 334/462/732 327/463/733
f 327/463/733 334/462/732 328/464/734
s 5
f 328/456/735 334/465/736 330/458/737
f 330/458/737 334/465/736 332/466/738
s 6
f 333/467/739 327/455/740 331/468/741
f 331/468/741 327/455/740 329/457/742
g default
v 1.736367 -0.101331 2.705094
v 2.053433 -0.101331 2.772422
v 1.736367 4.344226 2.705094
v 2.053433 4.344226 2.772422
v 1.803696 4.344226 2.388028
v 2.120762 4.344226 2.455357
v 1.803696 -0.101331 2.388028
v 2.120762 -0.101331 2.455357
vt 0.375000 0.000000
vt 0.625000 0.000000
vt 0.375000 0.250000
vt 0.625000 0.250000
vt 0.375000 0.500000
vt 0.625000 0.500000
vt 0.375000 0.750000
vt 0.625000 0.750000
vt 0.375000 1.000000
vt 0.625000 1.000000
vt 0.875000 0.000000
vt 0.875000 0.250000
vt 0.125000 0.000000
vt 0.125000 0.250000
vn -0.207719 0.000000 0.978189
vn -0.207719 0.000000 0.978189
vn -0.207719 0.000000 0.978189
vn -0.207719 0.000000 0.978189
vn 0.000000 1.000000 0.000000
vn 0.000000 1.000000 0.000000
vn 0.000000 1.000000 0.000000
vn 0.000000 1.000000 0.000000
vn 0.207719 0.000000 -0.978189
vn 0.207719 0.000000 -0.978189
vn 0.207719 0.000000 -0.978189
vn 0.207719 0.000000 -0.978189
vn 0.000000 -1.000000 0.000000
vn 0.000000 -1.000000 0.000000
vn 0.000000 -1.000000 0.000000
vn 0.000000 -1.000000 0.000000
vn 0.978189 0.000000 0.207719
vn 0.978189 0.000000 0.207719
vn 0.978189 0.000000 0.207719
vn 0.978189 0.000000 0.207719
vn -0.978189 0.000000 -0.207719
vn -0.978189 0.000000 -0.207719
vn -0.978189 0.000000 -0.207719
vn -0.978189 0.000000 -0.207719
s 1
g pCube14
usemtl phong1SG
f 335/469/743 336/470/744 337/471/745
f 337/471/745 336/470/744 338/472/746
s 2
f 337/471/747 338/472/748 339/473/749
f 339/473/749 338/472/748 340/474/750
s 3
f 339/473/751 340/474/752 341/475/753
f 341/475/753 340/474/752 342/476/754
s 4
f 341/475/755 342/476/756 335/477/757
f 335/477/757 342/476/756 336/478/758
s 5
f 336/470/759 342/479/760 338/472/761
f 338/472/761 342/479/760 340/480/762
s 6
f 341/481/763 335/469/764 339/482/765
f 339/482/765 335/469/764 337/471/766
g default
v 4.821564 -0.101331 1.579896
v 5.138629 -0.101331 1.647225
v 4.821564 4.344226 1.579896
v 5.138629 4.344226 1.647225
v 4.888893 4.344226 1.262831
v 5.205958 4.344226 1.330160
v 4.888893 -0.101331 1.262831
v 5.205958 -0.101331 1.330160
vt 0.375000 0.000000
vt 0.625000 0.000000
vt 0.375000 0.250000
vt 0.625000 0.250000
vt 0.375000 0.500000
vt 0.625000 0.500000
vt 0.375000 0.750000
vt 0.625000 0.750000
vt 0.375000 1.000000
vt 0.625000 1.000000
vt 0.875000 0.000000
vt 0.875000 0.250000
vt 0.125000 0.000000
vt 0.125000 0.250000
vn -0.207719 0.000000 0.978189
vn -0.207719 0.000000 0.978189
vn -0.207719 0.000000 0.978189
vn -0.207719 0.000000 0.978189
vn 0.000000 1.000000 0.000000
vn 0.000000 1.000000 0.000000
vn 0.000000 1.000000 0.000000
vn 0.000000 1.000000 0.000000
vn 0.207719 0.000000 -0.978189
vn 0.207719 0.000000 -0.978189
vn 0.207719 0.000000 -0.978189
vn 0.207719 0.000000 -0.978189
vn 0.000000 -1.000000 0.000000
vn 0.000000 -1.000000 0.000000
vn 0.000000 -1.000000 0.000000
vn 0.000000 -1.000000 0.000000
vn 0.978189 0.000000 0.207719
vn 0.978189 0.000000 0.207719
vn 0.978189 0.000000 0.207719
vn 0.978189 0.000000 0.207719
vn -0.978189 0.000000 -0.207719
vn -0.978189 0.000000 -0.207719
vn -0.978189 0.000000 -0.207719
vn -0.978189 0.000000 -0.207719
s 1
g pCube13
usemtl phong1SG
f 343/483/767 344/484/768 345/485/769
f 345/485/769 344/484/768 346/486/770
s 2
f 345/485/771 346/486/772 347/487/773
f 347/487/773 346/486/772 348/488/774
s 3
f 347/487/775 348/488/776 349/489/777
f 349/489/777 348/488/776 350/490/778
s 4
f 349/489/779 350/490/780 343/491/781
f 343/491/781 350/490/780 344/492/782
s 5
f 344/484/783 350/493/784 346/486/785
f 346/486/785 350/493/784 348/494/786
s 6
f 349/495/787 343/483/788 347/496/789
f 347/496/789 343/483/788 345/485/790
g default
v 3.583655 -0.101331 -2.375330
v 3.900720 -0.101331 -2.308001
v 3.583655 4.344226 -2.375330
v 3.900720 4.344226 -2.308001
v 3.650984 4.344226 -2.692396
v 3.968049 4.344226 -2.625067
v 3.650984 -0.101331 -2.692396
v 3.968049 -0.101331 -2.625067
vt 0.375000 0.000000
vt 0.625000 0.000000
vt 0.375000 0.250000
vt 0.625000 0.250000
vt 0.375000 0.500000
vt 0.625000 0.500000
vt 0.375000 0.750000
vt 0.625000 0.750000
vt 0.375000 1.000000
vt 0.625000 1.000000
vt 0.875000 0.000000
vt 0.875000 0.250000
vt 0.125000 0.000000
vt 0.125000 0.250000
vn -0.207719 0.000000 0.978189
vn -0.207719 0.000000 0.978189
vn -0.207719 0.000000 0.978189
vn -0.207719 0.000000 0.978189
vn 0.000000 1.000000 0.000000
vn 0.000000 1.000000 0.000000
vn 0.000000 1.000000 0.000000
vn 0.000000 1.000000 0.000000
vn 0.207719 0.000000 -0.978189
vn 0.207719 0.000000 -0.978189
vn 0.207719 0.000000 -0.978189
vn 0.207719 0.000000 -0.978189
vn 0.000000 -1.000000 0.000000
vn 0.000000 -1.000000 0.000000
vn 0.000000 -1.000000 0.000000
vn 0.000000 -1.000000 0.000000
vn 0.978189 0.000000 0.207719
vn 0.978189 0.000000 0.207719
vn 0.978189 0.000000 0.207719
vn 0.978189 0.000000 0.207719
vn -0.978189 0.000000 -0.207719
vn -0.978189 0.000000 -0.207719
vn -0.978189 0.000000 -0.207719
vn -0.978189 0.000000 -0.207719
s 1
g pCube12
usemtl phong1SG
f 351/497/791 352/498/792 353/499/793
f 353/499/793 352/498/792 354/500/794
s 2
f 353/499/795 354/500/796 355/501/797
f 355/501/797 354/500/796 356/502/798
s 3
f 355/501/799 356/502/800 357/503/801
f 357/503/801 356/502/800 358/504/802
s 4
f 357/503/803 358/504/804 351/505/805
f 351/505/805 358/504/804 352/506/806
s 5
f 352/498/807 358/507/808 354/500/809
f 354/500/809 358/507/808 356/508/810
s 6
f 357/509/811 351/497/812 355/510/813
f 355/510/813 351/497/812 353/499/814
g default
v -3.984252 -0.101331 -3.889202
v -3.667187 -0.101331 -3.821873
v -3.984252 4.344226 -3.889202
v -3.667187 4.344226 -3.821873
v -3.916923 4.344226 -4.206267
v -3.599858 4.344226 -4.138938
v -3.916923 -0.101331 -4.206267
v -3.599858 -0.101331 -4.138938
vt 0.375000 0.000000
vt 0.625000 0.000000
vt 0.375000 0.250000
vt 0.625000 0.250000
vt 0.375000 0.500000
vt 0.625000 0.500000
vt 0.375000 0.750000
vt 0.625000 0.750000
vt 0.375000 1.000000
vt 0.625000 1.000000
vt 0.875000 0.000000
vt 0.875000 0.250000
vt 0.125000 0.000000
vt 0.125000 0.250000
vn -0.207719 0.000000 0.978189
vn -0.207719 0.000000 0.978189
vn -0.207719 0.000000 0.978189
vn -0.207719 0.000000 0.978189
vn 0.000000 1.000000 0.000000
vn 0.000000 1.000000 0.000000
vn 0.000000 1.000000 0.000000
vn 0.000000 1.000000 0.000000
vn 0.207719 0.000000 -0.978189
vn 0.207719 0.000000 -0.978189
vn 0.207719 0.000000 -0.978189
vn 0.207719 0.000000 -0.978189
vn 0.000000 -1.000000 0.000000
vn 0.000000 -1.000000 0.000000
vn 0.000000 -1.000000 0.000000
vn 0.000000 -1.000000 0.000000
vn 0.978189 0.000000 0.207719
vn 0.978189 0.000000 0.207719
vn 0.978189 0.000000 0.207719
vn 0.978189 0.000000 0.207719
vn -0.978189 0.000000 -0.207719
vn -0.978189 0.000000 -0.207719
vn -0.978189 0.000000 -0.207719
vn -0.978189 0.000000 -0.207719
s 1
g pCube7
usemtl phong1SG
f 359/511/815 360/512/816 361/513/817
f 361/513/817 360/512/816 362/514/818
s 2
f 361/513/819 362/514/820 363/515/821
f 363/515/821 362/514/820 364/516/822
s 3
f 363/515/823 364/516/824 365/517/825
f 365/517/825 364/516/824 366/518/826
s 4
f 365/517/827 366/518/828 359/519/829
f 359/519/829 366/518/828 360/520/830
s 5
f 360/512/831 366/521/832 362/514/833
f 362/514/833 366/521/832 364/522/834
s 6
f 365/523/835 359/511/836 363/524/837
f 363/524/837 359/511/836 361/513/838
g default
v -7.157428 -0.101331 -7.639118
v -6.833293 -0.101331 -7.639118
v -7.157428 4.344226 -7.639118
v -6.833293 4.344226 -7.639118
v -7.157428 4.344226 -7.963253
v -6.833293 4.344226 -7.963253
v -7.157428 -0.101331 -7.963253
v -6.833293 -0.101331 -7.963253
vt 0.375000 0.000000
vt 0.625000 0.000000
vt 0.375000 0.250000
vt 0.625000 0.250000
vt 0.375000 0.500000
vt 0.625000 0.500000
vt 0.375000 0.750000
vt 0.625000 0.750000
vt 0.375000 1.000000
vt 0.625000 1.000000
vt 0.875000 0.000000
vt 0.875000 0.250000
vt 0.125000 0.000000
vt 0.125000 0.250000
vn 0.000000 0.000000 1.000000
vn 0.000000 0.000000 1.000000
vn 0.000000 0.000000 1.000000
vn 0.000000 0.000000 1.000000
vn 0.000000 1.000000 0.000000
vn 0.000000 1.000000 0.000000
vn 0.000000 1.000000 0.000000
vn 0.000000 1.000000 0.000000
vn 0.000000 0.000000 -1.000000
vn 0.000000 0.000000 -1.000000
vn 0.000000 0.000000 -1.000000
vn 0.000000 0.000000 -1.000000
vn 0.000000 -1.000000 0.000000
vn 0.000000 -1.000000 0.000000
vn 0.000000 -1.000000 0.000000
vn 0.000000 -1.000000 0.000000
vn 1.000000 0.000000 0.000000
vn 1.000000 0.000000 0.000000
vn 1.000000 0.000000 0.000000
vn 1.000000 0.000000 0.000000
vn -1.000000 0.000000 0.000000
vn -1.000000 0.000000 0.000000
vn -1.000000 0.000000 0.000000
vn -1.000000 0.000000 0.000000
s 1
g pCube6
usemtl phong1SG
f 367/525/839 368/526/840 369/527/841
f 369/527/841 368/526/840 370/528/842
s 2
f 369/527/843 370/528/844 371/529/845
f 371/529/845 370/528/844 372/530/846
s 3
f 371/529/847 372/530/848 373/531/849
f 373/531/849 372/530/848 374/532/850
s 4
f 373/531/851 374/532/852 367/533/853
f 367/533/853 374/532/852 368/534/854
s 5
f 368/526/855 374/535/856 370/528/857
f 370/528/857 374/535/856 372/536/858
s 6
f 373/537/859 367/525/860 371/538/861
f 371/538/861 367/525/860 369/527/862
g default
v -10.159872 4.129155 -4.440797
v -8.622246 3.960678 -4.545313
v -7.080896 3.810409 -4.472797
v -10.103736 3.961668 -5.981056
v -8.652772 3.811460 -5.996136
v -7.201809 3.661251 -6.011216
v -10.224649 3.812510 -7.519475
v -8.683298 3.662241 -7.446959
v -7.145673 3.493764 -7.551475
vt 0.000000 0.000000
vt 0.500000 0.000000
vt 1.000000 0.000000
vt 0.000000 0.500000
vt 0.500000 0.500000
vt 1.000000 0.500000
vt 0.000000 1.000000
vt 0.500000 1.000000
vt 1.000000 1.000000
vn 0.101347 0.989411 -0.103894
vn 0.101347 0.989411 -0.103894
vn 0.101347 0.989411 -0.103894
vn 0.101347 0.989411 -0.103894
vn 0.101347 0.989411 -0.103894
vn 0.101347 0.989411 -0.103894
vn 0.101347 0.989411 -0.103894
vn 0.101347 0.989411 -0.103894
vn 0.101347 0.989411 -0.103894
s 1
g pPlane1
usemtl phong2SG
f 375/539/863 376/540/864 378/542/865
f 378/542/865 376/540/864 379/543/866
f 377/541/867 380/544/868 376/540/864
f 376/540/864 380/544/868 379/543/866
f 379/543/866 382/546/869 378/542/865
f 378/542/865 382/546/869 381/545/870
f 379/543/866 380/544/868 382/546/869
f 382/546/869 380/544/868 383/547/871
g default
v 4.576579 4.078697 8.809125
v 4.572232 4.078697 9.032595
v 1.314593 4.078697 8.745670
v 1.310246 4.078697 8.969140
v 1.314593 4.302210 8.745670
v 1.310246 4.302210 8.969140
v 4.576579 4.302210 8.809125
v 4.572232 4.302210 9.032595
vt 0.375000 0.000000
vt 0.625000 0.000000
vt 0.375000 0.250000
vt 0.625000 0.250000
vt 0.375000 0.500000
vt 0.625000 0.500000
vt 0.375000 0.750000
vt 0.625000 0.750000
vt 0.375000 1.000000
vt 0.625000 1.000000
vt 0.875000 0.000000
vt 0.875000 0.250000
vt 0.125000 0.000000
vt 0.125000 0.250000
vn -0.000000 -1.000000 -0.000000
vn -0.000000 -1.000000 -0.000000
vn -0.000000 -1.000000 -0.000000
vn -0.000000 -1.000000 -0.000000
vn -0.999811 0.000000 -0.019449
vn -0.999811 0.000000 -0.019449
vn -0.999811 0.000000 -0.019449
vn -0.999811 0.000000 -0.019449
vn 0.000000 1.000000 0.000000
vn 0.000000 1.000000 0.000000
vn 0.000000 1.000000 0.000000
vn 0.000000 1.000000 0.000000
vn 0.999811 -0.000000 0.019449
vn 0.999811 -0.000000 0.019449
vn 0.999811 -0.000000 0.019449
vn 0.999811 -0.000000 0.019449
vn -0.019449 0.000000 0.999811
vn -0.019449 0.000000 0.999811
vn -0.019449 0.000000 0.999811
vn -0.019449 0.000000 0.999811
vn 0.019449 -0.000000 -0.999811
vn 0.019449 -0.000000 -0.999811
vn 0.019449 -0.000000 -0.999811
vn 0.019449 -0.000000 -0.999811
s 1
g pCube26
usemtl phong1SG
f 384/548/872 385/549/873 386/550/874
f 386/550/874 385/549/873 387/551/875
s 2
f 386/550/876 387/551/877 388/552/878
f 388/552/878 387/551/877 389/553/879
s 3
f 388/552/880 389/553/881 390/554/882
f 390/554/882 389/553/881 391/555/883
s 4
f 390/554/884 391/555/885 384/556/886
f 384/556/886 391/555/885 385/557/887
s 5
f 385/549/888 391/558/889 387/551/890
f 387/551/890 391/558/889 389/559/891
s 6
f 390/560/892 384/548/893 388/561/894
f 388/561/894 384/548/893 386/550/895
g default
v 0.564360 -0.101331 -5.551867
v 0.881426 -0.101331 -5.484538
v 0.564360 4.344226 -5.551867
v 0.881426 4.344226 -5.484538
v 0.631689 4.344226 -5.868932
v 0.948755 4.344226 -5.801603
v 0.631689 -0.101331 -5.868932
v 0.948755 -0.101331 -5.801603
vt 0.375000 0.000000
vt 0.625000 0.000000
vt 0.375000 0.250000
vt 0.625000 0.250000
vt 0.375000 0.500000
vt 0.625000 0.500000
vt 0.375000 0.750000
vt 0.625000 0.750000
vt 0.375000 1.000000
vt 0.625000 1.000000
vt 0.875000 0.000000
vt 0.875000 0.250000
vt 0.125000 0.000000
vt 0.125000 0.250000
vn -0.207719 0.000000 0.978189
vn -0.207719 0.000000 0.978189
vn -0.207719 0.000000 0.978189
vn -0.207719 0.000000 0.978189
vn 0.000000 1.000000 0.000000
vn 0.000000 1.000000 0.000000
vn 0.000000 1.000000 0.000000
vn 0.000000 1.000000 0.000000
vn 0.207719 0.000000 -0.978189
vn 0.207719 0.000000 -0.978189
vn 0.207719 0.000000 -0.978189
vn 0.207719 0.000000 -0.978189
vn 0.000000 -1.000000 0.000000
vn 0.000000 -1.000000 0.000000
vn 0.000000 -1.000000 0.000000
vn 0.000000 -1.000000 0.000000
vn 0.978189 0.000000 0.207719
vn 0.978189 0.000000 0.207719
vn 0.978189 0.000000 0.207719
vn 0.978189 0.000000 0.207719
vn -0.978189 0.000000 -0.207719
vn -0.978189 0.000000 -0.207719
vn -0.978189 0.000000 -0.207719
vn -0.978189 0.000000 -0.207719
s 1
g pCube9
usemtl phong1SG
f 392/562/896 393/563/897 394/564/898
f 394/564/898 393/563/897 395/565/899
s 2
f 394/564/900 395/565/901 396/566/902
f 396/566/902 395/565/901 397/567/903
s 3
f 396/566/904 397/567/905 398/568/906
f 398/568/906 397/567/905 399/569/907
s 4
f 398/568/908 399/569/909 392/570/910
f 392/570/910 399/569/909 393/571/911
s 5
f 393/563/912 399/572/913 395/565/914
f 395/565/914 399/572/913 397/573/915
s 6
f 398/574/916 392/562/917 396/575/918
f 396/575/918 392/562/917 394/564/919
g default
v -3.616128 -0.101331 -7.479886
v -3.299063 -0.101331 -7.412557
v -3.616128 4.344226 -7.479886
v -3.299063 4.344226 -7.412557
v -3.548799 4.344226 -7.796951
v -3.231734 4.344226 -7.729622
v -3.548799 -0.101331 -7.796951
v -3.231734 -0.101331 -7.729622
vt 0.375000 0.000000
vt 0.625000 0.000000
vt 0.375000 0.250000
vt 0.625000 0.250000
vt 0.375000 0.500000
vt 0.625000 0.500000
vt 0.375000 0.750000
vt 0.625000 0.750000
vt 0.375000 1.000000
vt 0.625000 1.000000
vt 0.875000 0.000000
vt 0.875000 0.250000
vt 0.125000 0.000000
vt 0.125000 0.250000
vn -0.207719 0.000000 0.978189
vn -0.207719 0.000000 0.978189
vn -0.207719 0.000000 0.978189
vn -0.207719 0.000000 0.978189
vn 0.000000 1.000000 0.000000
vn 0.000000 1.000000 0.000000
vn 0.000000 1.000000 0.000000
vn 0.000000 1.000000 0.000000
vn 0.207719 0.000000 -0.978189
vn 0.207719 0.000000 -0.978189
vn 0.207719 0.000000 -0.978189
vn 0.207719 0.000000 -0.978189
vn 0.000000 -1.000000 0.000000
vn 0.000000 -1.000000 0.000000
vn 0.000000 -1.000000 0.000000
vn 0.000000 -1.000000 0.000000
vn 0.978189 0.000000 0.207719
vn 0.978189 0.000000 0.207719
vn 0.978189 0.000000 0.207719
vn 0.978189 0.000000 0.207719
vn -0.978189 0.000000 -0.207719
vn -0.978189 0.000000 -0.207719
vn -0.978189 0.000000 -0.207719
vn -0.978189 0.000000 -0.207719
s 1
g pCube8
usemtl phong1SG
f 400/576/920 401/577/921 402/578/922
f 402/578/922 401/577/921 403/579/923
s 2
f 402/578/924 403/579/925 404/580/926
f 404/580/926 403/579/925 405/581/927
s 3
f 404/580/928 405/581/929 406/582/930
f 406/582/930 405/581/929 407/583/931
s 4
f 406/582/932 407/583/933 400/584/934
f 400/584/934 407/583/933 401/585/935
s 5
f 401/577/936 407/586/937 403/579/938
f 403/579/938 407/586/937 405/587/939
s 6
f 406/588/940 400/576/941 404/589/942
f 404/589/942 400/576/941 402/578/943
g default
v 5.220350 4.078697 5.593581
v 5.216003 4.078697 5.817052
v 1.958363 4.078697 5.530126
v 1.954016 4.078697 5.753597
v 1.958363 4.302210 5.530126
v 1.954016 4.302210 5.753597
v 5.220350 4.302210 5.593581
v 5.216003 4.302210 5.817052
vt 0.375000 0.000000
vt 0.625000 0.000000
vt 0.375000 0.250000
vt 0.625000 0.250000
vt 0.375000 0.500000
vt 0.625000 0.500000
vt 0.375000 0.750000
vt 0.625000 0.750000
vt 0.375000 1.000000
vt 0.625000 1.000000
vt 0.875000 0.000000
vt 0.875000 0.250000
vt 0.125000 0.000000
vt 0.125000 0.250000
vn -0.000000 -1.000000 -0.000000
vn -0.000000 -1.000000 -0.000000
vn -0.000000 -1.000000 -0.000000
vn -0.000000 -1.000000 -0.000000
vn -0.999811 0.000000 -0.019449
vn -0.999811 0.000000 -0.019449
vn -0.999811 0.000000 -0.019449
vn -0.999811 0.000000 -0.019449
vn 0.000000 1.000000 0.000000
vn 0.000000 1.000000 0.000000
vn 0.000000 1.000000 0.000000
vn 0.000000 1.000000 0.000000
vn 0.999811 -0.000000 0.019449
vn 0.999811 -0.000000 0.019449
vn 0.999811 -0.000000 0.019449
vn 0.999811 -0.000000 0.019449
vn -0.019449 0.000000 0.999811
vn -0.019449 0.000000 0.999811
vn -0.019449 0.000000 0.999811
vn -0.019449 0.000000 0.999811
vn 0.019449 -0.000000 -0.999811
vn 0.019449 -0.000000 -0.999811
vn 0.019449 -0.000000 -0.999811
vn 0.019449 -0.000000 -0.999811
s 1
g pCube25
usemtl phong1SG
f 408/590/944 409/591/945 410/592/946
f 410/592/946 409/591/945 411/593/947
s 2
f 410/592/948 411/593/949 412/594/950
f 412/594/950 411/593/949 413/595/951
s 3
f 412/594/952 413/595/953 414/596/954
f 414/596/954 413/595/953 415/597/955
s 4
f 414/596/956 415/597/957 408/598/958
f 408/598/958 415/597/957 409/599/959
s 5
f 409/591/960 415/600/961 411/593/962
f 411/593/962 415/600/961 413/601/963
s 6
f 414/602/964 408/590/965 412/603/966
f 412/603/966 408/590/965 410/592/967
g default
v 5.023012 4.078697 1.327173
v 5.098228 4.078697 1.537650
v 1.871174 4.078697 2.453516
v 1.946391 4.078697 2.663993
v 1.871174 4.302210 2.453516
v 1.946391 4.302210 2.663993
v 5.023012 4.302210 1.327173
v 5.098228 4.302210 1.537650
vt 0.375000 0.000000
vt 0.625000 0.000000
vt 0.375000 0.250000
vt 0.625000 0.250000
vt 0.375000 0.500000
vt 0.625000 0.500000
vt 0.375000 0.750000
vt 0.625000 0.750000
vt 0.375000 1.000000
vt 0.625000 1.000000
vt 0.875000 0.000000
vt 0.875000 0.250000
vt 0.125000 0.000000
vt 0.125000 0.250000
vn 0.000000 -1.000000 -0.000000
vn 0.000000 -1.000000 -0.000000
vn 0.000000 -1.000000 -0.000000
vn 0.000000 -1.000000 -0.000000
vn -0.941677 -0.000000 0.336518
vn -0.941677 -0.000000 0.336518
vn -0.941677 -0.000000 0.336518
vn -0.941677 -0.000000 0.336518
vn -0.000000 1.000000 0.000000
vn -0.000000 1.000000 0.000000
vn -0.000000 1.000000 0.000000
vn -0.000000 1.000000 0.000000
vn 0.941677 0.000000 -0.336518
vn 0.941677 0.000000 -0.336518
vn 0.941677 0.000000 -0.336518
vn 0.941677 0.000000 -0.336518
vn 0.336518 0.000000 0.941677
vn 0.336518 0.000000 0.941677
vn 0.336518 0.000000 0.941677
vn 0.336518 0.000000 0.941677
vn -0.336518 -0.000000 -0.941677
vn -0.336518 -0.000000 -0.941677
vn -0.336518 -0.000000 -0.941677
vn -0.336518 -0.000000 -0.941677
s 1
g pCube24
usemtl phong1SG
f 416/604/968 417/605/969 418/606/970
f 418/606/970 417/605/969 419/607/971
s 2
f 418/606/972 419/607/973 420/608/974
f 420/608/974 419/607/973 421/609/975
s 3
f 420/608/976 421/609/977 422/610/978
f 422/610/978 421/609/977 423/611/979
s 4
f 422/610/980 423/611/981 416/612/982
f 416/612/982 423/611/981 417/613/983
s 5
f 417/605/984 423/614/985 419/607/986
f 419/607/986 423/614/985 421/615/987
s 6
f 422/616/988 416/604/989 420/617/990
f 420/617/990 416/604/989 418/606/991
